Jonson IR Trigger/simulation/qsim/Jonson.msim.vcd
$comment
	File created using the following command:
		vcd file Jonson.msim.vcd -direction
$end
$date
	Fri May 14 15:16:30 2021
$end
$version
	ModelSim Version 10.5b
$end
$timescale
	1ps
$end

$scope module Jonson_vlg_vec_tst $end
$var reg 1 ! C $end
$var reg 1 " R $end
$var wire 1 # Q_0 $end
$var wire 1 $ Q_1 $end
$var wire 1 % Q_2 $end
$var wire 1 & Q_3 $end
$var wire 1 ' Q_4 $end
$var wire 1 ( Q_5 $end
$var wire 1 ) Q_6 $end
$var wire 1 * Q_7 $end
$var wire 1 + Q_8 $end
$var wire 1 , Q_9 $end
$var wire 1 - Q_10 $end
$var wire 1 . Q_11 $end

$scope module i1 $end
$var wire 1 / gnd $end
$var wire 1 0 vcc $end
$var wire 1 1 unknown $end
$var tri1 1 2 devclrn $end
$var tri1 1 3 devpor $end
$var tri1 1 4 devoe $end
$var wire 1 5 Q_0~output_o $end
$var wire 1 6 Q_1~output_o $end
$var wire 1 7 Q_2~output_o $end
$var wire 1 8 Q_3~output_o $end
$var wire 1 9 Q_4~output_o $end
$var wire 1 : Q_5~output_o $end
$var wire 1 ; Q_6~output_o $end
$var wire 1 < Q_7~output_o $end
$var wire 1 = Q_8~output_o $end
$var wire 1 > Q_9~output_o $end
$var wire 1 ? Q_10~output_o $end
$var wire 1 @ Q_11~output_o $end
$var wire 1 A C~input_o $end
$var wire 1 B C~inputclkctrl_outclk $end
$var wire 1 C inst2|inst3~0_combout $end
$var wire 1 D R~input_o $end
$var wire 1 E R~inputclkctrl_outclk $end
$var wire 1 F inst2|inst3~q $end
$var wire 1 G inst2|inst2~feeder_combout $end
$var wire 1 H inst2|inst2~q $end
$var wire 1 I inst2|inst1~feeder_combout $end
$var wire 1 J inst2|inst1~q $end
$var wire 1 K inst2|inst~feeder_combout $end
$var wire 1 L inst2|inst~q $end
$var wire 1 M inst1|inst3~feeder_combout $end
$var wire 1 N inst1|inst3~q $end
$var wire 1 O inst1|inst2~feeder_combout $end
$var wire 1 P inst1|inst2~q $end
$var wire 1 Q inst1|inst1~feeder_combout $end
$var wire 1 R inst1|inst1~q $end
$var wire 1 S inst1|inst~feeder_combout $end
$var wire 1 T inst1|inst~q $end
$var wire 1 U inst|inst3~feeder_combout $end
$var wire 1 V inst|inst3~q $end
$var wire 1 W inst|inst2~feeder_combout $end
$var wire 1 X inst|inst2~q $end
$var wire 1 Y inst|inst1~feeder_combout $end
$var wire 1 Z inst|inst1~q $end
$var wire 1 [ inst3|inst~combout $end
$var wire 1 \ inst|inst~q $end
$upscope $end
$upscope $end
$enddefinitions $end
#0
$dumpvars
0!
1"
x#
x$
x%
x&
x'
x(
x)
x*
x+
x,
x-
x.
0/
10
x1
12
13
14
x5
x6
x7
x8
x9
x:
x;
x<
x=
x>
x?
x@
0A
xB
xC
1D
xE
0F
xG
0H
xI
0J
xK
0L
xM
0N
xO
0P
xQ
0R
xS
0T
xU
0V
xW
0X
xY
0Z
x[
0\
$end
#158
0B
#180
1E
#427
0S
0U
#428
0K
#429
0G
0I
0W
#430
0M
0Q
#437
0Y
#438
1C
#555
0[
#557
0O
#3114
07
0%
#3131
0;
0)
#3352
0=
0+
#3359
0:
0(
#3534
0@
0.
#3564
08
0&
#3570
0?
0-
#3626
09
0'
#3634
05
0#
#3732
0<
0*
#3766
0>
0,
#4754
06
0$
#10000
1!
0"
#10596
1A
#10761
0D
#10776
1B
#10919
0E
#20000
0!
#20761
0A
#20919
0B
#30000
1!
#30596
1A
#30776
1B
#32246
1F
#32615
1G
#35798
1@
1.
#40000
0!
#40761
0A
#40919
0B
#50000
1!
#50596
1A
#50776
1B
#52246
1H
#52616
1I
#55829
1?
1-
#60000
0!
#60761
0A
#60919
0B
#70000
1!
#70596
1A
#70776
1B
#72246
1J
#72615
1K
#76045
1>
1,
#80000
0!
#80761
0A
#80919
0B
#90000
1!
#90596
1A
#90776
1B
#92246
1L
#92616
1M
#95607
1=
1+
#100000
0!
#100761
0A
#100919
0B
#110000
1!
#110596
1A
#110776
1B
#112246
1N
#112727
1O
#116004
1<
1*
#120000
0!
#120761
0A
#120919
0B
#130000
1!
#130596
1A
#130776
1B
#132246
1P
#132616
1Q
#135382
1;
1)
#140000
0!
#140761
0A
#140919
0B
#150000
1!
#150596
1A
#150776
1B
#152246
1R
#152615
1S
#155625
1:
1(
#160000
0!
#160761
0A
#160919
0B
#170000
1!
#170596
1A
#170776
1B
#172246
1T
#172614
1U
#175882
19
1'
#180000
0!
#180761
0A
#180919
0B
#190000
1!
#190596
1A
#190776
1B
#192246
1V
#192616
1W
#195832
18
1&
#200000
0!
#200761
0A
#200919
0B
#210000
1!
#210596
1A
#210776
1B
#212246
1X
#212622
1Y
#215364
17
1%
#220000
0!
#220761
0A
#220919
0B
#230000
1!
#230596
1A
#230776
1B
#232246
1Z
#232724
1[
#236924
16
1$
#240000
0!
#240761
0A
#240919
0B
#250000
1!
#250596
1A
#250776
1B
#252246
1\
#252605
0C
#255901
15
1#
#260000
0!
#260761
0A
#260919
0B
#270000
1!
#270596
1A
#270776
1B
#272246
0F
#272675
0G
#275780
0@
0.
#280000
0!
#280761
0A
#280919
0B
#290000
1!
#290596
1A
#290776
1B
#292246
0H
#292675
0I
#295816
0?
0-
#300000
0!
#300761
0A
#300919
0B
#310000
1!
#310596
1A
#310776
1B
#312246
0J
#312674
0K
#316012
0>
0,
#320000
0!
#320761
0A
#320919
0B
#330000
1!
#330596
1A
#330776
1B
#332246
0L
#332676
0M
#335598
0=
0+
#340000
0!
#340761
0A
#340919
0B
#350000
1!
#350596
1A
#350776
1B
#352246
0N
#352803
0O
#355978
0<
0*
#360000
0!
#360761
0A
#360919
0B
#370000
1!
#370596
1A
#370776
1B
#372246
0P
#372676
0Q
#375377
0;
0)
#380000
0!
#380761
0A
#380919
0B
#390000
1!
#390596
1A
#390776
1B
#392246
0R
#392673
0S
#395605
0:
0(
#400000
0!
#400761
0A
#400919
0B
#410000
1!
#410596
1A
#410776
1B
#412246
0T
#412673
0U
#415872
09
0'
#420000
0!
#420761
0A
#420919
0B
#430000
1!
#430596
1A
#430776
1B
#432246
0V
#432675
0W
#435810
08
0&
#440000
0!
#440761
0A
#440919
0B
#450000
1!
#450596
1A
#450776
1B
#452246
0X
#452683
0Y
0[
#455360
07
0%
#460000
0!
#460761
0A
#460919
0B
#470000
1!
#470596
1A
#470776
1B
#472246
0Z
0\
#472684
1C
#475880
05
0#
#477000
06
0$
#480000
0!
#480761
0A
#480919
0B
#490000
1!
#490596
1A
#490776
1B
#492246
1F
#492615
1G
#495798
1@
1.
#500000
0!
#500761
0A
#500919
0B
#510000
1!
#510596
1A
#510776
1B
#512246
1H
#512616
1I
#515829
1?
1-
#520000
0!
#520761
0A
#520919
0B
#530000
1!
#530596
1A
#530776
1B
#532246
1J
#532615
1K
#536045
1>
1,
#540000
0!
#540761
0A
#540919
0B
#550000
1!
#550596
1A
#550776
1B
#552246
1L
#552616
1M
#555607
1=
1+
#560000
0!
#560761
0A
#560919
0B
#570000
1!
#570596
1A
#570776
1B
#572246
1N
#572727
1O
#576004
1<
1*
#580000
0!
#580761
0A
#580919
0B
#590000
1!
#590596
1A
#590776
1B
#592246
1P
#592616
1Q
#595382
1;
1)
#600000
0!
#600761
0A
#600919
0B
#610000
1!
#610596
1A
#610776
1B
#612246
1R
#612615
1S
#615625
1:
1(
#620000
0!
#620761
0A
#620919
0B
#630000
1!
#630596
1A
#630776
1B
#632246
1T
#632614
1U
#635882
19
1'
#640000
0!
#640761
0A
#640919
0B
#650000
1!
#650596
1A
#650776
1B
#652246
1V
#652616
1W
#655832
18
1&
#660000
0!
#660761
0A
#660919
0B
#670000
1!
#670596
1A
#670776
1B
#672246
1X
#672622
1Y
#675364
17
1%
#680000
0!
#680761
0A
#680919
0B
#690000
1!
#690596
1A
#690776
1B
#692246
1Z
#692724
1[
#696924
16
1$
#700000
0!
#700761
0A
#700919
0B
#710000
1!
#710596
1A
#710776
1B
#712246
1\
#712605
0C
#715901
15
1#
#720000
0!
#720761
0A
#720919
0B
#730000
1!
#730596
1A
#730776
1B
#732246
0F
#732675
0G
#735780
0@
0.
#740000
0!
#740761
0A
#740919
0B
#750000
1!
#750596
1A
#750776
1B
#752246
0H
#752675
0I
#755816
0?
0-
#760000
0!
#760761
0A
#760919
0B
#770000
1!
#770596
1A
#770776
1B
#772246
0J
#772674
0K
#776012
0>
0,
#780000
0!
#780761
0A
#780919
0B
#790000
1!
#790596
1A
#790776
1B
#792246
0L
#792676
0M
#795598
0=
0+
#800000
0!
#800761
0A
#800919
0B
#810000
1!
#810596
1A
#810776
1B
#812246
0N
#812803
0O
#815978
0<
0*
#820000
0!
#820761
0A
#820919
0B
#830000
1!
#830596
1A
#830776
1B
#832246
0P
#832676
0Q
#835377
0;
0)
#840000
0!
#840761
0A
#840919
0B
#850000
1!
#850596
1A
#850776
1B
#852246
0R
#852673
0S
#855605
0:
0(
#860000
0!
#860761
0A
#860919
0B
#870000
1!
#870596
1A
#870776
1B
#872246
0T
#872673
0U
#875872
09
0'
#880000
0!
#880761
0A
#880919
0B
#890000
1!
#890596
1A
#890776
1B
#892246
0V
#892675
0W
#895810
08
0&
#900000
0!
#900761
0A
#900919
0B
#910000
1!
#910596
1A
#910776
1B
#912246
0X
#912683
0Y
0[
#915360
07
0%
#920000
0!
#920761
0A
#920919
0B
#930000
1!
#930596
1A
#930776
1B
#932246
0Z
0\
#932684
1C
#935880
05
0#
#937000
06
0$
#940000
0!
#940761
0A
#940919
0B
#950000
1!
#950596
1A
#950776
1B
#952246
1F
#952615
1G
#955798
1@
1.
#960000
0!
#960761
0A
#960919
0B
#970000
1!
#970596
1A
#970776
1B
#972246
1H
#972616
1I
#975829
1?
1-
#980000
0!
#980761
0A
#980919
0B
#990000
1!
#990596
1A
#990776
1B
#992246
1J
#992615
1K
#996045
1>
1,
