labs/lab2_1/simulation/qsim/lab1.msim.vcd
$comment
	File created using the following command:
		vcd file lab1.msim.vcd -direction
$end
$date
	Thu Oct 29 15:57:18 2020
$end
$version
	ModelSim Version 10.5b
$end
$timescale
	1ps
$end

$scope module lab1_vlg_vec_tst $end
$var reg 1 ! X1 $end
$var reg 1 " X2 $end
$var reg 1 # X3 $end
$var reg 1 $ X4 $end
$var wire 1 % f2 $end
$var wire 1 & f3 $end

$scope module i1 $end
$var wire 1 ' gnd $end
$var wire 1 ( vcc $end
$var wire 1 ) unknown $end
$var tri1 1 * devclrn $end
$var tri1 1 + devpor $end
$var tri1 1 , devoe $end
$var wire 1 - f2~output_o $end
$var wire 1 . f3~output_o $end
$var wire 1 / X1~input_o $end
$var wire 1 0 X4~input_o $end
$var wire 1 1 X2~input_o $end
$var wire 1 2 X3~input_o $end
$var wire 1 3 inst|9~0_combout $end
$var wire 1 4 inst|10~0_combout $end
$upscope $end
$upscope $end
$enddefinitions $end
#0
$dumpvars
0!
0"
0#
0$
x%
x&
0'
1(
x)
1*
1+
1,
x-
x.
0/
00
01
02
x3
x4
$end
#3860
14
#3861
13
#6904
1-
1%
#8499
1.
1&
#10000
1!
#10596
1/
#14213
03
04
#17236
0-
0%
#18917
0.
0&
#20000
1"
0!
#20594
11
#20761
0/
#23824
13
14
#24627
03
#28463
1.
1&
#30000
1!
#30596
1/
#34208
13
#37251
1-
1%
#40000
1#
0"
0!
#40594
12
#40759
01
#40761
0/
#44264
03
#47287
0-
0%
#50000
1!
#50596
1/
#60000
1"
0!
#60594
11
#60761
0/
#63824
13
#64626
04
#66867
1-
1%
#69330
0.
0&
#70000
1!
#70596
1/
#74208
14
#78847
1.
1&
#80000
1$
0#
0"
0!
#80596
10
#80759
01
02
#80761
0/
#90000
1!
#90596
1/
#94213
03
04
#97236
0-
0%
#98917
0.
0&
#100000
1"
0!
#100594
11
#100761
0/
#103824
13
14
#104626
04
#104627
03
#110000
1!
#110596
1/
#114208
13
14
#117251
1-
1%
#118847
1.
1&
#120000
1#
0"
0!
#120594
12
#120759
01
#120761
0/
#130000
1!
#130596
1/
#140000
1"
0!
#140594
11
#140761
0/
#150000
1!
#150596
1/
#160000
0$
0#
0"
0!
#160759
01
02
#160761
0/
00
