Jonson D Trigger/simulation/qsim/Jonson.msim.vcd
$comment
	File created using the following command:
		vcd file Jonson.msim.vcd -direction
$end
$date
	Mon Jun 14 19:30:01 2021
$end
$version
	ModelSim Version 10.5b
$end
$timescale
	1ps
$end

$scope module Jonson_vlg_vec_tst $end
$var reg 1 ! C $end
$var reg 1 " R $end
$var wire 1 # Q_0 $end
$var wire 1 $ Q_1 $end
$var wire 1 % Q_2 $end
$var wire 1 & Q_3 $end
$var wire 1 ' Q_4 $end

$scope module i1 $end
$var wire 1 ( gnd $end
$var wire 1 ) vcc $end
$var wire 1 * unknown $end
$var tri1 1 + devclrn $end
$var tri1 1 , devpor $end
$var tri1 1 - devoe $end
$var wire 1 . Q_0~output_o $end
$var wire 1 / Q_1~output_o $end
$var wire 1 0 Q_2~output_o $end
$var wire 1 1 Q_3~output_o $end
$var wire 1 2 Q_4~output_o $end
$var wire 1 3 C~input_o $end
$var wire 1 4 C~inputclkctrl_outclk $end
$var wire 1 5 inst|inst~0_combout $end
$var wire 1 6 R~input_o $end
$var wire 1 7 R~inputclkctrl_outclk $end
$var wire 1 8 inst|inst~q $end
$var wire 1 9 inst|inst1~0_combout $end
$var wire 1 : inst|inst1~q $end
$var wire 1 ; inst7|inst1~0_combout $end
$var wire 1 < inst|inst3~q $end
$var wire 1 = inst7|inst1~1_combout $end
$var wire 1 > inst10|inst1~0_combout $end
$var wire 1 ? inst1|inst~q $end
$var wire 1 @ inst2|inst1~0_combout $end
$var wire 1 A inst|inst2~q $end
$upscope $end
$upscope $end
$enddefinitions $end
#0
$dumpvars
0!
1"
0#
0$
0%
0&
0'
0(
1)
x*
1+
1,
1-
0.
0/
00
01
02
03
04
15
16
17
08
09
0:
0;
0<
0=
0>
0?
0@
0A
$end
#10000
0"
06
07
#20000
1!
13
14
18
1.
1#
19
05
#30000
0!
03
04
#40000
1!
13
14
1:
08
0.
1/
1$
0#
15
#50000
0!
03
04
#60000
1!
13
14
18
1.
1#
1@
09
05
#70000
0!
03
04
#80000
1!
13
14
1A
0:
08
0.
0/
10
1%
0$
0#
15
#90000
0!
03
04
#100000
1!
13
14
18
1.
1#
19
05
#110000
0!
03
04
#120000
1!
13
14
1:
08
0.
1/
1$
0#
15
#130000
0!
03
04
#140000
1!
13
14
18
1.
1#
0@
1;
09
05
#150000
0!
03
04
#160000
1!
13
14
0A
1<
0:
08
0.
0/
11
00
0%
1&
0$
0#
15
#170000
0!
03
04
#180000
1!
13
14
18
1.
1#
19
05
#190000
0!
03
04
#200000
1!
13
14
1:
08
0.
1/
1$
0#
15
#210000
0!
03
04
#220000
1!
13
14
18
1.
1#
1@
09
05
#230000
0!
03
04
#240000
1!
13
14
1A
0:
08
0.
0/
10
1%
0$
0#
15
#250000
0!
03
04
#260000
1!
13
14
18
1.
1#
19
05
#270000
0!
03
04
#280000
1!
13
14
1:
08
0.
1/
1$
0#
15
#290000
0!
03
04
#300000
1!
13
14
18
1.
1=
1#
0@
0;
09
05
1>
#310000
0!
03
04
#320000
1!
13
14
0A
1?
0<
0:
08
0.
0/
01
12
00
0=
0%
1'
0&
0$
0#
15
#330000
0!
03
04
#340000
1!
13
14
18
1.
1#
19
05
#350000
0!
03
04
#360000
1!
13
14
1:
08
0.
1/
1$
0#
15
#370000
0!
03
04
#380000
1!
13
14
18
1.
1#
0>
09
05
#390000
0!
03
04
#400000
1!
13
14
0?
0:
08
0.
0/
02
0'
0$
0#
15
#410000
0!
03
04
#420000
1!
13
14
18
1.
1#
19
05
#430000
0!
03
04
#440000
1!
13
14
1:
08
0.
1/
1$
0#
15
#450000
0!
03
04
#460000
1!
13
14
18
1.
1#
1@
09
05
#470000
0!
03
04
#480000
1!
13
14
1A
0:
08
0.
0/
10
1%
0$
0#
15
#490000
0!
03
04
#500000
1!
13
14
18
1.
1#
19
05
#510000
0!
03
04
#520000
1!
13
14
1:
08
0.
1/
1$
0#
15
#530000
0!
03
04
#540000
1!
13
14
18
1.
1#
0@
1;
09
05
#550000
0!
03
04
#560000
1!
13
14
0A
1<
0:
08
0.
0/
11
00
0%
1&
0$
0#
15
#570000
0!
03
04
#580000
1!
13
14
18
1.
1#
19
05
#590000
0!
03
04
#600000
1!
13
14
1:
08
0.
1/
1$
0#
15
#610000
0!
03
04
#620000
1!
13
14
18
1.
1#
1@
09
05
#630000
0!
03
04
#640000
1!
13
14
1A
0:
08
0.
0/
10
1%
0$
0#
15
#650000
0!
03
04
#660000
1!
13
14
18
1.
1#
19
05
#670000
0!
03
04
#680000
1!
13
14
1:
08
0.
1/
1$
0#
15
#690000
0!
03
04
#700000
1!
13
14
18
1.
1=
1#
0@
0;
09
05
1>
#710000
0!
03
04
#720000
1!
13
14
0A
1?
0<
0:
08
0.
0/
01
12
00
0=
0%
1'
0&
0$
0#
15
#730000
0!
03
04
#740000
1!
13
14
18
1.
1#
19
05
#750000
0!
03
04
#760000
1!
13
14
1:
08
0.
1/
1$
0#
15
#770000
0!
03
04
#780000
1!
13
14
18
1.
1#
0>
09
05
#790000
0!
03
04
#800000
1!
13
14
0?
0:
08
0.
0/
02
0'
0$
0#
15
#810000
0!
03
04
#820000
1!
13
14
18
1.
1#
19
05
#830000
0!
03
04
#840000
1!
13
14
1:
08
0.
1/
1$
0#
15
#850000
0!
03
04
#860000
1!
13
14
18
1.
1#
1@
09
05
#870000
0!
03
04
#880000
1!
13
14
1A
0:
08
0.
0/
10
1%
0$
0#
15
#890000
0!
03
04
#900000
1!
13
14
18
1.
1#
19
05
#910000
0!
03
04
#920000
1!
13
14
1:
08
0.
1/
1$
0#
15
#930000
0!
03
04
#940000
1!
13
14
18
1.
1#
0@
1;
09
05
#950000
0!
03
04
#960000
1!
13
14
0A
1<
0:
08
0.
0/
11
00
0%
1&
0$
0#
15
#970000
0!
03
04
#980000
1!
13
14
18
1.
1#
19
05
#990000
0!
03
04
