labs/lab1/simulation/qsim/lab1.msim.vcd
$comment
	File created using the following command:
		vcd file lab1.msim.vcd -direction
$end
$date
	Mon Nov 23 02:20:11 2020
$end
$version
	ModelSim Version 10.5b
$end
$timescale
	1ps
$end

$scope module lab1_vlg_vec_tst $end
$var reg 1 ! C $end
$var reg 1 " E1 $end
$var reg 1 # E2 $end
$var reg 1 $ nRA $end
$var reg 1 % nSA $end
$var reg 1 & treg_pin_name1 $end
$var wire 1 ' pin_name1 $end
$var wire 1 ( Q1 $end
$var wire 1 ) Q2 $end

$scope module i1 $end
$var wire 1 * gnd $end
$var wire 1 + vcc $end
$var wire 1 , unknown $end
$var tri1 1 - devclrn $end
$var tri1 1 . devpor $end
$var tri1 1 / devoe $end
$var wire 1 0 pin_name1~input_o $end
$var wire 1 1 pin_name1~output_o $end
$var wire 1 2 Q2~output_o $end
$var wire 1 3 Q1~output_o $end
$var wire 1 4 nSA~input_o $end
$var wire 1 5 E2~input_o $end
$var wire 1 6 nRA~input_o $end
$var wire 1 7 E1~input_o $end
$var wire 1 8 inst14|inst2~1_combout $end
$var wire 1 9 inst13|inst2~0_combout $end
$var wire 1 : C~input_o $end
$var wire 1 ; inst14|inst3~0_combout $end
$var wire 1 < inst14|inst~1_combout $end
$upscope $end
$upscope $end
$enddefinitions $end
#0
$dumpvars
1!
1"
0#
x$
x%
x&
x'
x(
x)
0*
1+
x,
1-
1.
1/
x0
z1
x2
x3
x4
05
x6
17
x8
x9
1:
x;
x<
$end
#20000
0!
0:
#30000
0"
07
08
0;
#40000
1!
1:
x;
#60000
0!
0:
0;
#70000
1"
17
x8
x;
#80000
1!
1:
#100000
0!
0:
#110000
1#
15
09
13
0<
1(
12
1)
#120000
1!
1:
x<
x2
x)
#140000
0!
0:
0<
12
1)
#150000
0"
07
#160000
1!
1:
x<
x2
x)
#180000
0!
0:
0<
12
1)
#190000
0#
05
x9
08
x3
x<
0;
x(
x2
x)
#200000
1!
1:
x;
#220000
0!
0:
0;
#230000
1#
15
09
x8
13
0<
x;
1(
12
1)
#240000
1!
1:
x<
x2
x)
#260000
1"
0!
17
0:
0<
12
1)
#280000
1!
1:
x<
x2
x)
#300000
0!
0:
0<
12
1)
#320000
1!
1:
x<
x2
x)
#340000
0!
0:
0<
12
1)
#360000
1!
1:
x<
x2
x)
#380000
0#
0"
0!
05
07
0:
x9
08
0<
12
x3
x<
0;
x(
1)
x2
x)
