automats/mealy/simulation/qsim/meely.msim.vcd
$comment
	File created using the following command:
		vcd file meely.msim.vcd -direction
$end
$date
	Sun Jul 05 21:53:12 2020
$end
$version
	ModelSim Version 10.5b
$end
$timescale
	1ps
$end

$scope module meely_vlg_vec_tst $end
$var reg 1 ! CLK $end
$var reg 1 " CLRN $end
$var reg 1 # ENA $end
$var reg 1 $ x1 $end
$var reg 1 % x2 $end
$var wire 1 & tay1 $end
$var wire 1 ' tay2 $end
$var wire 1 ( y1 $end
$var wire 1 ) y2 $end
$var wire 1 * y3 $end

$scope module i1 $end
$var wire 1 + gnd $end
$var wire 1 , vcc $end
$var wire 1 - unknown $end
$var tri1 1 . devclrn $end
$var tri1 1 / devpor $end
$var tri1 1 0 devoe $end
$var wire 1 1 tay1~output_o $end
$var wire 1 2 tay2~output_o $end
$var wire 1 3 y2~output_o $end
$var wire 1 4 y3~output_o $end
$var wire 1 5 y1~output_o $end
$var wire 1 6 CLK~input_o $end
$var wire 1 7 CLK~inputclkctrl_outclk $end
$var wire 1 8 x1~input_o $end
$var wire 1 9 x2~input_o $end
$var wire 1 : inst1~0_combout $end
$var wire 1 ; CLRN~input_o $end
$var wire 1 < CLRN~inputclkctrl_outclk $end
$var wire 1 = ENA~input_o $end
$var wire 1 > inst1~q $end
$var wire 1 ? inst~0_combout $end
$var wire 1 @ inst~q $end
$var wire 1 A inst30~0_combout $end
$var wire 1 B inst44~0_combout $end
$var wire 1 C inst25~0_combout $end
$upscope $end
$upscope $end
$enddefinitions $end
#0
$dumpvars
1!
0"
1#
0$
1%
0&
0'
0(
1)
1*
0+
1,
x-
1.
1/
10
01
02
13
14
05
16
17
08
19
1:
0;
0<
1=
0>
0?
0@
1A
1B
0C
$end
#5000
0!
06
07
#10000
1"
1!
1;
16
1<
17
1>
12
1'
0B
1?
0:
04
0*
#15000
0!
06
07
#20000
0%
1!
09
16
17
1C
0A
0?
03
15
1(
0)
1@
0>
02
11
1&
0'
0C
1B
1?
1:
14
05
0(
1*
#25000
0!
06
07
#30000
1!
16
17
1>
12
1'
0B
1A
0:
13
04
0*
1)
#35000
0!
06
07
#40000
1$
1!
18
16
17
1C
0A
0?
03
15
1(
0)
0>
02
0'
1B
1?
1:
14
1*
#45000
0!
06
07
#50000
1%
1!
19
16
17
0C
1A
0?
13
05
0(
1)
1>
12
1'
0B
0A
1?
03
04
0*
0)
#55000
0!
06
07
#60000
0%
1!
09
16
17
1C
0?
0:
15
1(
#65000
0!
06
07
#70000
0$
1%
1!
08
19
16
17
0C
1B
1A
1:
13
14
05
0(
1*
1)
0@
0>
02
01
0&
0'
#75000
0!
06
07
#80000
1$
0%
1!
18
09
16
17
1C
0A
1?
03
15
1(
0)
1>
12
1'
#85000
0!
06
07
#90000
0$
1%
1!
08
19
16
17
0C
0B
1A
0:
13
04
05
0(
0*
1)
1@
11
1&
1B
0?
1:
14
1*
#95000
0!
06
07
#100000
0%
1!
09
16
17
0B
1?
0:
04
0*
0@
01
0&
1C
0A
0?
03
15
1(
0)
#105000
0!
06
07
#110000
1%
1!
19
16
17
0C
1A
1?
13
05
0(
1)
0>
02
0'
1B
0?
1:
14
1*
#115000
0!
06
07
#120000
1$
0%
1!
18
09
16
17
1C
0A
1?
03
15
1(
0)
1>
12
1'
#125000
0!
06
07
#130000
1!
16
17
1@
11
1&
0B
0?
0:
04
0*
#135000
0!
06
07
#140000
0$
1%
1!
08
19
16
17
0C
1B
1A
1:
13
14
05
0(
1*
1)
0@
0>
02
01
0&
0'
#145000
0!
06
07
#150000
1!
16
17
1>
12
1'
0B
1?
0:
04
0*
#155000
0!
06
07
#160000
1$
1!
18
16
17
1B
1:
14
1*
1@
0>
02
11
1&
0'
0?
#165000
0!
06
07
#170000
0$
1!
08
16
17
1C
0B
0A
0:
03
04
15
1(
0*
0)
0@
1>
12
01
0&
1'
0C
1A
1?
13
05
0(
1)
#175000
0!
06
07
#180000
1!
16
17
1@
0>
02
11
1&
0'
1C
0A
0?
03
15
1(
0)
#185000
0!
06
07
#190000
0%
1!
09
16
17
0C
1B
1?
1:
14
05
0(
1*
0@
01
0&
1C
0?
15
1(
#195000
0!
06
07
#200000
1!
16
17
1>
12
1'
0B
0:
04
0*
#205000
0!
06
07
#210000
1!
16
17
0>
02
0'
1B
1:
14
1*
#215000
0!
06
07
#220000
1!
16
17
1>
12
1'
0B
0:
04
0*
#225000
0!
06
07
#230000
1!
16
17
0>
02
0'
1B
1:
14
1*
#235000
0!
06
07
#240000
1!
16
17
1>
12
1'
0B
0:
04
0*
#245000
0!
06
07
#250000
1!
16
17
0>
02
0'
1B
1:
14
1*
#255000
0!
06
07
#260000
1!
16
17
1>
12
1'
0B
0:
04
0*
#265000
0!
06
07
#270000
1!
16
17
0>
02
0'
1B
1:
14
1*
#275000
0!
06
07
#280000
1!
16
17
1>
12
1'
0B
0:
04
0*
#285000
0!
06
07
#290000
1!
16
17
0>
02
0'
1B
1:
14
1*
#295000
0!
06
07
#300000
1!
16
17
1>
12
1'
0B
0:
04
0*
#305000
0!
06
07
#310000
1!
16
17
0>
02
0'
1B
1:
14
1*
#315000
0!
06
07
#320000
1!
16
17
1>
12
1'
0B
0:
04
0*
#325000
0!
06
07
#330000
1!
16
17
0>
02
0'
1B
1:
14
1*
#335000
0!
06
07
#340000
1!
16
17
1>
12
1'
0B
0:
04
0*
#345000
0!
06
07
#350000
1!
16
17
0>
02
0'
1B
1:
14
1*
#355000
0!
06
07
#360000
1!
16
17
1>
12
1'
0B
0:
04
0*
#365000
0!
06
07
#370000
1!
16
17
0>
02
0'
1B
1:
14
1*
#375000
0!
06
07
#380000
1!
16
17
1>
12
1'
0B
0:
04
0*
#385000
0!
06
07
#390000
1!
16
17
0>
02
0'
1B
1:
14
1*
#395000
0!
06
07
#400000
1!
16
17
1>
12
1'
0B
0:
04
0*
#405000
0!
06
07
#410000
1!
16
17
0>
02
0'
1B
1:
14
1*
#415000
0!
06
07
#420000
1!
16
17
1>
12
1'
0B
0:
04
0*
#425000
0!
06
07
#430000
1!
16
17
0>
02
0'
1B
1:
14
1*
#435000
0!
06
07
#440000
1!
16
17
1>
12
1'
0B
0:
04
0*
#445000
0!
06
07
#450000
1!
16
17
0>
02
0'
1B
1:
14
1*
#455000
0!
06
07
#460000
1!
16
17
1>
12
1'
0B
0:
04
0*
#465000
0!
06
07
#470000
1!
16
17
0>
02
0'
1B
1:
14
1*
#475000
0!
06
07
#480000
1!
16
17
1>
12
1'
0B
0:
04
0*
#485000
0!
06
07
#490000
1!
16
17
0>
02
0'
1B
1:
14
1*
#495000
0!
06
07
#500000
1!
16
17
1>
12
1'
0B
0:
04
0*
#505000
0!
06
07
#510000
1!
16
17
0>
02
0'
1B
1:
14
1*
#515000
0!
06
07
#520000
1!
16
17
1>
12
1'
0B
0:
04
0*
#525000
0!
06
07
#530000
1!
16
17
0>
02
0'
1B
1:
14
1*
#535000
0!
06
07
#540000
1!
16
17
1>
12
1'
0B
0:
04
0*
#545000
0!
06
07
#550000
1!
16
17
0>
02
0'
1B
1:
14
1*
#555000
0!
06
07
#560000
1!
16
17
1>
12
1'
0B
0:
04
0*
#565000
0!
06
07
#570000
1!
16
17
0>
02
0'
1B
1:
14
1*
#575000
0!
06
07
#580000
1!
16
17
1>
12
1'
0B
0:
04
0*
#585000
0!
06
07
#590000
1!
16
17
0>
02
0'
1B
1:
14
1*
#595000
0!
06
07
#600000
1!
16
17
1>
12
1'
0B
0:
04
0*
#605000
0!
06
07
#610000
1!
16
17
0>
02
0'
1B
1:
14
1*
#615000
0!
06
07
#620000
1!
16
17
1>
12
1'
0B
0:
04
0*
#625000
0!
06
07
#630000
1!
16
17
0>
02
0'
1B
1:
14
1*
#635000
0!
06
07
#640000
1!
16
17
1>
12
1'
0B
0:
04
0*
#645000
0!
06
07
#650000
1!
16
17
0>
02
0'
1B
1:
14
1*
#655000
0!
06
07
#660000
1!
16
17
1>
12
1'
0B
0:
04
0*
#665000
0!
06
07
#670000
1!
16
17
0>
02
0'
1B
1:
14
1*
#675000
0!
06
07
#680000
1!
16
17
1>
12
1'
0B
0:
04
0*
#685000
0!
06
07
#690000
1!
16
17
0>
02
0'
1B
1:
14
1*
#695000
0!
06
07
#700000
1!
16
17
1>
12
1'
0B
0:
04
0*
#705000
0!
06
07
#710000
1!
16
17
0>
02
0'
1B
1:
14
1*
#715000
0!
06
07
#720000
1!
16
17
1>
12
1'
0B
0:
04
0*
#725000
0!
06
07
#730000
1!
16
17
0>
02
0'
1B
1:
14
1*
#735000
0!
06
07
#740000
1!
16
17
1>
12
1'
0B
0:
04
0*
#745000
0!
06
07
#750000
1!
16
17
0>
02
0'
1B
1:
14
1*
#755000
0!
06
07
#760000
1!
16
17
1>
12
1'
0B
0:
04
0*
#765000
0!
06
07
#770000
1!
16
17
0>
02
0'
1B
1:
14
1*
#775000
0!
06
07
#780000
1!
16
17
1>
12
1'
0B
0:
04
0*
#785000
0!
06
07
#790000
1!
16
17
0>
02
0'
1B
1:
14
1*
#795000
0!
06
07
#800000
1!
16
17
1>
12
1'
0B
0:
04
0*
#805000
0!
06
07
#810000
1!
16
17
0>
02
0'
1B
1:
14
1*
#815000
0!
06
07
#820000
1!
16
17
1>
12
1'
0B
0:
04
0*
#825000
0!
06
07
#830000
1!
16
17
0>
02
0'
1B
1:
14
1*
#835000
0!
06
07
#840000
1!
16
17
1>
12
1'
0B
0:
04
0*
#845000
0!
06
07
#850000
1!
16
17
0>
02
0'
1B
1:
14
1*
#855000
0!
06
07
#860000
1!
16
17
1>
12
1'
0B
0:
04
0*
#865000
0!
06
07
#870000
1!
16
17
0>
02
0'
1B
1:
14
1*
#875000
0!
06
07
#880000
1!
16
17
1>
12
1'
0B
0:
04
0*
#885000
0!
06
07
#890000
1!
16
17
0>
02
0'
1B
1:
14
1*
#895000
0!
06
07
#900000
1!
16
17
1>
12
1'
0B
0:
04
0*
#905000
0!
06
07
#910000
1!
16
17
0>
02
0'
1B
1:
14
1*
#915000
0!
06
07
#920000
1!
16
17
1>
12
1'
0B
0:
04
0*
#925000
0!
06
07
#930000
1!
16
17
0>
02
0'
1B
1:
14
1*
#935000
0!
06
07
#940000
1!
16
17
1>
12
1'
0B
0:
04
0*
#945000
0!
06
07
#950000
1!
16
17
0>
02
0'
1B
1:
14
1*
#955000
0!
06
07
#960000
1!
16
17
1>
12
1'
0B
0:
04
0*
#965000
0!
06
07
#970000
1!
16
17
0>
02
0'
1B
1:
14
1*
#975000
0!
06
07
#980000
1!
16
17
1>
12
1'
0B
0:
04
0*
#985000
0!
06
07
#990000
1!
16
17
0>
02
0'
1B
1:
14
1*
#995000
0!
06
07
