labs/3_2/lab1_1/simulation/qsim/lab1.msim.vcd
$comment
	File created using the following command:
		vcd file lab1.msim.vcd -direction
$end
$date
	Thu Mar 25 11:59:10 2021
$end
$version
	ModelSim Version 10.5b
$end
$timescale
	1ps
$end

$scope module lab12_vlg_vec_tst $end
$var reg 1 ! C $end
$var reg 1 " R $end
$var reg 1 # S $end
$var wire 1 $ Q4 $end
$var wire 1 % Q5 $end
$var wire 1 & Q6 $end

$scope module i1 $end
$var wire 1 ' gnd $end
$var wire 1 ( vcc $end
$var wire 1 ) unknown $end
$var tri1 1 * devclrn $end
$var tri1 1 + devpor $end
$var tri1 1 , devoe $end
$var wire 1 - Q4~output_o $end
$var wire 1 . Q5~output_o $end
$var wire 1 / Q6~output_o $end
$var wire 1 0 R~input_o $end
$var wire 1 1 S~input_o $end
$var wire 1 2 C~input_o $end
$var wire 1 3 inst3|inst4~combout $end
$var wire 1 4 inst3|inst8~1_combout $end
$var wire 1 5 inst4|inst5~0_combout $end
$var wire 1 6 inst4|inst5~combout $end
$var wire 1 7 inst3|inst8~2_combout $end
$var wire 1 8 inst3|inst8~3_combout $end
$var wire 1 9 inst3|inst6~1_combout $end
$var wire 1 : inst3|inst10~0_combout $end
$var wire 1 ; inst3|inst9~combout $end
$var wire 1 < inst3|inst3~3_combout $end
$var wire 1 = inst3|inst5~3_combout $end
$var wire 1 > inst3|inst3~4_combout $end
$var wire 1 ? inst3|inst1~1_combout $end
$var wire 1 @ inst3|inst5~combout $end
$var wire 1 A inst4|inst3~1_combout $end
$var wire 1 B inst4|inst3~2_combout $end
$var wire 1 C inst4|inst1~1_combout $end
$var wire 1 D inst4|inst4~combout $end
$upscope $end
$upscope $end
$enddefinitions $end
#0
$dumpvars
0!
1"
0#
x$
x%
x&
0'
1(
x)
1*
1+
1,
x-
x.
x/
10
01
02
x3
x4
x5
x6
x7
x8
x9
x:
x;
x<
x=
x>
x?
x@
xA
xB
xC
xD
$end
#3192
09
0C
#3200
05
#3202
0:
#3341
0=
0?
#3535
08
#3557
0B
#3670
0@
#3671
0>
#3834
1;
#3980
1D
#3995
06
#4163
07
#4281
1<
#4310
0A
#4312
04
#4321
03
#7008
0.
0%
#7364
0-
0$
#7655
0/
0&
#10000
1!
#10596
12
#20000
0"
0!
#20761
02
00
#24231
15
#24236
1:
#24347
1=
#24659
1>
#30000
1!
#30596
12
#33610
0:
#33615
05
#33747
1?
#34207
1@
#34208
13
0>
#34209
1A
#34381
17
#37579
1/
1&
#40000
0!
#40761
02
#44036
1:
#44041
15
#44161
0?
#44350
18
#44378
1B
#50000
1!
#50596
12
#53612
19
#53615
1C
#53771
0=
#53922
0;
#54100
0@
#54388
0D
#54404
0<
#54593
07
#54751
03
#54871
16
#55043
08
#55155
0B
#55367
14
#56165
18
#57093
1.
1%
#57747
1-
1$
#58085
0/
0&
#60000
0!
#60761
02
#64042
09
#64044
0C
#64193
1=
#70000
1!
#70596
12
#73612
19
#73615
05
#73771
0=
#74121
1D
#74410
06
#74754
04
#75577
08
#77505
0-
0$
#80000
0!
#80761
02
#84041
15
#84042
09
#84193
1=
#84378
1B
#90000
1!
#90596
12
#93610
0:
#93615
1C
#93771
0=
#94242
1;
#94388
0D
#94689
1<
#94718
0A
#94871
16
#95155
0B
#95231
0<
#97416
0.
0%
#97747
1-
1$
#100000
0!
#100761
02
#104036
1:
#104044
0C
#104193
1=
#110000
1!
#110596
12
#113610
0:
#113615
05
#113771
0=
#113982
1<
#114121
1D
#114410
06
#117505
0-
0$
#120000
0!
#120761
02
#124036
1:
#124041
15
#124193
1=
#124505
1>
#130000
1!
#130596
12
#133610
0:
#133615
05
#133747
1?
#134207
1@
#134208
13
0>
#134209
1A
#134381
17
#137579
1/
1&
#140000
0!
#140761
02
#144036
1:
#144041
15
#144161
0?
#144350
18
#144378
1B
#150000
1!
#150596
12
#153612
19
#153615
1C
#153771
0=
#153922
0;
#154100
0@
#154388
0D
#154404
0<
#154593
07
#154751
03
#154871
16
#155043
08
#155155
0B
#155367
14
#156165
18
#157093
1.
1%
#157747
1-
1$
#158085
0/
0&
#160000
0!
#160761
02
#164042
09
#164044
0C
#164193
1=
#170000
1!
#170596
12
#173612
19
#173615
05
#173771
0=
#174121
1D
#174410
06
#174754
04
#175577
08
#177505
0-
0$
#180000
0!
#180761
02
#184041
15
#184042
09
#184193
1=
#184378
1B
#190000
1!
#190596
12
#193610
0:
#193615
1C
#193771
0=
#194242
1;
#194388
0D
#194689
1<
#194718
0A
#194871
16
#195155
0B
#195231
0<
#197416
0.
0%
#197747
1-
1$
#200000
0!
#200761
02
#204036
1:
#204044
0C
#204193
1=
#210000
1!
#210596
12
#213610
0:
#213615
05
#213771
0=
#213982
1<
#214121
1D
#214410
06
#217505
0-
0$
#220000
0!
#220761
02
#224036
1:
#224041
15
#224193
1=
#224505
1>
#230000
1!
#230596
12
#233610
0:
#233615
05
#233747
1?
#234207
1@
#234208
13
0>
#234209
1A
#234381
17
#237579
1/
1&
#240000
0!
#240761
02
#244036
1:
#244041
15
#244161
0?
#244350
18
#244378
1B
#250000
1!
#250596
12
#253612
19
#253615
1C
#253771
0=
#253922
0;
#254100
0@
#254388
0D
#254404
0<
#254593
07
#254751
03
#254871
16
#255043
08
#255155
0B
#255367
14
#256165
18
#257093
1.
1%
#257747
1-
1$
#258085
0/
0&
#260000
0!
#260761
02
#264042
09
#264044
0C
#264193
1=
#270000
1!
#270596
12
#273612
19
#273615
05
#273771
0=
#274121
1D
#274410
06
#274754
04
#275577
08
#277505
0-
0$
#280000
0!
#280761
02
#284041
15
#284042
09
#284193
1=
#284378
1B
#290000
1!
#290596
12
#293610
0:
#293615
1C
#293771
0=
#294242
1;
#294388
0D
#294689
1<
#294718
0A
#294871
16
#295155
0B
#295231
0<
#297416
0.
0%
#297747
1-
1$
#300000
0!
#300761
02
#304036
1:
#304044
0C
#304193
1=
#310000
1!
#310596
12
#313610
0:
#313615
05
#313771
0=
#313982
1<
#314121
1D
#314410
06
#317505
0-
0$
#320000
0!
#320761
02
#324036
1:
#324041
15
#324193
1=
#324505
1>
#330000
1!
#330596
12
#333610
0:
#333615
05
#333747
1?
#334207
1@
#334208
13
0>
#334209
1A
#334381
17
#337579
1/
1&
#340000
0!
#340761
02
#344036
1:
#344041
15
#344161
0?
#344350
18
#344378
1B
#350000
1!
#350596
12
#353612
19
#353615
1C
#353771
0=
#353922
0;
#354100
0@
#354388
0D
#354404
0<
#354593
07
#354751
03
#354871
16
#355043
08
#355155
0B
#355367
14
#356165
18
#357093
1.
1%
#357747
1-
1$
#358085
0/
0&
#360000
0!
#360761
02
#364042
09
#364044
0C
#364193
1=
#370000
1!
#370596
12
#373612
19
#373615
05
#373771
0=
#374121
1D
#374410
06
#374754
04
#375577
08
#377505
0-
0$
#380000
0!
#380761
02
#384041
15
#384042
09
#384193
1=
#384378
1B
#390000
1!
#390596
12
#393610
0:
#393615
1C
#393771
0=
#394242
1;
#394388
0D
#394689
1<
#394718
0A
#394871
16
#395155
0B
#395231
0<
#397416
0.
0%
#397747
1-
1$
#400000
0!
#400761
02
#404036
1:
#404044
0C
#404193
1=
#410000
1!
#410596
12
#413610
0:
#413615
05
#413771
0=
#413982
1<
#414121
1D
#414410
06
#417505
0-
0$
#420000
0!
#420761
02
#424036
1:
#424041
15
#424193
1=
#424505
1>
#430000
1!
#430596
12
#433610
0:
#433615
05
#433747
1?
#434207
1@
#434208
13
0>
#434209
1A
#434381
17
#437579
1/
1&
#440000
0!
#440761
02
#444036
1:
#444041
15
#444161
0?
#444350
18
#444378
1B
#450000
1!
#450596
12
#453612
19
#453615
1C
#453771
0=
#453922
0;
#454100
0@
#454388
0D
#454404
0<
#454593
07
#454751
03
#454871
16
#455043
08
#455155
0B
#455367
14
#456165
18
#457093
1.
1%
#457747
1-
1$
#458085
0/
0&
#460000
0!
#460761
02
#464042
09
#464044
0C
#464193
1=
#470000
1!
#470596
12
#473612
19
#473615
05
#473771
0=
#474121
1D
#474410
06
#474754
04
#475577
08
#477505
0-
0$
#480000
0!
#480761
02
#484041
15
#484042
09
#484193
1=
#484378
1B
#490000
1!
#490596
12
#493610
0:
#493615
1C
#493771
0=
#494242
1;
#494388
0D
#494689
1<
#494718
0A
#494871
16
#495155
0B
#495231
0<
#497416
0.
0%
#497747
1-
1$
#500000
0!
#500761
02
#504036
1:
#504044
0C
#504193
1=
#510000
1!
#510596
12
#513610
0:
#513615
05
#513771
0=
#513982
1<
#514121
1D
#514410
06
#517505
0-
0$
#520000
0!
#520761
02
#524036
1:
#524041
15
#524193
1=
#524505
1>
#530000
1!
#530596
12
#533610
0:
#533615
05
#533747
1?
#534207
1@
#534208
13
0>
#534209
1A
#534381
17
#537579
1/
1&
#540000
0!
#540761
02
#544036
1:
#544041
15
#544161
0?
#544350
18
#544378
1B
#550000
1!
#550596
12
#553612
19
#553615
1C
#553771
0=
#553922
0;
#554100
0@
#554388
0D
#554404
0<
#554593
07
#554751
03
#554871
16
#555043
08
#555155
0B
#555367
14
#556165
18
#557093
1.
1%
#557747
1-
1$
#558085
0/
0&
#560000
0!
#560761
02
#564042
09
#564044
0C
#564193
1=
#570000
1!
#570596
12
#573612
19
#573615
05
#573771
0=
#574121
1D
#574410
06
#574754
04
#575577
08
#577505
0-
0$
#580000
0!
#580761
02
#584041
15
#584042
09
#584193
1=
#584378
1B
#590000
1!
#590596
12
#593610
0:
#593615
1C
#593771
0=
#594242
1;
#594388
0D
#594689
1<
#594718
0A
#594871
16
#595155
0B
#595231
0<
#597416
0.
0%
#597747
1-
1$
#600000
0!
#600761
02
#604036
1:
#604044
0C
#604193
1=
#610000
1!
#610596
12
#613610
0:
#613615
05
#613771
0=
#613982
1<
#614121
1D
#614410
06
#617505
0-
0$
#620000
0!
#620761
02
#624036
1:
#624041
15
#624193
1=
#624505
1>
#630000
1!
#630596
12
#633610
0:
#633615
05
#633747
1?
#634207
1@
#634208
13
0>
#634209
1A
#634381
17
#637579
1/
1&
#640000
0!
#640761
02
#644036
1:
#644041
15
#644161
0?
#644350
18
#644378
1B
#650000
1!
#650596
12
#653612
19
#653615
1C
#653771
0=
#653922
0;
#654100
0@
#654388
0D
#654404
0<
#654593
07
#654751
03
#654871
16
#655043
08
#655155
0B
#655367
14
#656165
18
#657093
1.
1%
#657747
1-
1$
#658085
0/
0&
#660000
0!
#660761
02
#664042
09
#664044
0C
#664193
1=
#670000
1!
#670596
12
#673612
19
#673615
05
#673771
0=
#674121
1D
#674410
06
#674754
04
#675577
08
#677505
0-
0$
#680000
0!
#680761
02
#684041
15
#684042
09
#684193
1=
#684378
1B
#690000
1!
#690596
12
#693610
0:
#693615
1C
#693771
0=
#694242
1;
#694388
0D
#694689
1<
#694718
0A
#694871
16
#695155
0B
#695231
0<
#697416
0.
0%
#697747
1-
1$
#700000
0!
#700761
02
#704036
1:
#704044
0C
#704193
1=
#710000
1!
#710596
12
#713610
0:
#713615
05
#713771
0=
#713982
1<
#714121
1D
#714410
06
#717505
0-
0$
#720000
0!
#720761
02
#724036
1:
#724041
15
#724193
1=
#724505
1>
#730000
1!
#730596
12
#733610
0:
#733615
05
#733747
1?
#734207
1@
#734208
13
0>
#734209
1A
#734381
17
#737579
1/
1&
#740000
0!
#740761
02
#744036
1:
#744041
15
#744161
0?
#744350
18
#744378
1B
#750000
1!
#750596
12
#753612
19
#753615
1C
#753771
0=
#753922
0;
#754100
0@
#754388
0D
#754404
0<
#754593
07
#754751
03
#754871
16
#755043
08
#755155
0B
#755367
14
#756165
18
#757093
1.
1%
#757747
1-
1$
#758085
0/
0&
#760000
1#
1"
0!
#760596
10
11
#760761
02
#761751
1<
#761760
04
#761762
17
#762583
08
#763788
09
0C
#763796
05
#763798
0:
#764430
1;
#764576
1D
#764591
06
#764876
0<
#764910
07
#764918
14
#765209
04
#767604
0.
0%
#767960
0-
0$
#770000
1!
#770596
12
#780000
0"
0!
#780761
02
00
#784231
15
#784236
1:
#784347
1=
#784568
1B
#790000
1!
#790596
12
#793610
0:
#793615
1C
#793771
0=
#794388
0D
#794871
16
#795059
14
#795155
0B
#797747
1-
1$
#800000
0!
#800761
02
#804036
1:
#804044
0C
#804193
1=
#804350
18
#810000
1!
#810596
12
#813612
19
#813615
05
#813771
0=
#813922
0;
#814121
1D
#814405
1<
#814410
06
#814426
04
#814436
17
#814930
0<
#817093
1.
1%
#817505
0-
0$
#820000
0!
#820761
02
#824041
15
#824042
09
#824193
1=
#824378
1B
#830000
1!
#830596
12
#833612
19
#833615
1C
#833771
0=
#834388
0D
#834871
16
#835155
0B
#835232
1<
#835558
08
#837747
1-
1$
#840000
0!
#840761
02
#844042
09
#844044
0C
#844193
1=
#844505
1>
#850000
1!
#850596
12
#853610
0:
#853615
05
#853747
1?
#854121
1D
#854207
1@
#854208
13
0>
#854242
1;
#854380
07
#854410
06
#854688
0<
#854825
0A
#857416
0.
0%
#857505
0-
0$
#857579
1/
1&
#860000
0!
#860761
02
#864036
1:
#864041
15
#864161
0?
#870000
1!
#870596
12
#873610
0:
#873615
05
#873771
0=
#874100
0@
#874751
03
#874770
1A
#878085
0/
0&
#880000
0!
#880761
02
#884036
1:
#884041
15
#884193
1=
#884378
1B
#890000
1!
#890596
12
#893610
0:
#893615
1C
#893771
0=
#894388
0D
#894871
16
#895059
14
#895155
0B
#897747
1-
1$
#900000
0!
#900761
02
#904036
1:
#904044
0C
#904193
1=
#904350
18
#910000
1!
#910596
12
#913612
19
#913615
05
#913771
0=
#913922
0;
#914121
1D
#914405
1<
#914410
06
#914426
04
#914436
17
#914930
0<
#917093
1.
1%
#917505
0-
0$
#920000
0!
#920761
02
#924041
15
#924042
09
#924193
1=
#924378
1B
#930000
1!
#930596
12
#933612
19
#933615
1C
#933771
0=
#934388
0D
#934871
16
#935155
0B
#935232
1<
#935558
08
#937747
1-
1$
#940000
0!
#940761
02
#944042
09
#944044
0C
#944193
1=
#944505
1>
#950000
1!
#950596
12
#953610
0:
#953615
05
#953747
1?
#954121
1D
#954207
1@
#954208
13
0>
#954242
1;
#954380
07
#954410
06
#954688
0<
#954825
0A
#957416
0.
0%
#957505
0-
0$
#957579
1/
1&
#960000
0!
#960761
02
#964036
1:
#964041
15
#964161
0?
#970000
1!
#970596
12
#973610
0:
#973615
05
#973771
0=
#974100
0@
#974751
03
#974770
1A
#978085
0/
0&
#980000
0!
#980761
02
#984036
1:
#984041
15
#984193
1=
#984378
1B
#990000
1!
#990596
12
#993610
0:
#993615
1C
#993771
0=
#994388
0D
#994871
16
#995059
14
#995155
0B
#997747
1-
1$
#1000000
0!
#1000761
02
#1004036
1:
#1004044
0C
#1004193
1=
#1004350
18
#1010000
1!
#1010596
12
#1013612
19
#1013615
05
#1013771
0=
#1013922
0;
#1014121
1D
#1014405
1<
#1014410
06
#1014426
04
#1014436
17
#1014930
0<
#1017093
1.
1%
#1017505
0-
0$
#1020000
0!
#1020761
02
#1024041
15
#1024042
09
#1024193
1=
#1024378
1B
#1030000
1!
#1030596
12
#1033612
19
#1033615
1C
#1033771
0=
#1034388
0D
#1034871
16
#1035155
0B
#1035232
1<
#1035558
08
#1037747
1-
1$
#1040000
0!
#1040761
02
#1044042
09
#1044044
0C
#1044193
1=
#1044505
1>
#1050000
1!
#1050596
12
#1053610
0:
#1053615
05
#1053747
1?
#1054121
1D
#1054207
1@
#1054208
13
0>
#1054242
1;
#1054380
07
#1054410
06
#1054688
0<
#1054825
0A
#1057416
0.
0%
#1057505
0-
0$
#1057579
1/
1&
#1060000
0!
#1060761
02
#1064036
1:
#1064041
15
#1064161
0?
#1070000
1!
#1070596
12
#1073610
0:
#1073615
05
#1073771
0=
#1074100
0@
#1074751
03
#1074770
1A
#1078085
0/
0&
#1080000
0!
#1080761
02
#1084036
1:
#1084041
15
#1084193
1=
#1084378
1B
#1090000
1!
#1090596
12
#1093610
0:
#1093615
1C
#1093771
0=
#1094388
0D
#1094871
16
#1095059
14
#1095155
0B
#1097747
1-
1$
#1100000
0!
#1100761
02
#1104036
1:
#1104044
0C
#1104193
1=
#1104350
18
#1110000
1!
#1110596
12
#1113612
19
#1113615
05
#1113771
0=
#1113922
0;
#1114121
1D
#1114405
1<
#1114410
06
#1114426
04
#1114436
17
#1114930
0<
#1117093
1.
1%
#1117505
0-
0$
#1120000
0!
#1120761
02
#1124041
15
#1124042
09
#1124193
1=
#1124378
1B
#1130000
1!
#1130596
12
#1133612
19
#1133615
1C
#1133771
0=
#1134388
0D
#1134871
16
#1135155
0B
#1135232
1<
#1135558
08
#1137747
1-
1$
#1140000
0!
#1140761
02
#1144042
09
#1144044
0C
#1144193
1=
#1144505
1>
#1150000
1!
#1150596
12
#1153610
0:
#1153615
05
#1153747
1?
#1154121
1D
#1154207
1@
#1154208
13
0>
#1154242
1;
#1154380
07
#1154410
06
#1154688
0<
#1154825
0A
#1157416
0.
0%
#1157505
0-
0$
#1157579
1/
1&
#1160000
0!
#1160761
02
#1164036
1:
#1164041
15
#1164161
0?
#1170000
1!
#1170596
12
#1173610
0:
#1173615
05
#1173771
0=
#1174100
0@
#1174751
03
#1174770
1A
#1178085
0/
0&
#1180000
0!
#1180761
02
#1184036
1:
#1184041
15
#1184193
1=
#1184378
1B
#1190000
1!
#1190596
12
#1193610
0:
#1193615
1C
#1193771
0=
#1194388
0D
#1194871
16
#1195059
14
#1195155
0B
#1197747
1-
1$
#1200000
0!
#1200761
02
#1204036
1:
#1204044
0C
#1204193
1=
#1204350
18
#1210000
1!
#1210596
12
#1213612
19
#1213615
05
#1213771
0=
#1213922
0;
#1214121
1D
#1214405
1<
#1214410
06
#1214426
04
#1214436
17
#1214930
0<
#1217093
1.
1%
#1217505
0-
0$
#1220000
0!
#1220761
02
#1224041
15
#1224042
09
#1224193
1=
#1224378
1B
#1230000
1!
#1230596
12
#1233612
19
#1233615
1C
#1233771
0=
#1234388
0D
#1234871
16
#1235155
0B
#1235232
1<
#1235558
08
#1237747
1-
1$
#1240000
0!
#1240761
02
#1244042
09
#1244044
0C
#1244193
1=
#1244505
1>
#1250000
1!
#1250596
12
#1253610
0:
#1253615
05
#1253747
1?
#1254121
1D
#1254207
1@
#1254208
13
0>
#1254242
1;
#1254380
07
#1254410
06
#1254688
0<
#1254825
0A
#1257416
0.
0%
#1257505
0-
0$
#1257579
1/
1&
#1260000
0!
#1260761
02
#1264036
1:
#1264041
15
#1264161
0?
#1270000
1!
#1270596
12
#1273610
0:
#1273615
05
#1273771
0=
#1274100
0@
#1274751
03
#1274770
1A
#1278085
0/
0&
#1280000
0!
#1280761
02
#1284036
1:
#1284041
15
#1284193
1=
#1284378
1B
#1290000
1!
#1290596
12
#1293610
0:
#1293615
1C
#1293771
0=
#1294388
0D
#1294871
16
#1295059
14
#1295155
0B
#1297747
1-
1$
#1300000
0!
#1300761
02
#1304036
1:
#1304044
0C
#1304193
1=
#1304350
18
#1310000
1!
#1310596
12
#1313612
19
#1313615
05
#1313771
0=
#1313922
0;
#1314121
1D
#1314405
1<
#1314410
06
#1314426
04
#1314436
17
#1314930
0<
#1317093
1.
1%
#1317505
0-
0$
#1320000
0!
#1320761
02
#1324041
15
#1324042
09
#1324193
1=
#1324378
1B
#1330000
1!
#1330596
12
#1333612
19
#1333615
1C
#1333771
0=
#1334388
0D
#1334871
16
#1335155
0B
#1335232
1<
#1335558
08
#1337747
1-
1$
#1340000
0!
#1340761
02
#1344042
09
#1344044
0C
#1344193
1=
#1344505
1>
#1350000
1!
#1350596
12
#1353610
0:
#1353615
05
#1353747
1?
#1354121
1D
#1354207
1@
#1354208
13
0>
#1354242
1;
#1354380
07
#1354410
06
#1354688
0<
#1354825
0A
#1357416
0.
0%
#1357505
0-
0$
#1357579
1/
1&
#1360000
0!
#1360761
02
#1364036
1:
#1364041
15
#1364161
0?
#1370000
1!
#1370596
12
#1373610
0:
#1373615
05
#1373771
0=
#1374100
0@
#1374751
03
#1374770
1A
#1378085
0/
0&
#1380000
0!
#1380761
02
#1384036
1:
#1384041
15
#1384193
1=
#1384378
1B
#1390000
1!
#1390596
12
#1393610
0:
#1393615
1C
#1393771
0=
#1394388
0D
#1394871
16
#1395059
14
#1395155
0B
#1397747
1-
1$
#1400000
0!
#1400761
02
#1404036
1:
#1404044
0C
#1404193
1=
#1404350
18
#1410000
1!
#1410596
12
#1413612
19
#1413615
05
#1413771
0=
#1413922
0;
#1414121
1D
#1414405
1<
#1414410
06
#1414426
04
#1414436
17
#1414930
0<
#1417093
1.
1%
#1417505
0-
0$
#1420000
0!
#1420761
02
#1424041
15
#1424042
09
#1424193
1=
#1424378
1B
#1430000
1!
#1430596
12
#1433612
19
#1433615
1C
#1433771
0=
#1434388
0D
#1434871
16
#1435155
0B
#1435232
1<
#1435558
08
#1437747
1-
1$
#1440000
0!
#1440761
02
#1444042
09
#1444044
0C
#1444193
1=
#1444505
1>
#1450000
1!
#1450596
12
#1453610
0:
#1453615
05
#1453747
1?
#1454121
1D
#1454207
1@
#1454208
13
0>
#1454242
1;
#1454380
07
#1454410
06
#1454688
0<
#1454825
0A
#1457416
0.
0%
#1457505
0-
0$
#1457579
1/
1&
#1460000
0!
#1460761
02
#1464036
1:
#1464041
15
#1464161
0?
#1470000
1!
#1470596
12
#1473610
0:
#1473615
05
#1473771
0=
#1474100
0@
#1474751
03
#1474770
1A
#1478085
0/
0&
#1480000
0!
#1480761
02
#1484036
1:
#1484041
15
#1484193
1=
#1484378
1B
#1490000
1!
#1490596
12
#1493610
0:
#1493615
1C
#1493771
0=
#1494388
0D
#1494871
16
#1495059
14
#1495155
0B
#1497747
1-
1$
#1500000
0!
#1500761
02
#1504036
1:
#1504044
0C
#1504193
1=
#1504350
18
#1510000
1!
#1510596
12
#1513612
19
#1513615
05
#1513771
0=
#1513922
0;
#1514121
1D
#1514405
1<
#1514410
06
#1514426
04
#1514436
17
#1514930
0<
#1517093
1.
1%
#1517505
0-
0$
#1520000
0#
0!
#1520761
02
01
#1521930
07
#1522380
08
#1524041
15
#1524042
09
#1524193
1=
#1524378
1B
#1530000
1!
#1530596
12
#1533610
0:
#1533615
1C
#1533771
0=
#1534242
1;
#1534388
0D
#1534689
1<
#1534718
0A
#1534871
16
#1535155
0B
#1535231
0<
#1537416
0.
0%
#1537747
1-
1$
#1540000
0!
#1540761
02
#1544036
1:
#1544044
0C
#1544193
1=
#1550000
1!
#1550596
12
#1553610
0:
#1553615
05
#1553771
0=
#1553982
1<
#1554121
1D
#1554410
06
#1557505
0-
0$
#1560000
0!
#1560761
02
#1564036
1:
#1564041
15
#1564193
1=
#1564505
1>
#1570000
1!
#1570596
12
#1573610
0:
#1573615
05
#1573747
1?
#1574207
1@
#1574208
13
0>
#1574209
1A
#1574381
17
#1577579
1/
1&
#1580000
0!
#1580761
02
#1584036
1:
#1584041
15
#1584161
0?
#1584350
18
#1584378
1B
#1590000
1!
#1590596
12
#1593612
19
#1593615
1C
#1593771
0=
#1593922
0;
#1594100
0@
#1594388
0D
#1594404
0<
#1594593
07
#1594751
03
#1594871
16
#1595043
08
#1595155
0B
#1595367
14
#1596165
18
#1597093
1.
1%
#1597747
1-
1$
#1598085
0/
0&
#1600000
0!
#1600761
02
#1604042
09
#1604044
0C
#1604193
1=
#1610000
1!
#1610596
12
#1613612
19
#1613615
05
#1613771
0=
#1614121
1D
#1614410
06
#1614754
04
#1615577
08
#1617505
0-
0$
#1620000
0!
#1620761
02
#1624041
15
#1624042
09
#1624193
1=
#1624378
1B
#1630000
1!
#1630596
12
#1633610
0:
#1633615
1C
#1633771
0=
#1634242
1;
#1634388
0D
#1634689
1<
#1634718
0A
#1634871
16
#1635155
0B
#1635231
0<
#1637416
0.
0%
#1637747
1-
1$
#1640000
0!
#1640761
02
#1644036
1:
#1644044
0C
#1644193
1=
#1650000
1!
#1650596
12
#1653610
0:
#1653615
05
#1653771
0=
#1653982
1<
#1654121
1D
#1654410
06
#1657505
0-
0$
#1660000
0!
#1660761
02
#1664036
1:
#1664041
15
#1664193
1=
#1664505
1>
#1670000
1!
#1670596
12
#1673610
0:
#1673615
05
#1673747
1?
#1674207
1@
#1674208
13
0>
#1674209
1A
#1674381
17
#1677579
1/
1&
#1680000
0!
#1680761
02
#1684036
1:
#1684041
15
#1684161
0?
#1684350
18
#1684378
1B
#1690000
1!
#1690596
12
#1693612
19
#1693615
1C
#1693771
0=
#1693922
0;
#1694100
0@
#1694388
0D
#1694404
0<
#1694593
07
#1694751
03
#1694871
16
#1695043
08
#1695155
0B
#1695367
14
#1696165
18
#1697093
1.
1%
#1697747
1-
1$
#1698085
0/
0&
#1700000
0!
#1700761
02
#1704042
09
#1704044
0C
#1704193
1=
#1710000
1!
#1710596
12
#1713612
19
#1713615
05
#1713771
0=
#1714121
1D
#1714410
06
#1714754
04
#1715577
08
#1717505
0-
0$
#1720000
0!
#1720761
02
#1724041
15
#1724042
09
#1724193
1=
#1724378
1B
#1730000
1!
#1730596
12
#1733610
0:
#1733615
1C
#1733771
0=
#1734242
1;
#1734388
0D
#1734689
1<
#1734718
0A
#1734871
16
#1735155
0B
#1735231
0<
#1737416
0.
0%
#1737747
1-
1$
#1740000
0!
#1740761
02
#1744036
1:
#1744044
0C
#1744193
1=
#1750000
1!
#1750596
12
#1753610
0:
#1753615
05
#1753771
0=
#1753982
1<
#1754121
1D
#1754410
06
#1757505
0-
0$
#1760000
0!
#1760761
02
#1764036
1:
#1764041
15
#1764193
1=
#1764505
1>
#1770000
1!
#1770596
12
#1773610
0:
#1773615
05
#1773747
1?
#1774207
1@
#1774208
13
0>
#1774209
1A
#1774381
17
#1777579
1/
1&
#1780000
0!
#1780761
02
#1784036
1:
#1784041
15
#1784161
0?
#1784350
18
#1784378
1B
#1790000
1!
#1790596
12
#1793612
19
#1793615
1C
#1793771
0=
#1793922
0;
#1794100
0@
#1794388
0D
#1794404
0<
#1794593
07
#1794751
03
#1794871
16
#1795043
08
#1795155
0B
#1795367
14
#1796165
18
#1797093
1.
1%
#1797747
1-
1$
#1798085
0/
0&
#1800000
0!
#1800761
02
#1804042
09
#1804044
0C
#1804193
1=
#1810000
1!
#1810596
12
#1813612
19
#1813615
05
#1813771
0=
#1814121
1D
#1814410
06
#1814754
04
#1815577
08
#1817505
0-
0$
#1820000
0!
#1820761
02
#1824041
15
#1824042
09
#1824193
1=
#1824378
1B
#1830000
1!
#1830596
12
#1833610
0:
#1833615
1C
#1833771
0=
#1834242
1;
#1834388
0D
#1834689
1<
#1834718
0A
#1834871
16
#1835155
0B
#1835231
0<
#1837416
0.
0%
#1837747
1-
1$
#1840000
0!
#1840761
02
#1844036
1:
#1844044
0C
#1844193
1=
#1850000
1!
#1850596
12
#1853610
0:
#1853615
05
#1853771
0=
#1853982
1<
#1854121
1D
#1854410
06
#1857505
0-
0$
#1860000
0!
#1860761
02
#1864036
1:
#1864041
15
#1864193
1=
#1864505
1>
#1870000
1!
#1870596
12
#1873610
0:
#1873615
05
#1873747
1?
#1874207
1@
#1874208
13
0>
#1874209
1A
#1874381
17
#1877579
1/
1&
#1880000
0!
#1880761
02
#1884036
1:
#1884041
15
#1884161
0?
#1884350
18
#1884378
1B
#1890000
1!
#1890596
12
#1893612
19
#1893615
1C
#1893771
0=
#1893922
0;
#1894100
0@
#1894388
0D
#1894404
0<
#1894593
07
#1894751
03
#1894871
16
#1895043
08
#1895155
0B
#1895367
14
#1896165
18
#1897093
1.
1%
#1897747
1-
1$
#1898085
0/
0&
#1900000
0!
#1900761
02
#1904042
09
#1904044
0C
#1904193
1=
#1910000
1!
#1910596
12
#1913612
19
#1913615
05
#1913771
0=
#1914121
1D
#1914410
06
#1914754
04
#1915577
08
#1917505
0-
0$
#1920000
0!
#1920761
02
#1924041
15
#1924042
09
#1924193
1=
#1924378
1B
#1930000
1!
#1930596
12
#1933610
0:
#1933615
1C
#1933771
0=
#1934242
1;
#1934388
0D
#1934689
1<
#1934718
0A
#1934871
16
#1935155
0B
#1935231
0<
#1937416
0.
0%
#1937747
1-
1$
#1940000
0!
#1940761
02
#1944036
1:
#1944044
0C
#1944193
1=
#1950000
1!
#1950596
12
#1953610
0:
#1953615
05
#1953771
0=
#1953982
1<
#1954121
1D
#1954410
06
#1957505
0-
0$
#1960000
0!
#1960761
02
#1964036
1:
#1964041
15
#1964193
1=
#1964505
1>
#1970000
1!
#1970596
12
#1973610
0:
#1973615
05
#1973747
1?
#1974207
1@
#1974208
13
0>
#1974209
1A
#1974381
17
#1977579
1/
1&
#1980000
0!
#1980761
02
#1984036
1:
#1984041
15
#1984161
0?
#1984350
18
#1984378
1B
#1990000
1!
#1990596
12
#1993612
19
#1993615
1C
#1993771
0=
#1993922
0;
#1994100
0@
#1994388
0D
#1994404
0<
#1994593
07
#1994751
03
#1994871
16
#1995043
08
#1995155
0B
#1995367
14
#1996165
18
#1997093
1.
1%
#1997747
1-
1$
#1998085
0/
0&
