automats/moore/simulation/qsim/moore.msim.vcd
$comment
	File created using the following command:
		vcd file moore.msim.vcd -direction
$end
$date
	Mon Jul 06 17:29:19 2020
$end
$version
	ModelSim Version 10.5b
$end
$timescale
	1ps
$end

$scope module moore_vlg_vec_tst $end
$var reg 1 ! CLK $end
$var reg 1 " CLRN $end
$var reg 1 # ENA $end
$var reg 1 $ x1 $end
$var reg 1 % x2 $end
$var wire 1 & tay1 $end
$var wire 1 ' tay2 $end
$var wire 1 ( tay3 $end
$var wire 1 ) y1 $end
$var wire 1 * y2 $end
$var wire 1 + y3 $end

$scope module i1 $end
$var wire 1 , gnd $end
$var wire 1 - vcc $end
$var wire 1 . unknown $end
$var tri1 1 / devclrn $end
$var tri1 1 0 devpor $end
$var tri1 1 1 devoe $end
$var wire 1 2 tay1~output_o $end
$var wire 1 3 tay3~output_o $end
$var wire 1 4 tay2~output_o $end
$var wire 1 5 y1~output_o $end
$var wire 1 6 y2~output_o $end
$var wire 1 7 y3~output_o $end
$var wire 1 8 CLK~input_o $end
$var wire 1 9 CLK~inputclkctrl_outclk $end
$var wire 1 : x2~input_o $end
$var wire 1 ; x1~input_o $end
$var wire 1 < inst32~0_combout $end
$var wire 1 = inst40~0_combout $end
$var wire 1 > inst32~1_combout $end
$var wire 1 ? CLRN~input_o $end
$var wire 1 @ CLRN~inputclkctrl_outclk $end
$var wire 1 A ENA~input_o $end
$var wire 1 B inst9~q $end
$var wire 1 C inst3~0_combout $end
$var wire 1 D inst3~1_combout $end
$var wire 1 E inst3~q $end
$var wire 1 F inst42~0_combout $end
$var wire 1 G inst~0_combout $end
$var wire 1 H inst~q $end
$var wire 1 I inst39~combout $end
$var wire 1 J inst41~0_combout $end
$upscope $end
$upscope $end
$enddefinitions $end
#0
$dumpvars
1!
0"
1#
0$
1%
0&
0'
0(
1)
0*
0+
0,
1-
x.
1/
10
11
02
03
04
15
06
07
18
19
1:
0;
0<
0=
1>
0?
0@
1A
0B
1C
0D
0E
1F
0G
0H
1I
0J
$end
#5000
0!
08
09
#10000
1"
1!
1?
18
1@
19
1B
13
0F
1(
1J
0I
1D
1=
16
05
17
1+
0)
1*
0>
#15000
0!
08
09
#20000
0%
1!
0:
18
19
0C
0D
1E
0B
03
14
1C
1F
1'
0(
0J
1D
07
0+
0D
1G
#25000
0!
08
09
#30000
1!
18
19
1H
0E
04
12
0F
1<
0C
1&
0'
1J
0=
0G
06
17
1+
0*
1D
#35000
0!
08
09
#40000
1$
1!
1;
18
19
1C
0D
0H
1E
14
02
1F
0<
0C
0&
1'
0J
1=
16
07
0+
1*
1>
1D
#45000
0!
08
09
#50000
1%
1!
1:
18
19
1C
0D
1B
13
0F
0C
1<
1(
1J
1I
1D
0=
06
15
17
1+
1)
0*
1G
0D
#55000
0!
08
09
#60000
0%
1!
0:
18
19
0G
0>
1H
0E
04
12
1C
1&
0'
0J
0I
1D
05
07
0+
0)
0D
#65000
0!
08
09
#70000
0$
1%
1!
0;
1:
18
19
1>
0H
0B
03
02
1F
0<
0&
0(
1I
15
1)
#75000
0!
08
09
#80000
1$
0%
1!
1;
0:
18
19
1B
13
0F
1(
1J
0I
1D
1=
16
05
17
1+
0)
1*
#85000
0!
08
09
#90000
0$
1%
1!
0;
1:
18
19
0>
1E
14
0C
1<
1'
1I
0=
06
15
1)
0*
0D
1>
#95000
0!
08
09
#100000
0%
1!
0:
18
19
1C
0>
1D
0E
04
0C
0<
0'
0I
1=
16
05
0)
1*
0D
#105000
0!
08
09
#110000
1%
1!
1:
18
19
1C
1D
0B
03
1F
0(
0J
1I
0D
0=
06
15
07
0+
1)
0*
1>
#115000
0!
08
09
#120000
1$
0%
1!
1;
0:
18
19
1B
13
0F
1(
1J
0I
1D
1=
16
05
17
1+
0)
1*
#125000
0!
08
09
#130000
1!
18
19
1E
14
0C
1<
1'
1I
0=
06
15
1)
0*
0D
0>
#135000
0!
08
09
#140000
0$
1%
1!
0;
1:
18
19
1>
0E
0B
03
04
1C
0<
1F
0'
0(
0J
1D
07
0+
0D
#145000
0!
08
09
#150000
1!
18
19
1B
13
0F
1(
1J
0I
1D
1=
16
05
17
1+
0)
1*
0>
#155000
0!
08
09
#160000
1$
1!
1;
18
19
1G
1>
1E
0B
03
14
1F
1'
0(
0J
0D
07
0+
0G
#165000
0!
08
09
#170000
0$
1!
0;
18
19
0>
0E
1B
13
04
0F
0'
1(
1J
1D
17
1+
#175000
0!
08
09
#180000
1!
18
19
1E
0B
03
14
1F
1'
0(
0J
0D
07
0+
#185000
0!
08
09
#190000
0%
1!
0:
18
19
1G
0E
04
0C
0'
1I
0G
0=
06
15
1)
0*
1D
1>
#195000
0!
08
09
#200000
1!
18
19
1E
1B
13
14
1C
1<
0F
1'
1(
1G
1J
0D
17
1+
1D
0>
0G
#205000
0!
08
09
#210000
1!
18
19
0B
03
1F
0<
0(
0J
0I
0D
1=
16
05
07
0+
0)
1*
1G
#215000
0!
08
09
#220000
1!
18
19
1H
0E
04
12
0F
1<
0C
1&
0'
1J
0=
0G
06
17
1+
0*
1D
#225000
0!
08
09
#230000
1!
18
19
0H
1E
14
02
1F
0<
1C
0&
1'
0J
1=
16
07
0+
1*
1G
0D
#235000
0!
08
09
#240000
1!
18
19
1H
0E
04
12
0F
1<
0C
1&
0'
1J
0=
0G
06
17
1+
0*
1D
#245000
0!
08
09
#250000
1!
18
19
0H
1E
14
02
1F
0<
1C
0&
1'
0J
1=
16
07
0+
1*
1G
0D
#255000
0!
08
09
#260000
1!
18
19
1H
0E
04
12
0F
1<
0C
1&
0'
1J
0=
0G
06
17
1+
0*
1D
#265000
0!
08
09
#270000
1!
18
19
0H
1E
14
02
1F
0<
1C
0&
1'
0J
1=
16
07
0+
1*
1G
0D
#275000
0!
08
09
#280000
1!
18
19
1H
0E
04
12
0F
1<
0C
1&
0'
1J
0=
0G
06
17
1+
0*
1D
#285000
0!
08
09
#290000
1!
18
19
0H
1E
14
02
1F
0<
1C
0&
1'
0J
1=
16
07
0+
1*
1G
0D
#295000
0!
08
09
#300000
1!
18
19
1H
0E
04
12
0F
1<
0C
1&
0'
1J
0=
0G
06
17
1+
0*
1D
#305000
0!
08
09
#310000
1!
18
19
0H
1E
14
02
1F
0<
1C
0&
1'
0J
1=
16
07
0+
1*
1G
0D
#315000
0!
08
09
#320000
1!
18
19
1H
0E
04
12
0F
1<
0C
1&
0'
1J
0=
0G
06
17
1+
0*
1D
#325000
0!
08
09
#330000
1!
18
19
0H
1E
14
02
1F
0<
1C
0&
1'
0J
1=
16
07
0+
1*
1G
0D
#335000
0!
08
09
#340000
1!
18
19
1H
0E
04
12
0F
1<
0C
1&
0'
1J
0=
0G
06
17
1+
0*
1D
#345000
0!
08
09
#350000
1!
18
19
0H
1E
14
02
1F
0<
1C
0&
1'
0J
1=
16
07
0+
1*
1G
0D
#355000
0!
08
09
#360000
1!
18
19
1H
0E
04
12
0F
1<
0C
1&
0'
1J
0=
0G
06
17
1+
0*
1D
#365000
0!
08
09
#370000
1!
18
19
0H
1E
14
02
1F
0<
1C
0&
1'
0J
1=
16
07
0+
1*
1G
0D
#375000
0!
08
09
#380000
1!
18
19
1H
0E
04
12
0F
1<
0C
1&
0'
1J
0=
0G
06
17
1+
0*
1D
#385000
0!
08
09
#390000
1!
18
19
0H
1E
14
02
1F
0<
1C
0&
1'
0J
1=
16
07
0+
1*
1G
0D
#395000
0!
08
09
#400000
1!
18
19
1H
0E
04
12
0F
1<
0C
1&
0'
1J
0=
0G
06
17
1+
0*
1D
#405000
0!
08
09
#410000
1!
18
19
0H
1E
14
02
1F
0<
1C
0&
1'
0J
1=
16
07
0+
1*
1G
0D
#415000
0!
08
09
#420000
1!
18
19
1H
0E
04
12
0F
1<
0C
1&
0'
1J
0=
0G
06
17
1+
0*
1D
#425000
0!
08
09
#430000
1!
18
19
0H
1E
14
02
1F
0<
1C
0&
1'
0J
1=
16
07
0+
1*
1G
0D
#435000
0!
08
09
#440000
1!
18
19
1H
0E
04
12
0F
1<
0C
1&
0'
1J
0=
0G
06
17
1+
0*
1D
#445000
0!
08
09
#450000
1!
18
19
0H
1E
14
02
1F
0<
1C
0&
1'
0J
1=
16
07
0+
1*
1G
0D
#455000
0!
08
09
#460000
1!
18
19
1H
0E
04
12
0F
1<
0C
1&
0'
1J
0=
0G
06
17
1+
0*
1D
#465000
0!
08
09
#470000
1!
18
19
0H
1E
14
02
1F
0<
1C
0&
1'
0J
1=
16
07
0+
1*
1G
0D
#475000
0!
08
09
#480000
1!
18
19
1H
0E
04
12
0F
1<
0C
1&
0'
1J
0=
0G
06
17
1+
0*
1D
#485000
0!
08
09
#490000
1!
18
19
0H
1E
14
02
1F
0<
1C
0&
1'
0J
1=
16
07
0+
1*
1G
0D
#495000
0!
08
09
#500000
1!
18
19
1H
0E
04
12
0F
1<
0C
1&
0'
1J
0=
0G
06
17
1+
0*
1D
#505000
0!
08
09
#510000
1!
18
19
0H
1E
14
02
1F
0<
1C
0&
1'
0J
1=
16
07
0+
1*
1G
0D
#515000
0!
08
09
#520000
1!
18
19
1H
0E
04
12
0F
1<
0C
1&
0'
1J
0=
0G
06
17
1+
0*
1D
#525000
0!
08
09
#530000
1!
18
19
0H
1E
14
02
1F
0<
1C
0&
1'
0J
1=
16
07
0+
1*
1G
0D
#535000
0!
08
09
#540000
1!
18
19
1H
0E
04
12
0F
1<
0C
1&
0'
1J
0=
0G
06
17
1+
0*
1D
#545000
0!
08
09
#550000
1!
18
19
0H
1E
14
02
1F
0<
1C
0&
1'
0J
1=
16
07
0+
1*
1G
0D
#555000
0!
08
09
#560000
1!
18
19
1H
0E
04
12
0F
1<
0C
1&
0'
1J
0=
0G
06
17
1+
0*
1D
#565000
0!
08
09
#570000
1!
18
19
0H
1E
14
02
1F
0<
1C
0&
1'
0J
1=
16
07
0+
1*
1G
0D
#575000
0!
08
09
#580000
1!
18
19
1H
0E
04
12
0F
1<
0C
1&
0'
1J
0=
0G
06
17
1+
0*
1D
#585000
0!
08
09
#590000
1!
18
19
0H
1E
14
02
1F
0<
1C
0&
1'
0J
1=
16
07
0+
1*
1G
0D
#595000
0!
08
09
#600000
1!
18
19
1H
0E
04
12
0F
1<
0C
1&
0'
1J
0=
0G
06
17
1+
0*
1D
#605000
0!
08
09
#610000
1!
18
19
0H
1E
14
02
1F
0<
1C
0&
1'
0J
1=
16
07
0+
1*
1G
0D
#615000
0!
08
09
#620000
1!
18
19
1H
0E
04
12
0F
1<
0C
1&
0'
1J
0=
0G
06
17
1+
0*
1D
#625000
0!
08
09
#630000
1!
18
19
0H
1E
14
02
1F
0<
1C
0&
1'
0J
1=
16
07
0+
1*
1G
0D
#635000
0!
08
09
#640000
1!
18
19
1H
0E
04
12
0F
1<
0C
1&
0'
1J
0=
0G
06
17
1+
0*
1D
#645000
0!
08
09
#650000
1!
18
19
0H
1E
14
02
1F
0<
1C
0&
1'
0J
1=
16
07
0+
1*
1G
0D
#655000
0!
08
09
#660000
1!
18
19
1H
0E
04
12
0F
1<
0C
1&
0'
1J
0=
0G
06
17
1+
0*
1D
#665000
0!
08
09
#670000
1!
18
19
0H
1E
14
02
1F
0<
1C
0&
1'
0J
1=
16
07
0+
1*
1G
0D
#675000
0!
08
09
#680000
1!
18
19
1H
0E
04
12
0F
1<
0C
1&
0'
1J
0=
0G
06
17
1+
0*
1D
#685000
0!
08
09
#690000
1!
18
19
0H
1E
14
02
1F
0<
1C
0&
1'
0J
1=
16
07
0+
1*
1G
0D
#695000
0!
08
09
#700000
1!
18
19
1H
0E
04
12
0F
1<
0C
1&
0'
1J
0=
0G
06
17
1+
0*
1D
#705000
0!
08
09
#710000
1!
18
19
0H
1E
14
02
1F
0<
1C
0&
1'
0J
1=
16
07
0+
1*
1G
0D
#715000
0!
08
09
#720000
1!
18
19
1H
0E
04
12
0F
1<
0C
1&
0'
1J
0=
0G
06
17
1+
0*
1D
#725000
0!
08
09
#730000
1!
18
19
0H
1E
14
02
1F
0<
1C
0&
1'
0J
1=
16
07
0+
1*
1G
0D
#735000
0!
08
09
#740000
1!
18
19
1H
0E
04
12
0F
1<
0C
1&
0'
1J
0=
0G
06
17
1+
0*
1D
#745000
0!
08
09
#750000
1!
18
19
0H
1E
14
02
1F
0<
1C
0&
1'
0J
1=
16
07
0+
1*
1G
0D
#755000
0!
08
09
#760000
1!
18
19
1H
0E
04
12
0F
1<
0C
1&
0'
1J
0=
0G
06
17
1+
0*
1D
#765000
0!
08
09
#770000
1!
18
19
0H
1E
14
02
1F
0<
1C
0&
1'
0J
1=
16
07
0+
1*
1G
0D
#775000
0!
08
09
#780000
1!
18
19
1H
0E
04
12
0F
1<
0C
1&
0'
1J
0=
0G
06
17
1+
0*
1D
#785000
0!
08
09
#790000
1!
18
19
0H
1E
14
02
1F
0<
1C
0&
1'
0J
1=
16
07
0+
1*
1G
0D
#795000
0!
08
09
#800000
1!
18
19
1H
0E
04
12
0F
1<
0C
1&
0'
1J
0=
0G
06
17
1+
0*
1D
#805000
0!
08
09
#810000
1!
18
19
0H
1E
14
02
1F
0<
1C
0&
1'
0J
1=
16
07
0+
1*
1G
0D
#815000
0!
08
09
#820000
1!
18
19
1H
0E
04
12
0F
1<
0C
1&
0'
1J
0=
0G
06
17
1+
0*
1D
#825000
0!
08
09
#830000
1!
18
19
0H
1E
14
02
1F
0<
1C
0&
1'
0J
1=
16
07
0+
1*
1G
0D
#835000
0!
08
09
#840000
1!
18
19
1H
0E
04
12
0F
1<
0C
1&
0'
1J
0=
0G
06
17
1+
0*
1D
#845000
0!
08
09
#850000
1!
18
19
0H
1E
14
02
1F
0<
1C
0&
1'
0J
1=
16
07
0+
1*
1G
0D
#855000
0!
08
09
#860000
1!
18
19
1H
0E
04
12
0F
1<
0C
1&
0'
1J
0=
0G
06
17
1+
0*
1D
#865000
0!
08
09
#870000
1!
18
19
0H
1E
14
02
1F
0<
1C
0&
1'
0J
1=
16
07
0+
1*
1G
0D
#875000
0!
08
09
#880000
1!
18
19
1H
0E
04
12
0F
1<
0C
1&
0'
1J
0=
0G
06
17
1+
0*
1D
#885000
0!
08
09
#890000
1!
18
19
0H
1E
14
02
1F
0<
1C
0&
1'
0J
1=
16
07
0+
1*
1G
0D
#895000
0!
08
09
#900000
1!
18
19
1H
0E
04
12
0F
1<
0C
1&
0'
1J
0=
0G
06
17
1+
0*
1D
#905000
0!
08
09
#910000
1!
18
19
0H
1E
14
02
1F
0<
1C
0&
1'
0J
1=
16
07
0+
1*
1G
0D
#915000
0!
08
09
#920000
1!
18
19
1H
0E
04
12
0F
1<
0C
1&
0'
1J
0=
0G
06
17
1+
0*
1D
#925000
0!
08
09
#930000
1!
18
19
0H
1E
14
02
1F
0<
1C
0&
1'
0J
1=
16
07
0+
1*
1G
0D
#935000
0!
08
09
#940000
1!
18
19
1H
0E
04
12
0F
1<
0C
1&
0'
1J
0=
0G
06
17
1+
0*
1D
#945000
0!
08
09
#950000
1!
18
19
0H
1E
14
02
1F
0<
1C
0&
1'
0J
1=
16
07
0+
1*
1G
0D
#955000
0!
08
09
#960000
1!
18
19
1H
0E
04
12
0F
1<
0C
1&
0'
1J
0=
0G
06
17
1+
0*
1D
#965000
0!
08
09
#970000
1!
18
19
0H
1E
14
02
1F
0<
1C
0&
1'
0J
1=
16
07
0+
1*
1G
0D
#975000
0!
08
09
#980000
1!
18
19
1H
0E
04
12
0F
1<
0C
1&
0'
1J
0=
0G
06
17
1+
0*
1D
#985000
0!
08
09
#990000
1!
18
19
0H
1E
14
02
1F
0<
1C
0&
1'
0J
1=
16
07
0+
1*
1G
0D
#995000
0!
08
09
