testing/stand/simulation/qsim/TEST_OY.msim.vcd
$comment
	File created using the following command:
		vcd file TEST_OY.msim.vcd -direction
$end
$date
	Mon Jan 24 22:50:01 2022
$end
$version
	ModelSim Version 10.5b
$end
$timescale
	1ps
$end

$scope module test_oy_vhd_vec_tst $end
$var wire 1 ! clk $end
$var wire 1 " defect $end
$var wire 1 # finish $end
$var wire 1 $ okay $end
$var wire 1 % real_rez [7] $end
$var wire 1 & real_rez [6] $end
$var wire 1 ' real_rez [5] $end
$var wire 1 ( real_rez [4] $end
$var wire 1 ) real_rez [3] $end
$var wire 1 * real_rez [2] $end
$var wire 1 + real_rez [1] $end
$var wire 1 , real_rez [0] $end
$var wire 1 - reset $end
$var wire 1 . sko $end
$var wire 1 / sno $end
$var wire 1 0 true_rez [7] $end
$var wire 1 1 true_rez [6] $end
$var wire 1 2 true_rez [5] $end
$var wire 1 3 true_rez [4] $end
$var wire 1 4 true_rez [3] $end
$var wire 1 5 true_rez [2] $end
$var wire 1 6 true_rez [1] $end
$var wire 1 7 true_rez [0] $end
$var wire 1 8 x [3] $end
$var wire 1 9 x [2] $end
$var wire 1 : x [1] $end
$var wire 1 ; x [0] $end
$var wire 1 < y [3] $end
$var wire 1 = y [2] $end
$var wire 1 > y [1] $end
$var wire 1 ? y [0] $end

$scope module i1 $end
$var wire 1 @ gnd $end
$var wire 1 A vcc $end
$var wire 1 B unknown $end
$var wire 1 C devoe $end
$var wire 1 D devclrn $end
$var wire 1 E devpor $end
$var wire 1 F ww_devoe $end
$var wire 1 G ww_devclrn $end
$var wire 1 H ww_devpor $end
$var wire 1 I ww_clk $end
$var wire 1 J ww_reset $end
$var wire 1 K ww_sko $end
$var wire 1 L ww_sno $end
$var wire 1 M ww_okay $end
$var wire 1 N ww_defect $end
$var wire 1 O ww_finish $end
$var wire 1 P ww_real_rez [7] $end
$var wire 1 Q ww_real_rez [6] $end
$var wire 1 R ww_real_rez [5] $end
$var wire 1 S ww_real_rez [4] $end
$var wire 1 T ww_real_rez [3] $end
$var wire 1 U ww_real_rez [2] $end
$var wire 1 V ww_real_rez [1] $end
$var wire 1 W ww_real_rez [0] $end
$var wire 1 X ww_true_rez [7] $end
$var wire 1 Y ww_true_rez [6] $end
$var wire 1 Z ww_true_rez [5] $end
$var wire 1 [ ww_true_rez [4] $end
$var wire 1 \ ww_true_rez [3] $end
$var wire 1 ] ww_true_rez [2] $end
$var wire 1 ^ ww_true_rez [1] $end
$var wire 1 _ ww_true_rez [0] $end
$var wire 1 ` ww_x [3] $end
$var wire 1 a ww_x [2] $end
$var wire 1 b ww_x [1] $end
$var wire 1 c ww_x [0] $end
$var wire 1 d ww_y [3] $end
$var wire 1 e ww_y [2] $end
$var wire 1 f ww_y [1] $end
$var wire 1 g ww_y [0] $end
$var wire 1 h \uut|unit_YA|state.s4~clkctrl_INCLK_bus\ [3] $end
$var wire 1 i \uut|unit_YA|state.s4~clkctrl_INCLK_bus\ [2] $end
$var wire 1 j \uut|unit_YA|state.s4~clkctrl_INCLK_bus\ [1] $end
$var wire 1 k \uut|unit_YA|state.s4~clkctrl_INCLK_bus\ [0] $end
$var wire 1 l \reset~inputclkctrl_INCLK_bus\ [3] $end
$var wire 1 m \reset~inputclkctrl_INCLK_bus\ [2] $end
$var wire 1 n \reset~inputclkctrl_INCLK_bus\ [1] $end
$var wire 1 o \reset~inputclkctrl_INCLK_bus\ [0] $end
$var wire 1 p \clk~inputclkctrl_INCLK_bus\ [3] $end
$var wire 1 q \clk~inputclkctrl_INCLK_bus\ [2] $end
$var wire 1 r \clk~inputclkctrl_INCLK_bus\ [1] $end
$var wire 1 s \clk~inputclkctrl_INCLK_bus\ [0] $end
$var wire 1 t \sko~output_o\ $end
$var wire 1 u \sno~output_o\ $end
$var wire 1 v \okay~output_o\ $end
$var wire 1 w \defect~output_o\ $end
$var wire 1 x \finish~output_o\ $end
$var wire 1 y \real_rez[0]~output_o\ $end
$var wire 1 z \real_rez[1]~output_o\ $end
$var wire 1 { \real_rez[2]~output_o\ $end
$var wire 1 | \real_rez[3]~output_o\ $end
$var wire 1 } \real_rez[4]~output_o\ $end
$var wire 1 ~ \real_rez[5]~output_o\ $end
$var wire 1 !! \real_rez[6]~output_o\ $end
$var wire 1 "! \real_rez[7]~output_o\ $end
$var wire 1 #! \true_rez[0]~output_o\ $end
$var wire 1 $! \true_rez[1]~output_o\ $end
$var wire 1 %! \true_rez[2]~output_o\ $end
$var wire 1 &! \true_rez[3]~output_o\ $end
$var wire 1 '! \true_rez[4]~output_o\ $end
$var wire 1 (! \true_rez[5]~output_o\ $end
$var wire 1 )! \true_rez[6]~output_o\ $end
$var wire 1 *! \true_rez[7]~output_o\ $end
$var wire 1 +! \x[0]~output_o\ $end
$var wire 1 ,! \x[1]~output_o\ $end
$var wire 1 -! \x[2]~output_o\ $end
$var wire 1 .! \x[3]~output_o\ $end
$var wire 1 /! \y[0]~output_o\ $end
$var wire 1 0! \y[1]~output_o\ $end
$var wire 1 1! \y[2]~output_o\ $end
$var wire 1 2! \y[3]~output_o\ $end
$var wire 1 3! \clk~input_o\ $end
$var wire 1 4! \clk~inputclkctrl_outclk\ $end
$var wire 1 5! \uut|unit_YA|state.s4~clkctrl_outclk\ $end
$var wire 1 6! \gen_test:cnt[0]~1_combout\ $end
$var wire 1 7! \reset~input_o\ $end
$var wire 1 8! \Equal0~0_combout\ $end
$var wire 1 9! \gen_test:cnt[7]~1_combout\ $end
$var wire 1 :! \gen_test:cnt[0]~q\ $end
$var wire 1 ;! \gen_test:cnt[0]~2\ $end
$var wire 1 <! \gen_test:cnt[1]~1_combout\ $end
$var wire 1 =! \gen_test:cnt[1]~q\ $end
$var wire 1 >! \gen_test:cnt[1]~2\ $end
$var wire 1 ?! \gen_test:cnt[2]~1_combout\ $end
$var wire 1 @! \gen_test:cnt[2]~q\ $end
$var wire 1 A! \gen_test:cnt[2]~2\ $end
$var wire 1 B! \gen_test:cnt[3]~1_combout\ $end
$var wire 1 C! \gen_test:cnt[3]~q\ $end
$var wire 1 D! \gen_test:cnt[3]~2\ $end
$var wire 1 E! \gen_test:cnt[4]~1_combout\ $end
$var wire 1 F! \gen_test:cnt[4]~q\ $end
$var wire 1 G! \gen_test:cnt[4]~2\ $end
$var wire 1 H! \gen_test:cnt[5]~1_combout\ $end
$var wire 1 I! \gen_test:cnt[5]~q\ $end
$var wire 1 J! \gen_test:cnt[5]~2\ $end
$var wire 1 K! \gen_test:cnt[6]~1_combout\ $end
$var wire 1 L! \gen_test:cnt[6]~q\ $end
$var wire 1 M! \gen_test:cnt[6]~2\ $end
$var wire 1 N! \gen_test:cnt[7]~2_combout\ $end
$var wire 1 O! \gen_test:cnt[7]~q\ $end
$var wire 1 P! \Equal0~1_combout\ $end
$var wire 1 Q! \ctl_unit~0_combout\ $end
$var wire 1 R! \reset~inputclkctrl_outclk\ $end
$var wire 1 S! \ctl_unit:v_sno~q\ $end
$var wire 1 T! \uut|unit_YA|Selector2~0_combout\ $end
$var wire 1 U! \uut|unit_YA|state.s0~q\ $end
$var wire 1 V! \uut|unit_YA|Selector3~1_combout\ $end
$var wire 1 W! \uut|unit_YA|state.s1~q\ $end
$var wire 1 X! \uut|unit_YA|Selector5~0_combout\ $end
$var wire 1 Y! \uut|unit_YA|Selector7~0_combout\ $end
$var wire 1 Z! \uut|unit_OA|Equal0~1_combout\ $end
$var wire 1 [! \uut|unit_OA|rb~2_combout\ $end
$var wire 1 \! \uut|unit_OA|rb~1_combout\ $end
$var wire 1 ]! \uut|unit_OA|Mux2~0_combout\ $end
$var wire 1 ^! \uut|unit_OA|rb~3_combout\ $end
$var wire 1 _! \uut|unit_OA|rb~0_combout\ $end
$var wire 1 `! \uut|unit_OA|Mux2~1_combout\ $end
$var wire 1 a! \uut|unit_YA|Selector1~0_combout\ $end
$var wire 1 b! \uut|unit_OA|i~4_combout\ $end
$var wire 1 c! \uut|unit_OA|Equal0~2_combout\ $end
$var wire 1 d! \uut|unit_OA|Add6~0_combout\ $end
$var wire 1 e! \uut|unit_OA|i~2_combout\ $end
$var wire 1 f! \uut|unit_OA|Equal13~0_combout\ $end
$var wire 1 g! \uut|unit_YA|next_state.s2~0_combout\ $end
$var wire 1 h! \uut|unit_YA|state.s2~q\ $end
$var wire 1 i! \uut|unit_YA|Selector3~0_combout\ $end
$var wire 1 j! \uut|unit_OA|Equal3~0_combout\ $end
$var wire 1 k! \uut|unit_OA|Equal3~1_combout\ $end
$var wire 1 l! \uut|unit_OA|i~3_combout\ $end
$var wire 1 m! \uut|unit_OA|Equal12~0_combout\ $end
$var wire 1 n! \uut|unit_YA|Selector4~0_combout\ $end
$var wire 1 o! \uut|unit_YA|state.s3~q\ $end
$var wire 1 p! \uut|unit_YA|state.s4~q\ $end
$var wire 1 q! \uut|unit_OA|Equal0~0_combout\ $end
$var wire 1 r! \uut|unit_OA|Equal2~0_combout\ $end
$var wire 1 s! \uut|unit_OA|Equal4~0_combout\ $end
$var wire 1 t! \uut|unit_OA|Equal1~0_combout\ $end
$var wire 1 u! \uut|unit_OA|ra~0_combout\ $end
$var wire 1 v! \uut|unit_OA|rc~0_combout\ $end
$var wire 1 w! \uut|unit_OA|rc~25_combout\ $end
$var wire 1 x! \uut|unit_OA|rc~20_combout\ $end
$var wire 1 y! \uut|unit_OA|rc~16_combout\ $end
$var wire 1 z! \uut|unit_OA|rc~15_combout\ $end
$var wire 1 {! \uut|unit_OA|rc~6_combout\ $end
$var wire 1 |! \uut|unit_OA|Add2~9\ $end
$var wire 1 }! \uut|unit_OA|Add2~11\ $end
$var wire 1 ~! \uut|unit_OA|Add2~12_combout\ $end
$var wire 1 !" \uut|unit_OA|Add2~10_combout\ $end
$var wire 1 "" \uut|unit_OA|Add2~8_combout\ $end
$var wire 1 #" \uut|unit_OA|ra~1_combout\ $end
$var wire 1 $" \uut|unit_OA|ra~2_combout\ $end
$var wire 1 %" \uut|unit_OA|ra~3_combout\ $end
$var wire 1 &" \uut|unit_OA|Add2~13\ $end
$var wire 1 '" \uut|unit_OA|Add2~15\ $end
$var wire 1 (" \uut|unit_OA|Add2~17\ $end
$var wire 1 )" \uut|unit_OA|Add2~19\ $end
$var wire 1 *" \uut|unit_OA|Add2~21\ $end
$var wire 1 +" \uut|unit_OA|Add2~23\ $end
$var wire 1 ," \uut|unit_OA|Add2~25\ $end
$var wire 1 -" \uut|unit_OA|Add2~27\ $end
$var wire 1 ." \uut|unit_OA|Add2~28_combout\ $end
$var wire 1 /" \uut|unit_OA|Add2~26_combout\ $end
$var wire 1 0" \uut|unit_OA|Add2~24_combout\ $end
$var wire 1 1" \uut|unit_OA|Add4~1\ $end
$var wire 1 2" \uut|unit_OA|Add4~3\ $end
$var wire 1 3" \uut|unit_OA|Add4~4_combout\ $end
$var wire 1 4" \uut|unit_OA|Add4~2_combout\ $end
$var wire 1 5" \uut|unit_OA|Add4~0_combout\ $end
$var wire 1 6" \uut|unit_OA|Add5~1\ $end
$var wire 1 7" \uut|unit_OA|Add5~3\ $end
$var wire 1 8" \uut|unit_OA|Add5~4_combout\ $end
$var wire 1 9" \uut|unit_OA|Add0~1\ $end
$var wire 1 :" \uut|unit_OA|Add0~3\ $end
$var wire 1 ;" \uut|unit_OA|Add0~4_combout\ $end
$var wire 1 <" \uut|unit_OA|Add0~2_combout\ $end
$var wire 1 =" \uut|unit_OA|Add0~0_combout\ $end
$var wire 1 >" \uut|unit_OA|Add1~1\ $end
$var wire 1 ?" \uut|unit_OA|Add1~3\ $end
$var wire 1 @" \uut|unit_OA|Add1~4_combout\ $end
$var wire 1 A" \uut|unit_OA|Add2~22_combout\ $end
$var wire 1 B" \uut|unit_OA|Add2~20_combout\ $end
$var wire 1 C" \uut|unit_OA|Add2~18_combout\ $end
$var wire 1 D" \uut|unit_OA|Add2~16_combout\ $end
$var wire 1 E" \uut|unit_OA|Add2~14_combout\ $end
$var wire 1 F" \uut|unit_OA|Add2~29\ $end
$var wire 1 G" \uut|unit_OA|Add2~31\ $end
$var wire 1 H" \uut|unit_OA|Add2~33\ $end
$var wire 1 I" \uut|unit_OA|Add2~35\ $end
$var wire 1 J" \uut|unit_OA|Add2~37\ $end
$var wire 1 K" \uut|unit_OA|Add2~39\ $end
$var wire 1 L" \uut|unit_OA|Add2~40_combout\ $end
$var wire 1 M" \uut|unit_OA|Add2~38_combout\ $end
$var wire 1 N" \uut|unit_OA|Add2~36_combout\ $end
$var wire 1 O" \uut|unit_OA|Add2~34_combout\ $end
$var wire 1 P" \uut|unit_OA|Add2~32_combout\ $end
$var wire 1 Q" \uut|unit_OA|Add2~30_combout\ $end
$var wire 1 R" \uut|unit_OA|Add4~5\ $end
$var wire 1 S" \uut|unit_OA|Add4~7\ $end
$var wire 1 T" \uut|unit_OA|Add4~9\ $end
$var wire 1 U" \uut|unit_OA|Add4~11\ $end
$var wire 1 V" \uut|unit_OA|Add4~13\ $end
$var wire 1 W" \uut|unit_OA|Add4~15\ $end
$var wire 1 X" \uut|unit_OA|Add4~16_combout\ $end
$var wire 1 Y" \uut|unit_OA|Add0~15\ $end
$var wire 1 Z" \uut|unit_OA|Add0~16_combout\ $end
$var wire 1 [" \uut|unit_OA|rc[3]~3_combout\ $end
$var wire 1 \" \uut|unit_OA|rc~17_combout\ $end
$var wire 1 ]" \uut|unit_OA|rc~18_combout\ $end
$var wire 1 ^" \uut|unit_OA|rc~19_combout\ $end
$var wire 1 _" \uut|unit_OA|rc~8_combout\ $end
$var wire 1 `" \uut|unit_OA|rc~9_combout\ $end
$var wire 1 a" \uut|unit_OA|rc~21_combout\ $end
$var wire 1 b" \uut|unit_OA|Add0~5\ $end
$var wire 1 c" \uut|unit_OA|Add0~6_combout\ $end
$var wire 1 d" \uut|unit_OA|Add1~5\ $end
$var wire 1 e" \uut|unit_OA|Add1~6_combout\ $end
$var wire 1 f" \uut|unit_OA|Add4~6_combout\ $end
$var wire 1 g" \uut|unit_OA|rc~22_combout\ $end
$var wire 1 h" \uut|unit_OA|Add5~5\ $end
$var wire 1 i" \uut|unit_OA|Add5~6_combout\ $end
$var wire 1 j" \uut|unit_OA|rc~23_combout\ $end
$var wire 1 k" \uut|unit_OA|rc~24_combout\ $end
$var wire 1 l" \uut|unit_OA|rc~26_combout\ $end
$var wire 1 m" \uut|unit_OA|Add4~8_combout\ $end
$var wire 1 n" \uut|unit_OA|Add5~7\ $end
$var wire 1 o" \uut|unit_OA|Add5~8_combout\ $end
$var wire 1 p" \uut|unit_OA|Add0~7\ $end
$var wire 1 q" \uut|unit_OA|Add0~8_combout\ $end
$var wire 1 r" \uut|unit_OA|Add1~7\ $end
$var wire 1 s" \uut|unit_OA|Add1~8_combout\ $end
$var wire 1 t" \uut|unit_OA|rc~27_combout\ $end
$var wire 1 u" \uut|unit_OA|rc~28_combout\ $end
$var wire 1 v" \uut|unit_OA|rc~29_combout\ $end
$var wire 1 w" \uut|unit_OA|rc~31_combout\ $end
$var wire 1 x" \uut|unit_OA|rc~30_combout\ $end
$var wire 1 y" \uut|unit_OA|Add0~9\ $end
$var wire 1 z" \uut|unit_OA|Add0~10_combout\ $end
$var wire 1 {" \uut|unit_OA|Add1~9\ $end
$var wire 1 |" \uut|unit_OA|Add1~10_combout\ $end
$var wire 1 }" \uut|unit_OA|Add4~10_combout\ $end
$var wire 1 ~" \uut|unit_OA|rc~32_combout\ $end
$var wire 1 !# \uut|unit_OA|Add5~9\ $end
$var wire 1 "# \uut|unit_OA|Add5~10_combout\ $end
$var wire 1 ## \uut|unit_OA|rc~33_combout\ $end
$var wire 1 $# \uut|unit_OA|rc~34_combout\ $end
$var wire 1 %# \uut|unit_OA|rc~36_combout\ $end
$var wire 1 &# \uut|unit_OA|rc~35_combout\ $end
$var wire 1 '# \uut|unit_OA|Add4~12_combout\ $end
$var wire 1 (# \uut|unit_OA|Add0~11\ $end
$var wire 1 )# \uut|unit_OA|Add0~12_combout\ $end
$var wire 1 *# \uut|unit_OA|Add1~11\ $end
$var wire 1 +# \uut|unit_OA|Add1~12_combout\ $end
$var wire 1 ,# \uut|unit_OA|rc~37_combout\ $end
$var wire 1 -# \uut|unit_OA|Add5~11\ $end
$var wire 1 .# \uut|unit_OA|Add5~12_combout\ $end
$var wire 1 /# \uut|unit_OA|rc~38_combout\ $end
$var wire 1 0# \uut|unit_OA|rc~39_combout\ $end
$var wire 1 1# \uut|unit_OA|Add0~13\ $end
$var wire 1 2# \uut|unit_OA|Add0~14_combout\ $end
$var wire 1 3# \uut|unit_OA|Add1~13\ $end
$var wire 1 4# \uut|unit_OA|Add1~14_combout\ $end
$var wire 1 5# \uut|unit_OA|rc~42_combout\ $end
$var wire 1 6# \uut|unit_OA|rc~43_combout\ $end
$var wire 1 7# \uut|unit_OA|Add4~14_combout\ $end
$var wire 1 8# \uut|unit_OA|Add5~13\ $end
$var wire 1 9# \uut|unit_OA|Add5~14_combout\ $end
$var wire 1 :# \uut|unit_OA|rc~40_combout\ $end
$var wire 1 ;# \uut|unit_OA|rc~41_combout\ $end
$var wire 1 <# \uut|unit_OA|rc~44_combout\ $end
$var wire 1 =# \uut|unit_OA|rc~2_combout\ $end
$var wire 1 ># \uut|unit_OA|rc~1_combout\ $end
$var wire 1 ?# \uut|unit_OA|Add5~0_combout\ $end
$var wire 1 @# \uut|unit_OA|Add1~0_combout\ $end
$var wire 1 A# \uut|unit_OA|rc~4_combout\ $end
$var wire 1 B# \uut|unit_OA|rc~5_combout\ $end
$var wire 1 C# \uut|unit_OA|rc~7_combout\ $end
$var wire 1 D# \uut|unit_OA|rc~11_combout\ $end
$var wire 1 E# \uut|unit_OA|rc~10_combout\ $end
$var wire 1 F# \uut|unit_OA|Add5~2_combout\ $end
$var wire 1 G# \uut|unit_OA|Add1~2_combout\ $end
$var wire 1 H# \uut|unit_OA|rc~12_combout\ $end
$var wire 1 I# \uut|unit_OA|rc~13_combout\ $end
$var wire 1 J# \uut|unit_OA|rc~14_combout\ $end
$var wire 1 K# \analise_unit~0_combout\ $end
$var wire 1 L# \analise_unit~1_combout\ $end
$var wire 1 M# \analise_unit~2_combout\ $end
$var wire 1 N# \actual_result~0_combout\ $end
$var wire 1 O# \Mult0|mult_core|decoder_node[1][2]~combout\ $end
$var wire 1 P# \Mult0|mult_core|decoder_node[1][1]~combout\ $end
$var wire 1 Q# \Mult0|mult_core|decoder_node[0][2]~combout\ $end
$var wire 1 R# \Mult0|mult_core|decoder_node[0][1]~combout\ $end
$var wire 1 S# \Mult0|mult_core|decoder_node[1][0]~combout\ $end
$var wire 1 T# \Mult0|mult_core|padder|adder[0]|auto_generated|op_1~1\ $end
$var wire 1 U# \Mult0|mult_core|padder|adder[0]|auto_generated|op_1~3\ $end
$var wire 1 V# \Mult0|mult_core|padder|adder[0]|auto_generated|op_1~5\ $end
$var wire 1 W# \Mult0|mult_core|padder|adder[0]|auto_generated|op_1~6_combout\ $end
$var wire 1 X# \Mult0|mult_core|decoder_node[2][2]~combout\ $end
$var wire 1 Y# \Mult0|mult_core|decoder_node[2][1]~combout\ $end
$var wire 1 Z# \Mult0|mult_core|padder|adder[0]|auto_generated|op_1~4_combout\ $end
$var wire 1 [# \Mult0|mult_core|padder|adder[0]|auto_generated|op_1~2_combout\ $end
$var wire 1 \# \Mult0|mult_core|decoder_node[2][0]~combout\ $end
$var wire 1 ]# \Mult0|mult_core|padder|sub_par_add|adder[0]|auto_generated|op_1~1\ $end
$var wire 1 ^# \Mult0|mult_core|padder|sub_par_add|adder[0]|auto_generated|op_1~3\ $end
$var wire 1 _# \Mult0|mult_core|padder|sub_par_add|adder[0]|auto_generated|op_1~5\ $end
$var wire 1 `# \Mult0|mult_core|padder|sub_par_add|adder[0]|auto_generated|op_1~6_combout\ $end
$var wire 1 a# \Equal4~5_combout\ $end
$var wire 1 b# \okay~4_combout\ $end
$var wire 1 c# \Mult0|mult_core|padder|adder[0]|auto_generated|op_1~0_combout\ $end
$var wire 1 d# \actual_result:mbin[2]~0_combout\ $end
$var wire 1 e# \Mult0|mult_core|decoder_node[0][0]~combout\ $end
$var wire 1 f# \actual_result:mbin[1]~0_combout\ $end
$var wire 1 g# \okay~2_combout\ $end
$var wire 1 h# \Mult0|mult_core|padder|sub_par_add|adder[0]|auto_generated|op_1~0_combout\ $end
$var wire 1 i# \Equal4~4_combout\ $end
$var wire 1 j# \Mult0|mult_core|padder|sub_par_add|adder[0]|auto_generated|op_1~2_combout\ $end
$var wire 1 k# \actual_result:mbin[4]~2_combout\ $end
$var wire 1 l# \okay~3_combout\ $end
$var wire 1 m# \Mult0|mult_core|padder|sub_par_add|adder[0]|auto_generated|op_1~4_combout\ $end
$var wire 1 n# \actual_result:mbin[5]~2_combout\ $end
$var wire 1 o# \okay~5_combout\ $end
$var wire 1 p# \okay~6_combout\ $end
$var wire 1 q# \okay~7_combout\ $end
$var wire 1 r# \okay~0_combout\ $end
$var wire 1 s# \okay~1_combout\ $end
$var wire 1 t# \okay~8_combout\ $end
$var wire 1 u# \okay~9_combout\ $end
$var wire 1 v# \okay~reg0_q\ $end
$var wire 1 w# \defect~0_combout\ $end
$var wire 1 x# \defect~reg0_q\ $end
$var wire 1 y# \Equal0~2_combout\ $end
$var wire 1 z# \actual_result:mbin[3]~2_combout\ $end
$var wire 1 {# \actual_result:mbin[6]~2_combout\ $end
$var wire 1 |# \uut|unit_OA|rc\ [7] $end
$var wire 1 }# \uut|unit_OA|rc\ [6] $end
$var wire 1 ~# \uut|unit_OA|rc\ [5] $end
$var wire 1 !$ \uut|unit_OA|rc\ [4] $end
$var wire 1 "$ \uut|unit_OA|rc\ [3] $end
$var wire 1 #$ \uut|unit_OA|rc\ [2] $end
$var wire 1 $$ \uut|unit_OA|rc\ [1] $end
$var wire 1 %$ \uut|unit_OA|rc\ [0] $end
$var wire 1 &$ \uut|unit_OA|ra\ [3] $end
$var wire 1 '$ \uut|unit_OA|ra\ [2] $end
$var wire 1 ($ \uut|unit_OA|ra\ [1] $end
$var wire 1 )$ \uut|unit_OA|ra\ [0] $end
$var wire 1 *$ \uut|unit_OA|x\ [2] $end
$var wire 1 +$ \uut|unit_OA|x\ [1] $end
$var wire 1 ,$ \uut|unit_OA|x\ [0] $end
$var wire 1 -$ \uut|unit_OA|i\ [2] $end
$var wire 1 .$ \uut|unit_OA|i\ [1] $end
$var wire 1 /$ \uut|unit_OA|i\ [0] $end
$var wire 1 0$ \uut|unit_OA|rb\ [3] $end
$var wire 1 1$ \uut|unit_OA|rb\ [2] $end
$var wire 1 2$ \uut|unit_OA|rb\ [1] $end
$var wire 1 3$ \uut|unit_OA|rb\ [0] $end
$var wire 1 4$ \uut|unit_YA|y\ [9] $end
$var wire 1 5$ \uut|unit_YA|y\ [8] $end
$var wire 1 6$ \uut|unit_YA|y\ [7] $end
$var wire 1 7$ \uut|unit_YA|y\ [6] $end
$var wire 1 8$ \uut|unit_YA|y\ [5] $end
$var wire 1 9$ \uut|unit_YA|y\ [4] $end
$var wire 1 :$ \uut|unit_YA|y\ [3] $end
$var wire 1 ;$ \uut|unit_YA|y\ [2] $end
$var wire 1 <$ \uut|unit_YA|y\ [1] $end
$var wire 1 =$ \uut|unit_YA|y\ [0] $end
$var wire 1 >$ \ALT_INV_reset~inputclkctrl_outclk\ $end
$var wire 1 ?$ \ALT_INV_okay~reg0_q\ $end
$var wire 1 @$ \ALT_INV_ctl_unit:v_sno~q\ $end
$upscope $end
$upscope $end
$enddefinitions $end
#0
$dumpvars
0!
0"
0#
1$
1-
0.
1/
0@
1A
xB
1C
1D
1E
1F
1G
1H
0I
1J
0K
1L
1M
0N
0O
0t
1u
1v
0w
0x
0y
0z
0{
0|
0}
0~
0!!
0"!
0#!
0$!
0%!
0&!
0'!
0(!
0)!
0*!
0+!
0,!
0-!
0.!
0/!
00!
01!
02!
03!
04!
05!
16!
17!
08!
19!
0:!
0;!
0<!
0=!
1>!
0?!
0@!
0A!
0B!
0C!
1D!
0E!
0F!
0G!
0H!
0I!
1J!
0K!
0L!
0M!
0N!
0O!
0P!
1Q!
1R!
0S!
1T!
0U!
1V!
0W!
0X!
1Y!
1Z!
0[!
0\!
0]!
0^!
0_!
0`!
0a!
0b!
1c!
1d!
0e!
0f!
0g!
0h!
0i!
0j!
0k!
0l!
0m!
0n!
0o!
0p!
1q!
0r!
0s!
0t!
0u!
0v!
0w!
0x!
0y!
0z!
0{!
0|!
1}!
1~!
1!"
1""
0#"
0$"
0%"
0&"
1'"
0("
1)"
0*"
1+"
0,"
1-"
1."
1/"
10"
01"
12"
13"
14"
15"
16"
07"
08"
09"
1:"
0;"
0<"
0="
0>"
1?"
0@"
1A"
1B"
1C"
1D"
1E"
0F"
1G"
0H"
1I"
0J"
1K"
0L"
1M"
1N"
1O"
1P"
1Q"
0R"
1S"
0T"
1U"
0V"
1W"
0X"
1Y"
0Z"
0["
0\"
0]"
0^"
0_"
1`"
0a"
0b"
0c"
0d"
0e"
1f"
0g"
1h"
0i"
0j"
0k"
0l"
1m"
0n"
0o"
1p"
0q"
1r"
0s"
0t"
0u"
0v"
0w"
0x"
0y"
0z"
0{"
0|"
1}"
0~"
1!#
0"#
0##
0$#
0%#
0&#
1'#
1(#
0)#
1*#
0+#
0,#
0-#
0.#
0/#
00#
01#
02#
03#
04#
05#
06#
17#
18#
09#
1:#
0;#
0<#
0=#
0>#
0?#
1@#
0A#
0B#
0C#
0D#
0E#
0F#
0G#
0H#
0I#
0J#
0K#
0L#
1M#
0N#
0O#
0P#
0Q#
0R#
0S#
0T#
1U#
0V#
0W#
0X#
0Y#
0Z#
0[#
0\#
0]#
1^#
0_#
0`#
0a#
0b#
0c#
0d#
0e#
0f#
0g#
0h#
0i#
0j#
0k#
0l#
0m#
0n#
0o#
1p#
1q#
1r#
1s#
1t#
0u#
0v#
0w#
0x#
0y#
0z#
0{#
0>$
1?$
1@$
0%
0&
0'
0(
0)
0*
0+
0,
00
01
02
03
04
05
06
07
08
09
0:
0;
0<
0=
0>
0?
0P
0Q
0R
0S
0T
0U
0V
0W
0X
0Y
0Z
0[
0\
0]
0^
0_
0`
0a
0b
0c
0d
0e
0f
0g
0|#
0}#
0~#
0!$
0"$
0#$
0$$
0%$
0&$
0'$
0($
0)$
0*$
0+$
0,$
0-$
0.$
0/$
00$
01$
02$
03$
x4$
x5$
x6$
x7$
08$
x9$
0:$
0;$
0<$
1=$
1p
1q
1r
0s
1h
1i
1j
0k
1l
1m
1n
1o
$end
#25
1!
1I
13!
1s
14!
#50
0!
0I
03!
0s
04!
#75
1!
1I
13!
1s
14!
#100
0!
0I
03!
0s
04!
#125
1!
1I
13!
1s
14!
#150
0!
0I
03!
0s
04!
#175
1!
1I
13!
1s
14!
#200
0!
0I
03!
0s
04!
#225
1!
1I
13!
1s
14!
#250
0!
0I
03!
0s
04!
#275
1!
1I
13!
1s
14!
#300
0!
0I
03!
0s
04!
#325
1!
1I
13!
1s
14!
#350
0!
0I
03!
0s
04!
#375
1!
1I
13!
1s
14!
#400
0!
0I
03!
0s
04!
#425
1!
1I
13!
1s
14!
#450
0!
0I
03!
0s
04!
#475
1!
1I
13!
1s
14!
#500
0!
0I
03!
0s
04!
#525
1!
1I
13!
1s
14!
#550
0!
0I
03!
0s
04!
#575
1!
1I
13!
1s
14!
#600
0!
0I
03!
0s
04!
#625
1!
1I
13!
1s
14!
#650
0!
0I
03!
0s
04!
#675
1!
1I
13!
1s
14!
#700
0!
0I
03!
0s
04!
#725
1!
1I
13!
1s
14!
#750
0!
0I
03!
0s
04!
#775
1!
1I
13!
1s
14!
#800
0!
0I
03!
0s
04!
#825
1!
1I
13!
1s
14!
#850
0!
0I
03!
0s
04!
#875
1!
1I
13!
1s
14!
#900
0!
0I
03!
0s
04!
#925
1!
1I
13!
1s
14!
#950
0!
0I
03!
0s
04!
#975
1!
1I
13!
1s
14!
#1000
0!
0I
03!
0s
04!
#1025
1!
1I
13!
1s
14!
#1050
0!
0I
03!
0s
04!
#1075
1!
1I
13!
1s
14!
#1100
0!
0I
03!
0s
04!
#1125
1!
1I
13!
1s
14!
#1150
0!
0I
03!
0s
04!
#1175
1!
1I
13!
1s
14!
#1200
0!
0I
03!
0s
04!
#1225
1!
1I
13!
1s
14!
#1250
0!
0I
03!
0s
04!
#1275
1!
1I
13!
1s
14!
#1300
0!
0I
03!
0s
04!
#1325
1!
1I
13!
1s
14!
#1350
0!
0I
03!
0s
04!
#1375
1!
1I
13!
1s
14!
#1400
0!
0I
03!
0s
04!
#1425
1!
1I
13!
1s
14!
#1450
0!
0I
03!
0s
04!
#1475
1!
1I
13!
1s
14!
#1500
0!
0I
03!
0s
04!
#1525
1!
1I
13!
1s
14!
#1550
0!
0I
03!
0s
04!
#1575
1!
1I
13!
1s
14!
#1600
0!
0I
03!
0s
04!
#1625
1!
1I
13!
1s
14!
#1650
0!
0I
03!
0s
04!
#1675
1!
1I
13!
1s
14!
#1700
0!
0I
03!
0s
04!
#1725
1!
1I
13!
1s
14!
#1750
0!
0I
03!
0s
04!
#1775
1!
1I
13!
1s
14!
#1800
0!
0I
03!
0s
04!
#1825
1!
1I
13!
1s
14!
#1850
0!
0I
03!
0s
04!
#1875
1!
1I
13!
1s
14!
#1900
0!
0I
03!
0s
04!
#1925
1!
1I
13!
1s
14!
#1950
0!
0I
03!
0s
04!
#1975
1!
1I
13!
1s
14!
#2000
0!
0I
03!
0s
04!
#2025
1!
1I
13!
1s
14!
#2050
0!
0I
03!
0s
04!
#2075
1!
1I
13!
1s
14!
#2100
0!
0I
03!
0s
04!
#2125
1!
1I
13!
1s
14!
#2150
0!
0I
03!
0s
04!
#2175
1!
1I
13!
1s
14!
#2200
0!
0I
03!
0s
04!
#2225
1!
1I
13!
1s
14!
