Jonson JK Trigger/simulation/qsim/Jonson.msim.vcd
$comment
	File created using the following command:
		vcd file Jonson.msim.vcd -direction
$end
$date
	Mon Jun 14 22:24:21 2021
$end
$version
	ModelSim Version 10.5b
$end
$timescale
	1ps
$end

$scope module Jonson_vlg_vec_tst $end
$var reg 1 ! C $end
$var reg 1 " M $end
$var reg 1 # R $end
$var wire 1 $ Q_0 $end
$var wire 1 % Q_1 $end
$var wire 1 & Q_2 $end
$var wire 1 ' Q_3 $end
$var wire 1 ( Q_4 $end
$var wire 1 ) Q_5 $end
$var wire 1 * Q_6 $end
$var wire 1 + Q_7 $end
$var wire 1 , Q_8 $end
$var wire 1 - Q_9 $end
$var wire 1 . Q_10 $end
$var wire 1 / Q_11 $end
$var wire 1 0 Z_1 $end
$var wire 1 1 Z_2 $end

$scope module i1 $end
$var wire 1 2 gnd $end
$var wire 1 3 vcc $end
$var wire 1 4 unknown $end
$var tri1 1 5 devclrn $end
$var tri1 1 6 devpor $end
$var tri1 1 7 devoe $end
$var wire 1 8 Q_0~output_o $end
$var wire 1 9 Q_1~output_o $end
$var wire 1 : Q_2~output_o $end
$var wire 1 ; Q_3~output_o $end
$var wire 1 < Q_4~output_o $end
$var wire 1 = Q_5~output_o $end
$var wire 1 > Q_6~output_o $end
$var wire 1 ? Q_7~output_o $end
$var wire 1 @ Q_8~output_o $end
$var wire 1 A Q_9~output_o $end
$var wire 1 B Q_10~output_o $end
$var wire 1 C Q_11~output_o $end
$var wire 1 D Z_2~output_o $end
$var wire 1 E Z_1~output_o $end
$var wire 1 F C~input_o $end
$var wire 1 G C~inputclkctrl_outclk $end
$var wire 1 H inst5|inst1|7~0_combout $end
$var wire 1 I R~input_o $end
$var wire 1 J R~inputclkctrl_outclk $end
$var wire 1 K inst5|inst1|7~q $end
$var wire 1 L inst5|inst1|8~q $end
$var wire 1 M inst4|inst1|7~q $end
$var wire 1 N inst4|inst1|8~q $end
$var wire 1 O inst3|inst1|7~feeder_combout $end
$var wire 1 P inst3|inst1|7~q $end
$var wire 1 Q inst3|inst1|8~q $end
$var wire 1 R inst2|inst1|7~q $end
$var wire 1 S inst2|inst1|8~q $end
$var wire 1 T inst1|inst1|7~feeder_combout $end
$var wire 1 U inst1|inst1|7~q $end
$var wire 1 V inst1|inst1|8~feeder_combout $end
$var wire 1 W inst1|inst1|8~q $end
$var wire 1 X inst|inst1|7~feeder_combout $end
$var wire 1 Y inst|inst1|7~q $end
$var wire 1 Z inst|inst1|8~feeder_combout $end
$var wire 1 [ inst|inst1|8~q $end
$var wire 1 \ inst48|inst~2_combout $end
$var wire 1 ] M~input_o $end
$var wire 1 ^ inst48|inst~0_combout $end
$var wire 1 _ inst48|inst~1_combout $end
$var wire 1 ` inst48|inst~3_combout $end
$var wire 1 a inst9|inst4~1_combout $end
$var wire 1 b inst9|inst4~3_combout $end
$var wire 1 c inst9|inst4~4_combout $end
$var wire 1 d inst9|inst4~0_combout $end
$var wire 1 e inst9|inst4~2_combout $end
$var wire 1 f inst9|inst4~5_combout $end
$upscope $end
$upscope $end
$enddefinitions $end
#0
$dumpvars
0!
0"
1#
0$
0%
0&
0'
0(
0)
0*
0+
0,
0-
0.
0/
00
01
02
13
x4
15
16
17
08
09
0:
0;
0<
0=
0>
0?
0@
0A
0B
0C
0D
0E
0F
0G
1H
1I
1J
0K
0L
0M
0N
0O
0P
0Q
0R
0S
0T
0U
0V
0W
0X
0Y
0Z
0[
1\
0]
1^
0_
1`
0a
0b
1c
1d
0e
1f
$end
#10000
1!
0#
1F
0I
0J
1G
#20000
0!
0F
0G
1K
1C
1e
1/
#30000
1!
1F
1G
#40000
0!
0F
0G
1L
1B
1.
#50000
1!
1F
1G
#60000
0!
0F
0G
1M
1A
1b
1-
0c
0f
1E
10
#70000
1!
1F
1G
#80000
0!
0F
0G
1N
1@
0\
1,
1O
#90000
1!
1F
1G
#100000
0!
0F
0G
1P
1?
1\
1+
#110000
1!
1F
1G
#120000
0!
0F
0G
1Q
1>
1*
#130000
1!
1F
1G
#140000
0!
0F
0G
1R
1=
0e
0b
0^
1)
1c
0`
1D
1f
11
0E
00
#150000
1!
1F
1G
#160000
0!
0F
0G
1S
1<
1^
1(
1T
1`
0D
01
#170000
1!
1F
1G
#180000
0!
0F
0G
1U
1;
1'
1V
#190000
1!
1F
1G
#200000
0!
0F
0G
1W
1:
1e
1&
1X
#210000
1!
1F
1G
#220000
0!
0F
0G
1Y
19
0c
1%
1Z
0f
1E
10
#230000
1!
1F
1G
#240000
0!
0F
0G
1[
18
1c
0\
1$
0H
1f
0E
00
#250000
1!
1F
1G
#260000
0!
0F
0G
0K
0C
1\
0/
#270000
1!
1F
1G
#280000
0!
0F
0G
0L
0B
0.
#290000
1!
1F
1G
#300000
0!
0F
0G
0M
0A
0-
#310000
1!
1F
1G
#320000
0!
0F
0G
0N
0@
0,
0O
#330000
1!
1F
1G
#340000
0!
0F
0G
0P
0?
0+
#350000
1!
1F
1G
#360000
0!
0F
0G
0Q
0>
1b
0^
0*
0c
0`
1D
0f
11
1E
10
#370000
1!
1F
1G
#380000
0!
0F
0G
0R
0=
0b
0)
1c
1f
0E
00
#390000
1!
1F
1G
#400000
0!
0F
0G
0S
0<
0d
1^
0(
0T
0f
1`
0D
1E
10
01
#410000
1!
1F
1G
#420000
0!
0F
0G
0U
0;
1d
0'
0V
1f
0E
00
#430000
1!
1F
1G
#440000
0!
0F
0G
0W
0:
0&
0X
#450000
1!
1F
1G
#460000
0!
0F
0G
0Y
09
0%
0Z
#470000
1!
1F
1G
#480000
1"
0!
1]
0F
0G
1a
1_
0^
0[
08
0e
0c
0$
1H
0f
1E
10
#490000
1!
1F
1G
#500000
0!
0F
0G
1K
1C
1e
1/
1f
0E
00
#510000
1!
1F
1G
#520000
0!
0F
0G
1L
1B
1.
#530000
1!
1F
1G
#540000
0!
0F
0G
1M
1A
1b
0a
1-
0f
1E
10
#550000
1!
1F
1G
#560000
0!
0F
0G
1N
1@
0\
1,
1O
0`
1D
11
#570000
1!
1F
1G
#580000
0!
0F
0G
1P
1?
1\
1+
1`
0D
01
#590000
1!
1F
1G
#600000
0!
0F
0G
1Q
1>
1a
1*
1f
0E
00
#610000
1!
1F
1G
#620000
0!
0F
0G
1R
1=
0e
1)
0f
1E
10
#630000
1!
1F
1G
#640000
0!
0F
0G
1S
1<
1(
1T
#650000
1!
1F
1G
#660000
0!
0F
0G
1U
1;
1'
1V
#670000
1!
1F
1G
#680000
0!
0F
0G
1W
1:
1e
0_
1&
1X
1f
0`
1D
0E
00
11
#690000
1!
1F
1G
#700000
0!
0F
0G
1Y
19
1_
1%
1Z
1`
0D
01
#710000
1!
1F
1G
#720000
0!
0F
0G
1[
18
0\
1$
0H
0`
1D
11
#730000
1!
1F
1G
#740000
0!
0F
0G
0K
0C
1\
0/
1`
0D
01
#750000
1!
1F
1G
#760000
0!
0F
0G
0L
0B
0a
0.
0f
1E
10
#770000
1!
1F
1G
#780000
0!
0F
0G
0M
0A
1a
0-
1f
0E
00
#790000
1!
1F
1G
#800000
0!
0F
0G
0N
0@
0,
0O
#810000
1!
1F
1G
#820000
0!
0F
0G
0P
0?
0+
#830000
1!
1F
1G
#840000
0!
0F
0G
0Q
0>
0*
#850000
1!
1F
1G
#860000
0!
0F
0G
0R
0=
0b
0)
1c
#870000
1!
1F
1G
#880000
0!
0F
0G
0S
0<
0d
0_
0(
0T
0`
1D
11
#890000
1!
1F
1G
#900000
0!
0F
0G
0U
0;
1d
0'
0V
#910000
1!
1F
1G
#920000
0!
0F
0G
0W
0:
1_
0&
0X
1`
0D
01
#930000
1!
1F
1G
#940000
0!
0F
0G
0Y
09
0%
0Z
#950000
1!
1F
1G
#960000
0"
0!
0]
0F
0G
0a
0_
1^
0[
08
0e
0$
1H
#970000
1!
1F
1G
#980000
0!
0F
0G
1K
1C
1e
1/
#990000
1!
1F
1G
