automats/tests/stand_test_algoritm/stand/simulation/qsim/test.msim.vcd
$comment
	File created using the following command:
		vcd file test.msim.vcd -direction
$end
$date
	Thu Jul 09 16:59:56 2020
$end
$version
	ModelSim Version 10.5b
$end
$timescale
	1ps
$end

$scope module test_alg_vhd_vec_tst $end
$var wire 1 ! clk $end
$var wire 1 " defect $end
$var wire 1 # finish $end
$var wire 1 $ okey $end
$var wire 1 % reset $end
$var wire 1 & rez_test [7] $end
$var wire 1 ' rez_test [6] $end
$var wire 1 ( rez_test [5] $end
$var wire 1 ) rez_test [4] $end
$var wire 1 * rez_test [3] $end
$var wire 1 + rez_test [2] $end
$var wire 1 , rez_test [1] $end
$var wire 1 - rez_test [0] $end
$var wire 1 . rez_true [7] $end
$var wire 1 / rez_true [6] $end
$var wire 1 0 rez_true [5] $end
$var wire 1 1 rez_true [4] $end
$var wire 1 2 rez_true [3] $end
$var wire 1 3 rez_true [2] $end
$var wire 1 4 rez_true [1] $end
$var wire 1 5 rez_true [0] $end
$var wire 1 6 x [3] $end
$var wire 1 7 x [2] $end
$var wire 1 8 x [1] $end
$var wire 1 9 x [0] $end
$var wire 1 : y [3] $end
$var wire 1 ; y [2] $end
$var wire 1 < y [1] $end
$var wire 1 = y [0] $end

$scope module i1 $end
$var wire 1 > gnd $end
$var wire 1 ? vcc $end
$var wire 1 @ unknown $end
$var wire 1 A devoe $end
$var wire 1 B devclrn $end
$var wire 1 C devpor $end
$var wire 1 D ww_devoe $end
$var wire 1 E ww_devclrn $end
$var wire 1 F ww_devpor $end
$var wire 1 G ww_defect $end
$var wire 1 H ww_reset $end
$var wire 1 I ww_clk $end
$var wire 1 J ww_okey $end
$var wire 1 K ww_finish $end
$var wire 1 L ww_rez_test [7] $end
$var wire 1 M ww_rez_test [6] $end
$var wire 1 N ww_rez_test [5] $end
$var wire 1 O ww_rez_test [4] $end
$var wire 1 P ww_rez_test [3] $end
$var wire 1 Q ww_rez_test [2] $end
$var wire 1 R ww_rez_test [1] $end
$var wire 1 S ww_rez_test [0] $end
$var wire 1 T ww_rez_true [7] $end
$var wire 1 U ww_rez_true [6] $end
$var wire 1 V ww_rez_true [5] $end
$var wire 1 W ww_rez_true [4] $end
$var wire 1 X ww_rez_true [3] $end
$var wire 1 Y ww_rez_true [2] $end
$var wire 1 Z ww_rez_true [1] $end
$var wire 1 [ ww_rez_true [0] $end
$var wire 1 \ ww_x [3] $end
$var wire 1 ] ww_x [2] $end
$var wire 1 ^ ww_x [1] $end
$var wire 1 _ ww_x [0] $end
$var wire 1 ` ww_y [3] $end
$var wire 1 a ww_y [2] $end
$var wire 1 b ww_y [1] $end
$var wire 1 c ww_y [0] $end
$var wire 1 d \reset~inputclkctrl_INCLK_bus\ [3] $end
$var wire 1 e \reset~inputclkctrl_INCLK_bus\ [2] $end
$var wire 1 f \reset~inputclkctrl_INCLK_bus\ [1] $end
$var wire 1 g \reset~inputclkctrl_INCLK_bus\ [0] $end
$var wire 1 h \clk~inputclkctrl_INCLK_bus\ [3] $end
$var wire 1 i \clk~inputclkctrl_INCLK_bus\ [2] $end
$var wire 1 j \clk~inputclkctrl_INCLK_bus\ [1] $end
$var wire 1 k \clk~inputclkctrl_INCLK_bus\ [0] $end
$var wire 1 l \defect~output_o\ $end
$var wire 1 m \okey~output_o\ $end
$var wire 1 n \finish~output_o\ $end
$var wire 1 o \rez_test[7]~output_o\ $end
$var wire 1 p \rez_test[6]~output_o\ $end
$var wire 1 q \rez_test[5]~output_o\ $end
$var wire 1 r \rez_test[4]~output_o\ $end
$var wire 1 s \rez_test[3]~output_o\ $end
$var wire 1 t \rez_test[2]~output_o\ $end
$var wire 1 u \rez_test[1]~output_o\ $end
$var wire 1 v \rez_test[0]~output_o\ $end
$var wire 1 w \rez_true[7]~output_o\ $end
$var wire 1 x \rez_true[6]~output_o\ $end
$var wire 1 y \rez_true[5]~output_o\ $end
$var wire 1 z \rez_true[4]~output_o\ $end
$var wire 1 { \rez_true[3]~output_o\ $end
$var wire 1 | \rez_true[2]~output_o\ $end
$var wire 1 } \rez_true[1]~output_o\ $end
$var wire 1 ~ \rez_true[0]~output_o\ $end
$var wire 1 !! \x[3]~output_o\ $end
$var wire 1 "! \x[2]~output_o\ $end
$var wire 1 #! \x[1]~output_o\ $end
$var wire 1 $! \x[0]~output_o\ $end
$var wire 1 %! \y[3]~output_o\ $end
$var wire 1 &! \y[2]~output_o\ $end
$var wire 1 '! \y[1]~output_o\ $end
$var wire 1 (! \y[0]~output_o\ $end
$var wire 1 )! \clk~input_o\ $end
$var wire 1 *! \clk~inputclkctrl_outclk\ $end
$var wire 1 +! \inst|cnt[0]~8_combout\ $end
$var wire 1 ,! \reset~input_o\ $end
$var wire 1 -! \inst|Equal0~0_combout\ $end
$var wire 1 .! \inst|cnt[4]~18\ $end
$var wire 1 /! \inst|cnt[5]~19_combout\ $end
$var wire 1 0! \inst|cnt[5]~20\ $end
$var wire 1 1! \inst|cnt[6]~21_combout\ $end
$var wire 1 2! \inst|cnt[6]~22\ $end
$var wire 1 3! \inst|cnt[7]~23_combout\ $end
$var wire 1 4! \inst|Equal0~1_combout\ $end
$var wire 1 5! \inst|Equal0~2_combout\ $end
$var wire 1 6! \inst|cnt[3]~10_combout\ $end
$var wire 1 7! \inst|cnt[0]~9\ $end
$var wire 1 8! \inst|cnt[1]~11_combout\ $end
$var wire 1 9! \inst|cnt[1]~12\ $end
$var wire 1 :! \inst|cnt[2]~13_combout\ $end
$var wire 1 ;! \inst|cnt[2]~14\ $end
$var wire 1 <! \inst|cnt[3]~15_combout\ $end
$var wire 1 =! \inst|cnt[3]~16\ $end
$var wire 1 >! \inst|cnt[4]~17_combout\ $end
$var wire 1 ?! \inst1|rc~3_combout\ $end
$var wire 1 @! \inst1|rc~4_combout\ $end
$var wire 1 A! \inst1|Add1~3\ $end
$var wire 1 B! \inst1|Add1~4_combout\ $end
$var wire 1 C! \inst1|Add1~15_combout\ $end
$var wire 1 D! \inst1|Add1~2_combout\ $end
$var wire 1 E! \inst1|Add1~16_combout\ $end
$var wire 1 F! \inst1|rc~5_combout\ $end
$var wire 1 G! \inst1|Add2~3\ $end
$var wire 1 H! \inst1|Add2~5\ $end
$var wire 1 I! \inst1|Add2~6_combout\ $end
$var wire 1 J! \inst1|Add2~17_combout\ $end
$var wire 1 K! \inst1|Add2~4_combout\ $end
$var wire 1 L! \inst1|Add2~18_combout\ $end
$var wire 1 M! \inst1|Add2~2_combout\ $end
$var wire 1 N! \inst1|Add2~19_combout\ $end
$var wire 1 O! \inst1|rc~6_combout\ $end
$var wire 1 P! \inst1|Add3~3\ $end
$var wire 1 Q! \inst1|Add3~5\ $end
$var wire 1 R! \inst1|Add3~7\ $end
$var wire 1 S! \inst1|Add3~8_combout\ $end
$var wire 1 T! \inst1|Add3~19_combout\ $end
$var wire 1 U! \inst26|xp[1]~2_combout\ $end
$var wire 1 V! \inst26|Mult0|auto_generated|_~13_combout\ $end
$var wire 1 W! \inst26|Mult0|auto_generated|op_3~1\ $end
$var wire 1 X! \inst26|Mult0|auto_generated|op_3~2_combout\ $end
$var wire 1 Y! \inst26|Mult0|auto_generated|op_3~0_combout\ $end
$var wire 1 Z! \inst26|xp[2]~1_combout\ $end
$var wire 1 [! \inst26|Mult0|auto_generated|op_1~0_combout\ $end
$var wire 1 \! \inst26|Mult0|auto_generated|cs2a[1]~0_combout\ $end
$var wire 1 ]! \inst26|Mult0|auto_generated|op_3~3\ $end
$var wire 1 ^! \inst26|Mult0|auto_generated|op_3~4_combout\ $end
$var wire 1 _! \inst26|xp[3]~0_combout\ $end
$var wire 1 `! \inst26|Mult0|auto_generated|op_1~1\ $end
$var wire 1 a! \inst26|Mult0|auto_generated|op_1~2_combout\ $end
$var wire 1 b! \inst26|Mult0|auto_generated|op_3~5\ $end
$var wire 1 c! \inst26|Mult0|auto_generated|op_3~6_combout\ $end
$var wire 1 d! \inst26|Equal0~1_combout\ $end
$var wire 1 e! \inst26|Mult0|auto_generated|op_1~3\ $end
$var wire 1 f! \inst26|Mult0|auto_generated|op_1~4_combout\ $end
$var wire 1 g! \inst26|Mult0|auto_generated|op_3~7\ $end
$var wire 1 h! \inst26|Mult0|auto_generated|op_3~8_combout\ $end
$var wire 1 i! \inst26|Mult0|auto_generated|op_1~5\ $end
$var wire 1 j! \inst26|Mult0|auto_generated|op_1~7\ $end
$var wire 1 k! \inst26|Mult0|auto_generated|op_1~8_combout\ $end
$var wire 1 l! \inst26|Mult0|auto_generated|op_1~6_combout\ $end
$var wire 1 m! \inst26|Mult0|auto_generated|op_3~9\ $end
$var wire 1 n! \inst26|Mult0|auto_generated|op_3~11\ $end
$var wire 1 o! \inst26|Mult0|auto_generated|op_3~12_combout\ $end
$var wire 1 p! \inst26|Mult0|auto_generated|op_3~10_combout\ $end
$var wire 1 q! \inst26|Mult0|auto_generated|op_1~9\ $end
$var wire 1 r! \inst26|Mult0|auto_generated|op_1~10_combout\ $end
$var wire 1 s! \inst26|Mult0|auto_generated|op_3~13\ $end
$var wire 1 t! \inst26|Mult0|auto_generated|op_3~14_combout\ $end
$var wire 1 u! \inst26|Equal0~0_combout\ $end
$var wire 1 v! \inst26|rez_true[7]~3_combout\ $end
$var wire 1 w! \inst26|process_0~0_combout\ $end
$var wire 1 x! \inst26|Add2~0_combout\ $end
$var wire 1 y! \inst26|Add2~2\ $end
$var wire 1 z! \inst26|Add2~4\ $end
$var wire 1 {! \inst26|Add2~6\ $end
$var wire 1 |! \inst26|Add2~8\ $end
$var wire 1 }! \inst26|Add2~9_combout\ $end
$var wire 1 ~! \inst1|Add0~0_combout\ $end
$var wire 1 !" \inst1|rc~1_combout\ $end
$var wire 1 "" \inst1|rc~2_combout\ $end
$var wire 1 #" \inst1|Add1~5\ $end
$var wire 1 $" \inst1|Add1~7\ $end
$var wire 1 %" \inst1|Add1~8_combout\ $end
$var wire 1 &" \inst1|Add1~13_combout\ $end
$var wire 1 '" \inst1|Add1~6_combout\ $end
$var wire 1 (" \inst1|Add1~14_combout\ $end
$var wire 1 )" \inst1|Add2~7\ $end
$var wire 1 *" \inst1|Add2~9\ $end
$var wire 1 +" \inst1|Add2~10_combout\ $end
$var wire 1 ," \inst1|Add2~15_combout\ $end
$var wire 1 -" \inst1|Add2~8_combout\ $end
$var wire 1 ." \inst1|Add2~16_combout\ $end
$var wire 1 /" \inst1|Add3~9\ $end
$var wire 1 0" \inst1|Add3~11\ $end
$var wire 1 1" \inst1|Add3~12_combout\ $end
$var wire 1 2" \inst1|Add3~17_combout\ $end
$var wire 1 3" \inst26|Add2~10\ $end
$var wire 1 4" \inst26|Add2~12\ $end
$var wire 1 5" \inst26|Add2~13_combout\ $end
$var wire 1 6" \inst24|Equal0~0_combout\ $end
$var wire 1 7" \inst1|Add3~10_combout\ $end
$var wire 1 8" \inst1|Add3~18_combout\ $end
$var wire 1 9" \inst26|Add2~11_combout\ $end
$var wire 1 :" \inst1|Add3~2_combout\ $end
$var wire 1 ;" \inst1|Add3~22_combout\ $end
$var wire 1 <" \inst26|Add2~3_combout\ $end
$var wire 1 =" \inst26|Add2~1_combout\ $end
$var wire 1 >" \inst24|Equal0~3_combout\ $end
$var wire 1 ?" \inst24|Equal0~4_combout\ $end
$var wire 1 @" \inst26|rez_true[7]~2_combout\ $end
$var wire 1 A" \inst1|rc~0_combout\ $end
$var wire 1 B" \inst1|Add1~9\ $end
$var wire 1 C" \inst1|Add1~10_combout\ $end
$var wire 1 D" \inst1|Add1~12_combout\ $end
$var wire 1 E" \inst1|Add2~11\ $end
$var wire 1 F" \inst1|Add2~12_combout\ $end
$var wire 1 G" \inst1|Add2~14_combout\ $end
$var wire 1 H" \inst1|Add3~13\ $end
$var wire 1 I" \inst1|Add3~14_combout\ $end
$var wire 1 J" \inst1|Add3~16_combout\ $end
$var wire 1 K" \inst1|Add3~4_combout\ $end
$var wire 1 L" \inst1|Add3~21_combout\ $end
$var wire 1 M" \inst26|Add2~5_combout\ $end
$var wire 1 N" \inst1|Add3~6_combout\ $end
$var wire 1 O" \inst1|Add3~20_combout\ $end
$var wire 1 P" \inst26|Add2~7_combout\ $end
$var wire 1 Q" \inst24|Equal0~1_combout\ $end
$var wire 1 R" \inst24|Equal0~2_combout\ $end
$var wire 1 S" \inst24|defect~0_combout\ $end
$var wire 1 T" \reset~inputclkctrl_outclk\ $end
$var wire 1 U" \inst24|defect~q\ $end
$var wire 1 V" \inst24|Equal0~5_combout\ $end
$var wire 1 W" \inst24|Equal0~6_combout\ $end
$var wire 1 X" \inst24|okey~q\ $end
$var wire 1 Y" \inst|cnt\ [7] $end
$var wire 1 Z" \inst|cnt\ [6] $end
$var wire 1 [" \inst|cnt\ [5] $end
$var wire 1 \" \inst|cnt\ [4] $end
$var wire 1 ]" \inst|cnt\ [3] $end
$var wire 1 ^" \inst|cnt\ [2] $end
$var wire 1 _" \inst|cnt\ [1] $end
$var wire 1 `" \inst|cnt\ [0] $end
$var wire 1 a" \inst26|Mult0|auto_generated|le4a\ [5] $end
$var wire 1 b" \inst26|Mult0|auto_generated|le4a\ [4] $end
$var wire 1 c" \inst26|Mult0|auto_generated|le4a\ [3] $end
$var wire 1 d" \inst26|Mult0|auto_generated|le4a\ [2] $end
$var wire 1 e" \inst26|Mult0|auto_generated|le4a\ [1] $end
$var wire 1 f" \inst26|Mult0|auto_generated|le4a\ [0] $end
$var wire 1 g" \inst26|Mult0|auto_generated|le3a\ [5] $end
$var wire 1 h" \inst26|Mult0|auto_generated|le3a\ [4] $end
$var wire 1 i" \inst26|Mult0|auto_generated|le3a\ [3] $end
$var wire 1 j" \inst26|Mult0|auto_generated|le3a\ [2] $end
$var wire 1 k" \inst26|Mult0|auto_generated|le3a\ [1] $end
$var wire 1 l" \inst26|Mult0|auto_generated|le3a\ [0] $end
$var wire 1 m" \inst26|Mult0|auto_generated|le5a\ [4] $end
$var wire 1 n" \inst26|Mult0|auto_generated|le5a\ [3] $end
$var wire 1 o" \inst26|Mult0|auto_generated|le5a\ [2] $end
$var wire 1 p" \inst26|Mult0|auto_generated|le5a\ [1] $end
$var wire 1 q" \inst26|Mult0|auto_generated|le5a\ [0] $end
$var wire 1 r" \inst24|ALT_INV_okey~q\ $end
$var wire 1 s" \ALT_INV_reset~inputclkctrl_outclk\ $end
$upscope $end
$upscope $end
$enddefinitions $end
#0
$dumpvars
0!
0"
0#
1$
1%
0>
1?
x@
1A
1B
1C
1D
1E
1F
0G
1H
0I
1J
0K
0l
1m
0n
0o
0p
0q
0r
0s
0t
0u
0v
0w
0x
0y
0z
0{
0|
0}
0~
0!!
0"!
0#!
0$!
0%!
0&!
0'!
0(!
0)!
0*!
1+!
1,!
0-!
0.!
0/!
10!
01!
02!
03!
04!
05!
16!
07!
08!
19!
0:!
0;!
0<!
1=!
0>!
0?!
0@!
0A!
0B!
0C!
0D!
0E!
0F!
0G!
1H!
0I!
0J!
0K!
0L!
0M!
0N!
0O!
0P!
1Q!
0R!
0S!
0T!
0U!
0V!
0W!
0X!
0Y!
0Z!
0[!
0\!
1]!
0^!
0_!
0`!
0a!
0b!
0c!
1d!
1e!
0f!
1g!
0h!
0i!
1j!
0k!
0l!
0m!
1n!
0o!
0p!
0q!
1r!
0s!
0t!
1u!
1v!
0w!
1x!
0y!
1z!
0{!
1|!
0}!
0~!
0!"
0""
1#"
0$"
0%"
0&"
0'"
0("
0)"
1*"
0+"
0,"
0-"
0."
1/"
00"
01"
02"
03"
14"
05"
16"
07"
08"
09"
0:"
0;"
0<"
0="
1>"
1?"
0@"
0A"
1B"
0C"
0D"
0E"
0F"
0G"
1H"
0I"
0J"
0K"
0L"
0M"
0N"
0O"
0P"
1Q"
1R"
0S"
1T"
0U"
0V"
0W"
0X"
1r"
0s"
0L
0M
0N
0O
0P
0Q
0R
0S
0T
0U
0V
0W
0X
0Y
0Z
0[
0\
0]
0^
0_
0`
0a
0b
0c
0Y"
0Z"
0["
0\"
0]"
0^"
0_"
0`"
0a"
0b"
0c"
0d"
0e"
0f"
0g"
0h"
0i"
0j"
0k"
0l"
xm"
0n"
0o"
0p"
0q"
1h
1i
1j
0k
1d
1e
1f
1g
0&
0'
0(
0)
0*
0+
0,
0-
0.
0/
00
01
02
03
04
05
06
07
08
09
0:
0;
0<
0=
$end
#1500
1!
1I
1)!
1k
1*!
#3000
0!
0I
0)!
0k
0*!
#4500
1!
1I
1)!
1k
1*!
#6000
0!
0I
0)!
0k
0*!
#7500
1!
1I
1)!
1k
1*!
#9000
0!
0I
0)!
0k
0*!
#10000
0%
0H
0,!
0g
0T"
1s"
#10500
1!
1I
1)!
1k
1*!
1`"
0+!
17!
1~!
18!
1$!
1_
19
#12000
0!
0I
0)!
0k
0*!
#13500
1!
1I
1)!
1k
1*!
0`"
1_"
08!
09!
1D!
1M!
1:"
1+!
07!
1U!
18!
19!
1:!
1#!
0$!
0:!
1^
0_
09
18
#15000
0!
0I
0)!
0k
0*!
#16500
1!
1I
1)!
1k
1*!
1`"
0+!
17!
08!
09!
1$!
1:!
1_
19
#18000
0!
0I
0)!
0k
0*!
#19500
1!
1I
1)!
1k
1*!
0`"
0_"
1^"
0:!
1;!
1B!
1K!
1K"
18!
19!
0D!
0M!
0:"
1+!
07!
0U!
1Z!
0~!
08!
1:!
0;!
1<!
1"!
0#!
0$!
0<!
1]
0^
0_
09
08
17
#21000
0!
0I
0)!
0k
0*!
#22500
1!
1I
1)!
1k
1*!
1`"
0+!
17!
1~!
18!
1$!
1_
19
#24000
0!
0I
0)!
0k
0*!
#25500
1!
1I
1)!
1k
1*!
0`"
1_"
08!
09!
1D!
1M!
1:"
1+!
07!
1U!
18!
19!
0:!
1;!
1#!
0$!
1<!
1:!
0;!
1^
0_
09
18
0<!
#27000
0!
0I
0)!
0k
0*!
#28500
1!
1I
1)!
1k
1*!
1`"
0+!
17!
08!
09!
1$!
0:!
1;!
1_
19
1<!
#30000
0!
0I
0)!
0k
0*!
#31500
1!
1I
1)!
1k
1*!
0`"
0_"
0^"
1]"
0<!
0=!
1I!
1N"
1S!
1w!
1'"
1%"
1-"
1+"
17"
11"
1C"
1F"
1I"
1:!
0;!
0B!
0K!
0K"
18!
19!
0D!
0M!
0:"
1+!
07!
0U!
0Z!
1_!
0~!
08!
0:!
1<!
1=!
1>!
1!!
0"!
0#!
0$!
0>!
1\
0]
0^
0_
09
08
07
16
#33000
0!
0I
0)!
0k
0*!
#34500
1!
1I
1)!
1k
1*!
1`"
0+!
17!
1U!
1Z!
0_!
1~!
18!
1$!
1_
19
#36000
0!
0I
0)!
0k
0*!
#37500
1!
1I
1)!
1k
1*!
0`"
1_"
08!
09!
1D!
1M!
1:"
1+!
07!
18!
19!
1:!
1#!
0$!
0:!
1^
0_
09
18
#39000
0!
0I
0)!
0k
0*!
#40500
1!
1I
1)!
1k
1*!
1`"
0+!
17!
0U!
08!
09!
1$!
1:!
1_
19
#42000
0!
0I
0)!
0k
0*!
#43500
1!
1I
1)!
1k
1*!
0`"
0_"
1^"
0:!
1;!
1B!
1K!
1K"
18!
19!
0D!
0M!
0:"
1+!
07!
0~!
08!
1:!
0;!
0<!
0=!
1"!
0#!
0$!
1>!
1<!
1=!
1]
0^
0_
09
08
17
0>!
#45000
0!
0I
0)!
0k
0*!
#46500
1!
1I
1)!
1k
1*!
1`"
0+!
17!
1U!
0Z!
1~!
18!
1$!
1_
19
#48000
0!
0I
0)!
0k
0*!
#49500
1!
1I
1)!
1k
1*!
0`"
1_"
08!
09!
1D!
1M!
1:"
1+!
07!
18!
19!
0:!
1;!
1#!
0$!
0<!
0=!
1:!
0;!
1^
0_
09
18
1<!
1=!
1>!
0>!
#51000
0!
0I
0)!
0k
0*!
#52500
1!
1I
1)!
1k
1*!
1`"
0+!
17!
0U!
08!
09!
1$!
0:!
1;!
1_
19
0<!
0=!
1>!
#54000
0!
0I
0)!
0k
0*!
#55500
1!
1I
1)!
1k
1*!
0`"
0_"
0^"
0]"
1\"
0>!
1.!
1T!
12"
18"
1J"
1L"
1O"
1V"
1<!
1=!
0I!
0N"
0S!
0w!
0'"
0%"
0-"
0+"
07"
01"
0C"
0F"
0I"
1:!
0;!
0B!
0K!
0K"
18!
19!
0D!
0M!
0:"
1+!
07!
0~!
1;"
0>"
08!
0;"
0:!
0L"
0<!
0J"
0V"
02"
08"
0T!
0O"
1>!
0.!
1W"
0Q"
0R"
0?"
06"
1/!
1(!
0!!
0"!
0#!
0$!
1S"
0/!
16"
1Q"
1>"
1c
0\
0]
0^
0_
1u
1s
1t
1o
1q
1p
1r
1=
09
08
07
06
1?"
1R"
1R
1P
1Q
1L
1N
1M
1O
0s
0r
0q
0p
0o
0t
0u
1,
1+
1*
1)
1(
1'
1&
0S"
0W"
0P
0O
0N
0M
0L
0Q
0R
0,
0+
0*
0)
0(
0'
0&
#57000
0!
0I
0)!
0k
0*!
#58500
1!
1I
1)!
1k
1*!
1`"
0+!
17!
1-!
1l"
1~!
1Y!
0>"
18!
1$!
0?"
0d!
0x!
1_
1v
19
1="
1S"
1W"
1S
1-
1>"
1?"
1~
0S"
0W"
1[
15
#60000
0!
0I
0)!
0k
0*!
#61500
1!
1I
1)!
1k
1*!
0`"
1_"
08!
09!
1D!
1M!
1:"
1+!
07!
0-!
1U!
0l"
0Y!
1k"
0>"
18!
19!
1;"
1:!
1#!
0$!
0:!
0?"
1X!
1d!
1x!
1^
0_
0v
09
18
0="
0d!
1<"
1S"
1W"
0S
1u
0-
1>"
1R
1,
1?"
1}
0~
0S"
0W"
1Z
0[
05
14
#63000
0!
0I
0)!
0k
0*!
#64500
1!
1I
1)!
1k
1*!
1`"
0+!
17!
1-!
1l"
1Y!
0>"
08!
09!
1$!
1:!
0?"
0x!
1_
1v
19
1="
1S"
1W"
1S
1-
1>"
1?"
1~
0S"
0W"
1[
15
#66000
0!
0I
0)!
0k
0*!
#67500
1!
1I
1)!
1k
1*!
0`"
0_"
1^"
0:!
1;!
1B!
1K!
1K"
18!
19!
0D!
0M!
0:"
1+!
07!
0-!
0U!
0l"
1Z!
0~!
0Y!
0k"
1j"
0>"
08!
0;"
1:!
0;!
1L"
1<!
1"!
0#!
0$!
0Q"
0<!
0?"
1[!
0X!
1x!
1]
0^
0_
0v
09
08
17
0="
1d!
0<"
1^!
1S"
0R"
1W"
0S
1t
0u
0-
0d!
1M"
1>"
1Q
0R
0,
1+
1?"
1Q"
0}
0~
1R"
0W"
0Z
0[
1|
05
04
0S"
1Y
13
#69000
0!
0I
0)!
0k
0*!
#70500
1!
1I
1)!
1k
1*!
1`"
0+!
17!
1-!
1l"
1~!
1Y!
0>"
18!
1$!
0?"
0x!
1_
1v
19
1="
1S"
1W"
1S
1-
1>"
1?"
1~
0S"
0W"
1[
15
#72000
0!
0I
0)!
0k
0*!
#73500
1!
1I
1)!
1k
1*!
0`"
1_"
08!
09!
1D!
1M!
1:"
1+!
07!
0-!
1U!
0l"
0Y!
1k"
0>"
18!
19!
1;"
0:!
1;!
1#!
0$!
1<!
1:!
0;!
0?"
1X!
1x!
1^
0_
0v
09
18
0="
1<"
1S"
1W"
0<!
0S
1u
0-
1>"
1R
1,
1?"
1}
0~
0S"
0W"
1Z
0[
05
14
#75000
0!
0I
0)!
0k
0*!
#76500
1!
1I
1)!
1k
1*!
1`"
0+!
17!
1-!
1l"
1Y!
0>"
08!
09!
1$!
0:!
1;!
0?"
0x!
1_
1v
19
1="
1S"
1W"
1<!
1S
1-
1>"
1?"
1~
0S"
0W"
1[
15
#78000
0!
0I
0)!
0k
0*!
#79500
1!
1I
1)!
1k
1*!
0`"
0_"
0^"
1]"
0<!
0=!
1I!
1N"
1S!
0v!
1w!
1'"
1%"
1-"
1+"
17"
11"
1C"
1F"
1I"
1:!
0;!
0B!
0K!
0K"
18!
19!
0D!
0M!
0:"
1+!
07!
0-!
0U!
0l"
0Z!
1_!
0~!
1i"
0Y!
0k"
0j"
0>"
08!
0;"
0:!
0L"
1<!
1=!
1J"
1V"
12"
18"
1x!
1@"
0="
1y!
0<"
0M"
1P"
1}!
19"
15"
1T!
1O"
0>!
1.!
1!!
0"!
0#!
0$!
1/!
1<"
0V"
1="
0y!
1W"
1>!
0.!
1>"
0?"
0[!
0X!
0x!
1a!
1\
0]
0^
0_
0v
09
08
07
16
1c!
0="
1y!
0^!
1S"
1?"
0/!
0>"
0S
1s
1r
1x
1y
1z
1{
0|
0}
0~
1w
1q
1p
1o
0t
0u
0-
0?"
0S"
0W"
1M"
0<"
0z!
0P"
1P
1O
1U
1V
1W
1X
0Y
0Z
0[
1T
1N
1M
1L
0Q
0R
1~
1}
0,
0+
1*
1)
1(
1'
1&
05
04
03
12
11
10
1/
1.
0M"
1{!
1>"
0Q"
1S"
1W"
1[
1Z
0~
15
14
0R"
1?"
1P"
0[
0{
0}
1|
05
1Q"
0X
0Z
1Y
0|
04
13
02
1R"
0W"
0Y
1{
03
0S"
1X
12
#81000
0!
0I
0)!
0k
0*!
#82500
1!
1I
1)!
1k
1*!
1`"
0+!
17!
1-!
1U!
1l"
1Z!
0_!
1~!
0i"
1Y!
1k"
1j"
0>"
18!
1$!
0?"
1[!
1X!
1x!
0a!
1_
1v
19
0c!
1="
0y!
1<"
1z!
1^!
1S"
1W"
1S
1-
0{!
0<"
0P"
0|!
0}!
13"
0Q"
1>"
1P"
1|!
1}
1~
1}!
03"
1Q"
1?"
0R"
09"
04"
06"
1Z
1[
0{
0}
15
14
05"
0?"
1R"
19"
14"
16"
0X
0Z
1{
0z
04
02
15"
1?"
06"
1X
0W
0y
1z
12
01
16"
0V
1W
1y
0x
11
00
0S"
0W"
1V
0U
1x
10
0/
1U
1/
#84000
0!
0I
0)!
0k
0*!
#85500
1!
1I
1)!
1k
1*!
0`"
1_"
08!
09!
1D!
1M!
1:"
1+!
07!
0-!
0l"
0Y!
0>"
18!
19!
1;"
1:!
1#!
0$!
0:!
0?"
0x!
1^
0_
0v
09
18
0="
1y!
1S"
1W"
0S
1u
0-
1<"
1R
1,
1>"
0~
1?"
0[
1}
05
0S"
0W"
1Z
14
#87000
0!
0I
0)!
0k
0*!
#88500
1!
1I
1)!
1k
1*!
1`"
0+!
17!
1-!
0U!
1l"
1Y!
0k"
0>"
08!
09!
1$!
1:!
0?"
0X!
1x!
1_
1v
19
1="
0y!
0<"
0z!
1S"
1W"
1S
1-
1M"
1<"
1z!
0M"
1>"
0Q"
0}
1~
0R"
1?"
1Q"
0Z
1[
1}
1|
15
04
1R"
0W"
1Z
1Y
0|
14
13
0S"
0Y
03
#90000
0!
0I
0)!
0k
0*!
#91500
1!
1I
1)!
1k
1*!
0`"
0_"
1^"
0:!
1;!
1B!
1K!
1K"
18!
19!
0D!
0M!
0:"
1+!
07!
0-!
0l"
0~!
0Y!
0>"
08!
0;"
1:!
0;!
1L"
0<!
0=!
1"!
0#!
0$!
0>!
1.!
0Q"
1<!
1=!
0?"
0x!
1]
0^
0_
0v
09
08
17
0="
1y!
1S"
1>!
0.!
0R"
1W"
1/!
0S
1t
0u
0-
0/!
0<"
0z!
1Q
0R
0,
1+
1M"
1>"
0~
1?"
1Q"
0[
0}
05
1R"
0W"
0Z
1|
04
0S"
1Y
13
#93000
0!
0I
0)!
0k
0*!
#94500
1!
1I
1)!
1k
1*!
1`"
0+!
17!
1-!
1U!
1l"
0Z!
1~!
1Y!
1k"
0j"
0>"
18!
1$!
0?"
0[!
1X!
1x!
1_
1v
19
1="
0y!
1<"
1z!
0^!
1S"
1W"
1S
1-
0<"
1>"
1}
1~
1?"
1Z
1[
0}
15
14
0S"
0W"
0Z
04
#96000
0!
0I
0)!
0k
0*!
#97500
1!
1I
1)!
1k
1*!
0`"
1_"
08!
09!
1D!
1M!
1:"
1+!
07!
0-!
0l"
0Y!
0>"
18!
19!
1;"
0:!
1;!
1#!
0$!
0<!
0=!
1:!
0;!
0?"
0x!
1^
0_
0v
09
18
0="
1y!
1S"
1W"
1<!
1=!
0>!
1.!
0S
1u
0-
1/!
1>!
0.!
1<"
1R
1,
1>"
0/!
0~
1?"
0[
1}
05
0S"
0W"
1Z
14
#99000
0!
0I
0)!
0k
0*!
#100500
1!
1I
1)!
1k
1*!
1`"
0+!
17!
1-!
0U!
1l"
1Y!
0k"
0>"
08!
09!
1$!
0:!
1;!
0?"
0X!
1x!
1_
1v
19
1="
0y!
0<"
0z!
1S"
1W"
0<!
0=!
1S
1-
0>!
1.!
0M"
1{!
1<"
1z!
1M"
0{!
1>"
0P"
0|!
0Q"
1/!
0}
1~
0R"
0}!
13"
1?"
1P"
1|!
0Z
1[
1}
0|
15
04
1}!
03"
1Q"
09"
04"
06"
1Z
0Y
0{
1|
14
03
05"
0?"
1R"
19"
14"
16"
0X
1Y
1{
0z
13
02
15"
1?"
06"
1X
0W
0y
1z
12
01
16"
0V
1W
1y
0x
11
00
0S"
0W"
1V
0U
1x
10
0/
1U
1/
#102000
0!
0I
0)!
0k
0*!
