adder/simulation/qsim/OEVM.msim.vcd
$comment
	File created using the following command:
		vcd file OEVM.msim.vcd -direction
$end
$date
	Mon Jan 10 16:24:14 2022
$end
$version
	ModelSim Version 10.5b
$end
$timescale
	1ps
$end

$scope module alu_vhd_vec_tst $end
$var wire 1 ! a [4] $end
$var wire 1 " a [3] $end
$var wire 1 # a [2] $end
$var wire 1 $ a [1] $end
$var wire 1 % b [4] $end
$var wire 1 & b [3] $end
$var wire 1 ' b [2] $end
$var wire 1 ( b [1] $end
$var wire 1 ) clk $end
$var wire 1 * cop $end
$var wire 1 + f1 $end
$var wire 1 , f2 $end
$var wire 1 - f3 $end
$var wire 1 . incr_i $end
$var wire 1 / ks1_res [8] $end
$var wire 1 0 ks1_res [7] $end
$var wire 1 1 ks1_res [6] $end
$var wire 1 2 ks1_res [5] $end
$var wire 1 3 ks1_res [4] $end
$var wire 1 4 ks1_res [3] $end
$var wire 1 5 ks1_res [2] $end
$var wire 1 6 ks1_res [1] $end
$var wire 1 7 n [8] $end
$var wire 1 8 n [7] $end
$var wire 1 9 n [6] $end
$var wire 1 : n [5] $end
$var wire 1 ; n [4] $end
$var wire 1 < n [3] $end
$var wire 1 = n [2] $end
$var wire 1 > n [1] $end
$var wire 1 ? next_state_out [1] $end
$var wire 1 @ next_state_out [0] $end
$var wire 1 A priznak [1] $end
$var wire 1 B priznak [0] $end
$var wire 1 C rb [4] $end
$var wire 1 D rb [3] $end
$var wire 1 E rb [2] $end
$var wire 1 F rb [1] $end
$var wire 1 G s [8] $end
$var wire 1 H s [7] $end
$var wire 1 I s [6] $end
$var wire 1 J s [5] $end
$var wire 1 K s [4] $end
$var wire 1 L s [3] $end
$var wire 1 M s [2] $end
$var wire 1 N s [1] $end
$var wire 1 O s_out [1] $end
$var wire 1 P s_out [0] $end
$var wire 1 Q set $end
$var wire 1 R sko $end
$var wire 1 S sno $end
$var wire 1 T y [10] $end
$var wire 1 U y [9] $end
$var wire 1 V y [8] $end
$var wire 1 W y [7] $end
$var wire 1 X y [6] $end
$var wire 1 Y y [5] $end
$var wire 1 Z y [4] $end
$var wire 1 [ y [3] $end
$var wire 1 \ y [2] $end
$var wire 1 ] y [1] $end

$scope module i1 $end
$var wire 1 ^ gnd $end
$var wire 1 _ vcc $end
$var wire 1 ` unknown $end
$var wire 1 a devoe $end
$var wire 1 b devclrn $end
$var wire 1 c devpor $end
$var wire 1 d ww_devoe $end
$var wire 1 e ww_devclrn $end
$var wire 1 f ww_devpor $end
$var wire 1 g ww_sko $end
$var wire 1 h ww_clk $end
$var wire 1 i ww_set $end
$var wire 1 j ww_cop $end
$var wire 1 k ww_sno $end
$var wire 1 l ww_f3 $end
$var wire 1 m ww_a [4] $end
$var wire 1 n ww_a [3] $end
$var wire 1 o ww_a [2] $end
$var wire 1 p ww_a [1] $end
$var wire 1 q ww_b [4] $end
$var wire 1 r ww_b [3] $end
$var wire 1 s ww_b [2] $end
$var wire 1 t ww_b [1] $end
$var wire 1 u ww_f2 $end
$var wire 1 v ww_f1 $end
$var wire 1 w ww_incr_i $end
$var wire 1 x ww_ks1_res [8] $end
$var wire 1 y ww_ks1_res [7] $end
$var wire 1 z ww_ks1_res [6] $end
$var wire 1 { ww_ks1_res [5] $end
$var wire 1 | ww_ks1_res [4] $end
$var wire 1 } ww_ks1_res [3] $end
$var wire 1 ~ ww_ks1_res [2] $end
$var wire 1 !! ww_ks1_res [1] $end
$var wire 1 "! ww_n [8] $end
$var wire 1 #! ww_n [7] $end
$var wire 1 $! ww_n [6] $end
$var wire 1 %! ww_n [5] $end
$var wire 1 &! ww_n [4] $end
$var wire 1 '! ww_n [3] $end
$var wire 1 (! ww_n [2] $end
$var wire 1 )! ww_n [1] $end
$var wire 1 *! ww_next_state_out [1] $end
$var wire 1 +! ww_next_state_out [0] $end
$var wire 1 ,! ww_priznak [1] $end
$var wire 1 -! ww_priznak [0] $end
$var wire 1 .! ww_rb [4] $end
$var wire 1 /! ww_rb [3] $end
$var wire 1 0! ww_rb [2] $end
$var wire 1 1! ww_rb [1] $end
$var wire 1 2! ww_s [8] $end
$var wire 1 3! ww_s [7] $end
$var wire 1 4! ww_s [6] $end
$var wire 1 5! ww_s [5] $end
$var wire 1 6! ww_s [4] $end
$var wire 1 7! ww_s [3] $end
$var wire 1 8! ww_s [2] $end
$var wire 1 9! ww_s [1] $end
$var wire 1 :! ww_s_out [1] $end
$var wire 1 ;! ww_s_out [0] $end
$var wire 1 <! ww_y [10] $end
$var wire 1 =! ww_y [9] $end
$var wire 1 >! ww_y [8] $end
$var wire 1 ?! ww_y [7] $end
$var wire 1 @! ww_y [6] $end
$var wire 1 A! ww_y [5] $end
$var wire 1 B! ww_y [4] $end
$var wire 1 C! ww_y [3] $end
$var wire 1 D! ww_y [2] $end
$var wire 1 E! ww_y [1] $end
$var wire 1 F! \sno~inputclkctrl_INCLK_bus\ [3] $end
$var wire 1 G! \sno~inputclkctrl_INCLK_bus\ [2] $end
$var wire 1 H! \sno~inputclkctrl_INCLK_bus\ [1] $end
$var wire 1 I! \sno~inputclkctrl_INCLK_bus\ [0] $end
$var wire 1 J! \set~inputclkctrl_INCLK_bus\ [3] $end
$var wire 1 K! \set~inputclkctrl_INCLK_bus\ [2] $end
$var wire 1 L! \set~inputclkctrl_INCLK_bus\ [1] $end
$var wire 1 M! \set~inputclkctrl_INCLK_bus\ [0] $end
$var wire 1 N! \clk~inputclkctrl_INCLK_bus\ [3] $end
$var wire 1 O! \clk~inputclkctrl_INCLK_bus\ [2] $end
$var wire 1 P! \clk~inputclkctrl_INCLK_bus\ [1] $end
$var wire 1 Q! \clk~inputclkctrl_INCLK_bus\ [0] $end
$var wire 1 R! \cop~input_o\ $end
$var wire 1 S! \sko~output_o\ $end
$var wire 1 T! \f3~output_o\ $end
$var wire 1 U! \f2~output_o\ $end
$var wire 1 V! \f1~output_o\ $end
$var wire 1 W! \incr_i~output_o\ $end
$var wire 1 X! \ks1_res[8]~output_o\ $end
$var wire 1 Y! \ks1_res[7]~output_o\ $end
$var wire 1 Z! \ks1_res[6]~output_o\ $end
$var wire 1 [! \ks1_res[5]~output_o\ $end
$var wire 1 \! \ks1_res[4]~output_o\ $end
$var wire 1 ]! \ks1_res[3]~output_o\ $end
$var wire 1 ^! \ks1_res[2]~output_o\ $end
$var wire 1 _! \ks1_res[1]~output_o\ $end
$var wire 1 `! \n[8]~output_o\ $end
$var wire 1 a! \n[7]~output_o\ $end
$var wire 1 b! \n[6]~output_o\ $end
$var wire 1 c! \n[5]~output_o\ $end
$var wire 1 d! \n[4]~output_o\ $end
$var wire 1 e! \n[3]~output_o\ $end
$var wire 1 f! \n[2]~output_o\ $end
$var wire 1 g! \n[1]~output_o\ $end
$var wire 1 h! \next_state_out[1]~output_o\ $end
$var wire 1 i! \next_state_out[0]~output_o\ $end
$var wire 1 j! \priznak[1]~output_o\ $end
$var wire 1 k! \priznak[0]~output_o\ $end
$var wire 1 l! \rb[4]~output_o\ $end
$var wire 1 m! \rb[3]~output_o\ $end
$var wire 1 n! \rb[2]~output_o\ $end
$var wire 1 o! \rb[1]~output_o\ $end
$var wire 1 p! \s[8]~output_o\ $end
$var wire 1 q! \s[7]~output_o\ $end
$var wire 1 r! \s[6]~output_o\ $end
$var wire 1 s! \s[5]~output_o\ $end
$var wire 1 t! \s[4]~output_o\ $end
$var wire 1 u! \s[3]~output_o\ $end
$var wire 1 v! \s[2]~output_o\ $end
$var wire 1 w! \s[1]~output_o\ $end
$var wire 1 x! \s_out[1]~output_o\ $end
$var wire 1 y! \s_out[0]~output_o\ $end
$var wire 1 z! \y[10]~output_o\ $end
$var wire 1 {! \y[9]~output_o\ $end
$var wire 1 |! \y[8]~output_o\ $end
$var wire 1 }! \y[7]~output_o\ $end
$var wire 1 ~! \y[6]~output_o\ $end
$var wire 1 !" \y[5]~output_o\ $end
$var wire 1 "" \y[4]~output_o\ $end
$var wire 1 #" \y[3]~output_o\ $end
$var wire 1 $" \y[2]~output_o\ $end
$var wire 1 %" \y[1]~output_o\ $end
$var wire 1 &" \clk~input_o\ $end
$var wire 1 '" \clk~inputclkctrl_outclk\ $end
$var wire 1 (" \sno~input_o\ $end
$var wire 1 )" \inst2|Selector0~0_combout\ $end
$var wire 1 *" \set~input_o\ $end
$var wire 1 +" \set~inputclkctrl_outclk\ $end
$var wire 1 ," \inst2|state.s0~q\ $end
$var wire 1 -" \inst2|Selector1~0_combout\ $end
$var wire 1 ." \inst2|Selector1~1_combout\ $end
$var wire 1 /" \inst2|state.s1~q\ $end
$var wire 1 0" \inst2|state.s2~feeder_combout\ $end
$var wire 1 1" \inst2|state.s2~q\ $end
$var wire 1 2" \inst2|i[0]~1_combout\ $end
$var wire 1 3" \sno~inputclkctrl_outclk\ $end
$var wire 1 4" \inst2|i[1]~0_combout\ $end
$var wire 1 5" \inst2|sko~0_combout\ $end
$var wire 1 6" \b[4]~input_o\ $end
$var wire 1 7" \b[2]~input_o\ $end
$var wire 1 8" \b[1]~input_o\ $end
$var wire 1 9" \inst|inst6|_~3_combout\ $end
$var wire 1 :" \inst|inst6|_~2_combout\ $end
$var wire 1 ;" \b[3]~input_o\ $end
$var wire 1 <" \inst|inst6|_~0_combout\ $end
$var wire 1 =" \inst|inst6|_~1_combout\ $end
$var wire 1 >" \a[4]~input_o\ $end
$var wire 1 ?" \inst|inst|Mux0~0_combout\ $end
$var wire 1 @" \inst|inst11|state~0_combout\ $end
$var wire 1 A" \inst|inst7|q[6]~2_combout\ $end
$var wire 1 B" \inst|inst7|q[5]~3_combout\ $end
$var wire 1 C" \inst|inst7|q[4]~4_combout\ $end
$var wire 1 D" \inst|inst7|q[3]~5_combout\ $end
$var wire 1 E" \a[3]~input_o\ $end
$var wire 1 F" \inst|inst|Mux5~0_combout\ $end
$var wire 1 G" \a[2]~input_o\ $end
$var wire 1 H" \inst|inst|Mux6~0_combout\ $end
$var wire 1 I" \inst|inst7|q[2]~6_combout\ $end
$var wire 1 J" \a[1]~input_o\ $end
$var wire 1 K" \inst|inst|Mux7~0_combout\ $end
$var wire 1 L" \inst|inst7|q[1]~7_combout\ $end
$var wire 1 M" \inst|inst8|Add0~1\ $end
$var wire 1 N" \inst|inst8|Add0~3\ $end
$var wire 1 O" \inst|inst8|Add0~5\ $end
$var wire 1 P" \inst|inst8|Add0~7\ $end
$var wire 1 Q" \inst|inst8|Add0~9\ $end
$var wire 1 R" \inst|inst8|Add0~10_combout\ $end
$var wire 1 S" \inst|inst8|Add0~8_combout\ $end
$var wire 1 T" \inst|inst8|Add0~6_combout\ $end
$var wire 1 U" \inst|inst8|Add0~4_combout\ $end
$var wire 1 V" \inst|inst8|Add0~2_combout\ $end
$var wire 1 W" \inst|inst7|q[8]~0_combout\ $end
$var wire 1 X" \inst|inst7|q[7]~1_combout\ $end
$var wire 1 Y" \inst|inst8|Add0~11\ $end
$var wire 1 Z" \inst|inst8|Add0~13\ $end
$var wire 1 [" \inst|inst8|Add0~15\ $end
$var wire 1 \" \inst|inst8|Add0~16_combout\ $end
$var wire 1 ]" \inst|inst8|Add0~0_combout\ $end
$var wire 1 ^" \inst|inst8|Add1~1\ $end
$var wire 1 _" \inst|inst8|Add1~3\ $end
$var wire 1 `" \inst|inst8|Add1~5\ $end
$var wire 1 a" \inst|inst8|Add1~7\ $end
$var wire 1 b" \inst|inst8|Add1~9\ $end
$var wire 1 c" \inst|inst8|Add1~10_combout\ $end
$var wire 1 d" \inst|inst11|state~8_combout\ $end
$var wire 1 e" \inst|inst8|Add0~12_combout\ $end
$var wire 1 f" \inst|inst8|Add1~11\ $end
$var wire 1 g" \inst|inst8|Add1~12_combout\ $end
$var wire 1 h" \inst|inst11|state~7_combout\ $end
$var wire 1 i" \inst|inst8|Add0~14_combout\ $end
$var wire 1 j" \inst|inst8|Add1~13\ $end
$var wire 1 k" \inst|inst8|Add1~14_combout\ $end
$var wire 1 l" \inst|inst11|state~6_combout\ $end
$var wire 1 m" \inst|inst8|Add1~0_combout\ $end
$var wire 1 n" \inst|inst11|state~2_combout\ $end
$var wire 1 o" \inst|inst8|Add1~2_combout\ $end
$var wire 1 p" \inst|inst11|state~3_combout\ $end
$var wire 1 q" \inst|inst8|Add1~4_combout\ $end
$var wire 1 r" \inst|inst11|state~4_combout\ $end
$var wire 1 s" \inst|inst8|Add1~6_combout\ $end
$var wire 1 t" \inst|inst11|state~5_combout\ $end
$var wire 1 u" \inst|inst8|Add1~8_combout\ $end
$var wire 1 v" \inst|inst11|state~1_combout\ $end
$var wire 1 w" \inst|inst14|Equal1~0_combout\ $end
$var wire 1 x" \inst|inst14|Equal1~1_combout\ $end
$var wire 1 y" \inst2|incr_i~0_combout\ $end
$var wire 1 z" \inst2|next_state_out[0]~0_combout\ $end
$var wire 1 {" \inst2|y[5]~0_combout\ $end
$var wire 1 |" \inst2|y[4]~1_combout\ $end
$var wire 1 }" \inst2|i\ [1] $end
$var wire 1 ~" \inst2|i\ [0] $end
$var wire 1 !# \inst|inst11|state\ [8] $end
$var wire 1 "# \inst|inst11|state\ [7] $end
$var wire 1 ## \inst|inst11|state\ [6] $end
$var wire 1 $# \inst|inst11|state\ [5] $end
$var wire 1 %# \inst|inst11|state\ [4] $end
$var wire 1 &# \inst|inst11|state\ [3] $end
$var wire 1 '# \inst|inst11|state\ [2] $end
$var wire 1 (# \inst|inst11|state\ [1] $end
$var wire 1 )# \inst|inst6|dffs\ [3] $end
$var wire 1 *# \inst|inst6|dffs\ [2] $end
$var wire 1 +# \inst|inst6|dffs\ [1] $end
$var wire 1 ,# \inst|inst6|dffs\ [0] $end
$var wire 1 -# \inst|inst1|d\ [4] $end
$var wire 1 .# \inst|inst1|d\ [3] $end
$var wire 1 /# \inst|inst1|d\ [2] $end
$var wire 1 0# \inst|inst1|d\ [1] $end
$var wire 1 1# \ALT_INV_set~inputclkctrl_outclk\ $end
$var wire 1 2# \ALT_INV_sno~inputclkctrl_outclk\ $end
$var wire 1 3# \inst|inst11|ALT_INV_state~0_combout\ $end
$var wire 1 4# \inst2|ALT_INV_next_state_out[0]~0_combout\ $end
$upscope $end
$upscope $end
$enddefinitions $end
#0
$dumpvars
0)
1*
0+
0,
0-
0.
1Q
0R
0S
0^
1_
x`
1a
1b
1c
1d
1e
1f
0g
0h
1i
1j
0k
0l
0u
0v
0w
1R!
0S!
0T!
0U!
0V!
0W!
0X!
0Y!
0Z!
0[!
0\!
0]!
0^!
0_!
0`!
0a!
0b!
0c!
0d!
0e!
0f!
0g!
0h!
0i!
0j!
0k!
0l!
0m!
0n!
0o!
0p!
0q!
0r!
0s!
0t!
0u!
0v!
0w!
0x!
0y!
0z!
0{!
0|!
0}!
0~!
0!"
0""
0#"
0$"
0%"
0&"
0'"
0("
0)"
1*"
1+"
0,"
0-"
0."
0/"
00"
01"
02"
03"
04"
05"
06"
17"
08"
09"
0:"
1;"
0<"
0="
0>"
0?"
1@"
0A"
0B"
0C"
0D"
0E"
0F"
0G"
0H"
0I"
0J"
0K"
0L"
0M"
1N"
0O"
1P"
0Q"
0R"
0S"
0T"
0U"
0V"
0W"
0X"
1Y"
0Z"
1["
0\"
0]"
0^"
1_"
0`"
1a"
0b"
0c"
0d"
0e"
1f"
0g"
0h"
0i"
0j"
0k"
0l"
0m"
0n"
0o"
0p"
0q"
0r"
0s"
0t"
0u"
0v"
0w"
0x"
0y"
1z"
0{"
0|"
01#
12#
03#
04#
0!
0"
0#
0$
0%
1&
1'
0(
0m
0n
0o
0p
0q
1r
1s
0t
0x
0y
0z
0{
0|
0}
0~
0!!
0"!
0#!
0$!
0%!
0&!
0'!
0(!
0)!
0*!
0+!
0,!
0-!
0.!
0/!
00!
01!
02!
03!
04!
05!
06!
07!
08!
09!
0:!
0;!
0<!
0=!
0>!
0?!
0@!
0A!
0B!
0C!
0D!
0E!
0}"
0~"
0!#
0"#
0##
0$#
0%#
0&#
0'#
0(#
0)#
0*#
0+#
0,#
0-#
0.#
0/#
00#
1N!
1O!
1P!
0Q!
1J!
1K!
1L!
1M!
1F!
1G!
1H!
0I!
0/
00
01
02
03
04
05
06
07
08
09
0:
0;
0<
0=
0>
0?
0@
0A
0B
0C
0D
0E
0F
0G
0H
0I
0J
0K
0L
0M
0N
0O
0P
0T
0U
0V
0W
0X
0Y
0Z
0[
0\
0]
$end
#10000
1)
1h
1&"
1Q!
1'"
#20000
0)
1!
1"
0h
1n
1m
1>"
1E"
0&"
0Q!
0'"
#30000
1)
1h
1&"
1Q!
1'"
#40000
0)
0h
0&"
0Q!
0'"
#50000
1)
0Q
1h
0i
0*"
1&"
0M!
1Q!
1'"
0+"
11#
#60000
0)
0h
0&"
0Q!
0'"
#70000
1)
1h
1&"
1Q!
1'"
#80000
0)
0h
0&"
0Q!
0'"
#90000
1)
1h
1&"
1Q!
1'"
#100000
0)
1S
0h
1k
1("
0&"
1I!
0Q!
1)"
1-"
1:"
1<"
0@"
0z"
14#
13#
1."
0'"
13"
02#
1|!
1$"
1%"
1}!
1{!
1i!
1>!
1D!
1E!
1?!
1#"
1=!
1+!
1]
1\
1W
1V
1C!
1U
1@
1[
#110000
1)
1h
1&"
1Q!
1'"
1,"
1/"
1+#
1*#
1-#
1.#
10"
1?"
1F"
1|"
0-"
0:"
1="
1z"
04#
0."
1U"
1T"
1S"
1R"
1e"
1i"
1U!
1m!
1n!
1h!
1y!
1~!
1k"
1g"
1c"
1u"
1s"
1q"
1u
1/!
10!
1*!
1;!
1@!
0|!
0$"
0%"
1""
1]!
1X!
1Y!
1Z!
1[!
1\!
1,
1E
1D
1?
1P
1X
0i!
1r"
1t"
1v"
1d"
1h"
1l"
0>!
0D!
0E!
1B!
1}
1x
1y
1z
1{
1|
0#"
0+!
0]
0\
1Z
0V
14
13
12
11
10
1/
0C!
0@
1u!
1t!
1s!
1r!
1q!
1p!
0[
17!
16!
15!
14!
13!
12!
1L
1K
1J
1I
1H
1G
#120000
0)
0h
0&"
0Q!
0'"
#130000
1)
1h
1&"
1Q!
1'"
0/"
11"
1##
1"#
1!#
1&#
1%#
1$#
1B"
1C"
1D"
1W"
1X"
1A"
1."
12"
14"
1y"
00"
0?"
1@"
0F"
1n"
0r"
0z"
0|"
14#
03#
0A"
0B"
0C"
1I"
0W"
0X"
1c!
1d!
1e!
1`!
1a!
1b!
1x!
0h!
0y!
0~!
0e"
0i"
1V"
0T"
0S"
0R"
1%!
1&!
1'!
1"!
1#!
1$!
1:!
0*!
0;!
0@!
0""
0]!
0X!
0Y!
0Z!
0[!
0\!
1W!
1#"
1<
1;
1:
19
18
17
0P
1O
0?
0X
0{!
1i!
0c"
0u"
0s"
1o"
0k"
0g"
0B!
0}
0x
0y
0z
0{
0|
1w
1C!
0=!
1+!
1[
0Z
04
03
02
01
00
0/
1.
0U
1@
0q!
0p!
1v!
0t!
0s!
0r!
03!
02!
18!
06!
05!
04!
1M
0K
0J
0I
0H
0G
#140000
0)
0h
0&"
0Q!
0'"
#150000
1)
0S
0!
0"
0&
0'
1h
0k
0n
0m
0s
0r
0;"
07"
0>"
0E"
0("
1&"
0I!
1Q!
1'"
03"
12#
1/"
01"
0+#
1)#
1(#
0&#
19"
1A"
1B"
1C"
1W"
1X"
0<"
0I"
0."
02"
04"
0y"
10"
0@"
0d"
0h"
0l"
0n"
1p"
1r"
0t"
0v"
1z"
04#
13#
0D"
1L"
0V"
1e"
1i"
1T"
1S"
1R"
0e!
1g!
1V!
1l!
0n!
0x!
1h!
1y!
1~!
1c"
1u"
1s"
1k"
1g"
0o"
1]"
0U"
0'!
1)!
1v
1.!
00!
0:!
1*!
1;!
1@!
0W!
0#"
1>
0<
1+
0E
1C
1P
0O
1?
1X
1{!
0i!
0q"
1m"
0p"
1h"
1l"
1t"
1v"
1d"
0w
0C!
1=!
0+!
0.
0[
1n"
0r"
1U
0@
0v!
1q!
1p!
1t!
1s!
1r!
08!
13!
12!
16!
15!
14!
1w!
0u!
0M
1K
1J
1I
1H
1G
19!
07!
1N
0L
#160000
0)
0h
0&"
0Q!
0'"
#170000
1)
1h
1&"
1Q!
1'"
0/"
11"
1."
12"
14"
1y"
00"
1@"
1p"
0t"
0z"
14#
03#
1D"
0L"
1x!
0h!
0y!
0~!
0]"
1U"
1:!
0*!
0;!
0@!
1W!
1#"
0P
1O
0?
0X
0{!
1i!
1q"
0m"
1w
1C!
0=!
1+!
1.
1[
0U
1@
0w!
1u!
09!
17!
0N
1L
#180000
0)
0h
0&"
0Q!
0'"
#190000
1)
1h
1&"
1Q!
1'"
1/"
01"
1~"
1}"
1,#
0*#
1'#
0%#
0="
0D"
1:"
1L"
0."
0y"
10"
0@"
1H"
1K"
0n"
0p"
1r"
1t"
1z"
1{"
04#
13#
1V"
0C"
1I"
1M"
0U"
0d!
1f!
0U!
0m!
1o!
0x!
1h!
1y!
1~!
0q"
0N"
0T"
1o"
0&!
1(!
0u
0/!
11!
0:!
1*!
1;!
1@!
1!"
1_!
1^!
0W!
0#"
1=
0;
0,
1F
0D
1P
0O
1?
1X
1{!
0i!
1p"
0s"
1U"
0r"
1A!
1!!
1~
0w
0C!
1=!
0+!
0[
1Y
16
15
0.
1q"
0t"
1U
0@
1v!
0u!
1r"
18!
07!
0t!
1M
0L
06!
1u!
0K
17!
1L
#200000
0)
0h
0&"
0Q!
0'"
#210000
1)
1h
1&"
1Q!
1'"
0/"
11"
0(#
1&#
1D"
0L"
1."
02"
1y"
00"
1@"
0H"
0K"
1n"
0p"
1t"
0v"
0z"
0{"
14#
03#
0V"
1C"
0D"
0I"
1L"
0M"
0U"
1O"
1e!
0g!
1x!
0h!
0y!
0~!
0q"
1]"
1N"
1U"
0O"
0P"
0o"
1'!
0)!
1:!
0*!
0;!
0@!
0!"
0_!
0^!
1W!
1#"
0>
1<
0P
1O
0?
0X
0{!
1i!
0S"
1Q"
1T"
1P"
1q"
0U"
1m"
0A!
0!!
0~
1w
1C!
0=!
1+!
1[
0Y
06
05
1.
0q"
1S"
0Q"
1s"
0R"
0Y"
0u"
0U
1@
0v!
0u!
0e"
1Z"
0c"
1R"
1Y"
1u"
08!
07!
1w!
1u!
0M
0L
1e"
0Z"
1c"
0i"
0["
0g"
19!
17!
0s!
1t!
0u!
1N
1L
1\"
0k"
1i"
1["
1g"
05!
16!
07!
1s!
0r!
0L
1K
0J
0\"
1k"
0m"
1^"
15!
04!
0q!
1r!
1J
0I
1o"
1m"
0^"
03!
14!
1q!
0p!
1I
0H
0o"
13!
02!
0w!
1p!
1H
0G
09!
12!
1w!
1v!
0N
1G
19!
18!
0v!
1N
1M
08!
0M
#220000
0)
0h
0&"
0Q!
0'"
#230000
1)
1h
1&"
1Q!
1'"
1/"
01"
0~"
1+#
0)#
1(#
0'#
1%#
0$#
09"
0A"
0B"
0C"
0W"
0X"
1<"
1I"
0."
0y"
10"
0@"
0r"
1v"
1z"
04#
13#
1A"
1C"
1D"
0I"
1W"
1X"
1V"
0e"
0i"
0T"
0S"
0R"
0c!
1d!
0f!
1g!
0V!
0l!
1n!
0x!
1h!
1y!
1~!
0c"
0u"
0s"
0k"
0g"
1o"
1e"
1i"
0V"
1U"
1T"
1R"
0%!
1&!
0(!
1)!
0v
0.!
10!
0:!
1*!
1;!
1@!
0W!
0#"
1>
0=
1;
0:
0+
1E
0C
1P
0O
1?
1X
1{!
0i!
1c"
1s"
1q"
0o"
1k"
1g"
1p"
0h"
0l"
0t"
0v"
0d"
0w
0C!
1=!
0+!
0.
0[
1h"
1l"
0p"
1r"
1t"
1d"
1U
0@
1v!
0q!
0p!
0t!
0s!
0r!
18!
03!
02!
06!
05!
04!
1q!
1p!
0v!
1u!
1t!
1r!
1M
0K
0J
0I
0H
0G
13!
12!
08!
17!
16!
14!
0M
1L
1K
1I
1H
1G
#240000
0)
0h
0&"
0Q!
0'"
#250000
1)
1h
1&"
1Q!
1'"
0/"
11"
15"
00"
1@"
0d"
1p"
0r"
1v"
0z"
14#
03#
0A"
0C"
0D"
1I"
0W"
0X"
0)"
1z"
1x!
0h!
0y!
0~!
04#
0e"
0i"
1V"
0U"
0T"
0R"
1:!
0*!
0;!
0@!
1S!
0P
1O
0?
0X
0{!
1i!
0c"
0s"
0q"
1o"
0k"
0g"
1g
0}!
0=!
1+!
1R
0i!
0?!
0U
1@
0+!
0W
0@
0q!
0p!
1v!
0u!
0t!
0r!
03!
02!
18!
07!
06!
04!
1M
0L
0K
0I
0H
0G
#260000
0)
0h
0&"
0Q!
0'"
#270000
1)
1h
1&"
1Q!
1'"
0,"
01"
05"
0x!
0:!
0S!
0O
0g
0R
#280000
0)
0h
0&"
0Q!
0'"
#290000
1)
1h
1&"
1Q!
1'"
#300000
0)
0h
0&"
0Q!
0'"
#310000
1)
1h
1&"
1Q!
1'"
#320000
0)
0h
0&"
0Q!
0'"
#330000
1)
1h
1&"
1Q!
1'"
#340000
0)
0h
0&"
0Q!
0'"
#350000
1)
1h
1&"
1Q!
1'"
#360000
0)
0h
0&"
0Q!
0'"
#370000
1)
1h
1&"
1Q!
1'"
#380000
0)
0h
0&"
0Q!
0'"
#390000
1)
1h
1&"
1Q!
1'"
#400000
0)
0h
0&"
0Q!
0'"
#410000
1)
1h
1&"
1Q!
1'"
#420000
0)
0h
0&"
0Q!
0'"
#430000
1)
1h
1&"
1Q!
1'"
#440000
0)
0h
0&"
0Q!
0'"
#450000
1)
1h
1&"
1Q!
1'"
#460000
0)
0h
0&"
0Q!
0'"
#470000
1)
1h
1&"
1Q!
1'"
#480000
0)
0h
0&"
0Q!
0'"
#490000
1)
1h
1&"
1Q!
1'"
#500000
0)
0h
0&"
0Q!
0'"
#510000
1)
1h
1&"
1Q!
1'"
#520000
0)
0h
0&"
0Q!
0'"
#530000
1)
1h
1&"
1Q!
1'"
#540000
0)
0h
0&"
0Q!
0'"
#550000
1)
1h
1&"
1Q!
1'"
#560000
0)
0h
0&"
0Q!
0'"
#570000
1)
1h
1&"
1Q!
1'"
#580000
0)
0h
0&"
0Q!
0'"
#590000
1)
1h
1&"
1Q!
1'"
#600000
0)
0h
0&"
0Q!
0'"
#610000
1)
1h
1&"
1Q!
1'"
#620000
0)
0*
0h
0j
0R!
0&"
0Q!
0'"
#630000
1)
1h
1&"
1Q!
1'"
#640000
0)
0h
0&"
0Q!
0'"
#650000
1)
1h
1&"
1Q!
1'"
#660000
0)
0h
0&"
0Q!
0'"
#670000
1)
1h
1&"
1Q!
1'"
#680000
0)
0h
0&"
0Q!
0'"
#690000
1)
1h
1&"
1Q!
1'"
#700000
0)
0h
0&"
0Q!
0'"
#710000
1)
1h
1&"
1Q!
1'"
#720000
0)
0h
0&"
0Q!
0'"
#730000
1)
1h
1&"
1Q!
1'"
#740000
0)
0h
0&"
0Q!
0'"
#750000
1)
1h
1&"
1Q!
1'"
#760000
0)
0h
0&"
0Q!
0'"
#770000
1)
1h
1&"
1Q!
1'"
#780000
0)
0h
0&"
0Q!
0'"
#790000
1)
1h
1&"
1Q!
1'"
#800000
0)
0h
0&"
0Q!
0'"
#810000
1)
1h
1&"
1Q!
1'"
#820000
0)
0h
0&"
0Q!
0'"
#830000
1)
1h
1&"
1Q!
1'"
#840000
0)
0h
0&"
0Q!
0'"
#850000
1)
1h
1&"
1Q!
1'"
#860000
0)
0h
0&"
0Q!
0'"
#870000
1)
1h
1&"
1Q!
1'"
#880000
0)
0h
0&"
0Q!
0'"
#890000
1)
1h
1&"
1Q!
1'"
#900000
0)
0h
0&"
0Q!
0'"
#910000
1)
1h
1&"
1Q!
1'"
#920000
0)
0h
0&"
0Q!
0'"
#930000
1)
1h
1&"
1Q!
1'"
#940000
0)
0h
0&"
0Q!
0'"
#950000
1)
1h
1&"
1Q!
1'"
#960000
0)
0h
0&"
0Q!
0'"
#970000
1)
1h
1&"
1Q!
1'"
#980000
0)
0h
0&"
0Q!
0'"
#990000
1)
1h
1&"
1Q!
1'"
