labs/3_2/lab1/simulation/qsim/lab1.msim.vcd
$comment
	File created using the following command:
		vcd file lab1.msim.vcd -direction
$end
$date
	Sun Mar 28 21:48:43 2021
$end
$version
	ModelSim Version 10.5b
$end
$timescale
	1ps
$end

$scope module lab13_vlg_vec_tst $end
$var reg 1 ! C $end
$var reg 1 " R $end
$var reg 1 # S $end
$var wire 1 $ Q1 $end
$var wire 1 % Q2 $end
$var wire 1 & Q3 $end
$var wire 1 ' Q4 $end
$var wire 1 ( Q5 $end
$var wire 1 ) Q6 $end

$scope module i1 $end
$var wire 1 * gnd $end
$var wire 1 + vcc $end
$var wire 1 , unknown $end
$var tri1 1 - devclrn $end
$var tri1 1 . devpor $end
$var tri1 1 / devoe $end
$var wire 1 0 Q6~output_o $end
$var wire 1 1 Q5~output_o $end
$var wire 1 2 Q4~output_o $end
$var wire 1 3 Q2~output_o $end
$var wire 1 4 Q1~output_o $end
$var wire 1 5 Q3~output_o $end
$var wire 1 6 R~input_o $end
$var wire 1 7 C~input_o $end
$var wire 1 8 inst|inst3|inst10~0_combout $end
$var wire 1 9 inst|inst4|inst3~1_combout $end
$var wire 1 : inst|inst4|inst5~combout $end
$var wire 1 ; inst|inst4|inst3~combout $end
$var wire 1 < inst|inst4|inst1~1_combout $end
$var wire 1 = S~input_o $end
$var wire 1 > inst|inst3|inst8~1_combout $end
$var wire 1 ? inst|inst3|inst8~2_combout $end
$var wire 1 @ inst|inst3|inst6~1_combout $end
$var wire 1 A inst|inst3|inst9~combout $end
$var wire 1 B inst|inst3|inst3~4_combout $end
$var wire 1 C inst|inst3|inst3~3_combout $end
$var wire 1 D inst|inst3|inst3~6_combout $end
$var wire 1 E inst|inst3|inst5~0_combout $end
$var wire 1 F inst|inst3|inst3~5_combout $end
$var wire 1 G inst|inst3|inst1~1_combout $end
$var wire 1 H inst|inst3|inst4~combout $end
$var wire 1 I inst39|inst3|inst2~combout $end
$var wire 1 J inst38|inst~0_combout $end
$var wire 1 K inst39|inst4|inst3~1_combout $end
$var wire 1 L inst39|inst4|inst4~combout $end
$var wire 1 M inst39|inst4|inst3~2_combout $end
$var wire 1 N inst39|inst4|inst1~1_combout $end
$var wire 1 O inst39|inst4|inst2~combout $end
$var wire 1 P inst39|inst4|inst5~combout $end
$var wire 1 Q inst39|inst3|inst8~2_combout $end
$var wire 1 R inst39|inst3|inst8~1_combout $end
$var wire 1 S inst39|inst3|inst8~3_combout $end
$var wire 1 T inst39|inst3|inst6~1_combout $end
$var wire 1 U inst39|inst3|inst10~0_combout $end
$var wire 1 V inst39|inst3|inst9~combout $end
$var wire 1 W inst39|inst3|inst3~1_combout $end
$var wire 1 X inst39|inst3|inst3~2_combout $end
$var wire 1 Y inst39|inst3|inst1~1_combout $end
$var wire 1 Z inst39|inst3|inst4~combout $end
$var wire 1 [ inst|inst4|inst4~combout $end
$upscope $end
$upscope $end
$enddefinitions $end
#0
$dumpvars
0!
1"
0#
x$
x%
x&
x'
x(
x)
0*
1+
x,
1-
1.
1/
x0
x1
x2
x3
x4
x5
16
07
x8
x9
x:
x;
x<
0=
x>
x?
x@
xA
xB
xC
xD
xE
xF
xG
xH
xI
xJ
xK
xL
xM
xN
xO
xP
xQ
xR
xS
xT
xU
xV
xW
xX
xY
xZ
x[
$end
#483
0N
#484
0Y
#486
0M
0P
#489
0X
#891
0T
#920
0U
#1159
0<
#1160
08
09
0@
#1163
0E
#1164
0G
#1416
0S
#1495
0F
#1504
0;
#1620
0?
#1720
1V
#1785
1H
#1803
1A
#1842
0D
#1914
0:
#2373
1Z
#2426
0C
#2439
1R
#2465
0B
#2473
0[
#2481
1W
#2667
1L
#2722
1K
#2757
1>
#2823
1J
#2985
0I
#2989
0O
#3016
1Q
#4944
01
0(
#5047
05
0&
#5538
04
0$
#5644
00
0)
#6280
03
0%
#7263
02
0'
#10000
1!
#10596
17
#20000
0"
0!
#20761
07
06
#21260
1X
#21698
1U
#24436
18
19
#24440
1E
#24753
1F
#24764
1;
#24859
1?
#30000
1!
#30596
17
#33980
1<
1@
#33981
1G
#34560
1:
#34567
0H
#34577
0A
#34591
1D
1[
#35336
0;
#35625
0J
#35779
1O
#36367
0U
#36531
1Y
#37689
14
1$
#37801
15
1&
#38377
0Z
#38742
0K
#39014
0Q
#39138
0X
#39159
13
1%
#40000
0!
#40761
07
#41646
10
1)
#44402
0@
#44403
0<
#44405
0G
#45086
0D
#50000
1!
#50596
17
#53980
1@
#53981
1G
#54011
09
#54765
0:
#55324
0[
#55616
0>
#55937
0?
#58389
04
0$
#60000
0!
#60761
07
#64402
0@
#64405
0G
#64436
19
#64764
1;
#70000
1!
#70596
17
#73980
1<
#73981
1G
#74011
08
#74472
1A
#74560
1:
#74591
1>
1D
1[
#75336
0;
#75374
0>
#77689
14
1$
#78949
03
0%
#80000
0!
#80761
07
#84403
0<
#84405
0G
#84436
18
#85086
0D
#90000
1!
#90596
17
#93981
1G
#94011
08
09
#94765
0:
#95324
0[
#95331
1C
#95608
1>
#95844
0F
#98389
04
0$
#100000
0!
#100761
07
#104405
0G
#104436
18
19
#104764
1;
#104859
1?
#110000
1!
#110596
17
#113980
1<
1@
#114010
0E
#114560
1:
#114577
0A
#114591
1D
1[
#114610
1H
#115251
0C
#115253
1B
#115336
0;
#115648
1J
#115814
0O
#116363
1U
#116413
1M
#116534
0Y
#116845
1S
#117689
14
1$
#117872
05
0&
#119159
13
1%
#120000
0!
#120761
07
#124402
0@
#124403
0<
#124440
1E
#125086
0D
#130000
1!
#130596
17
#133980
1@
#134010
0E
#134011
09
#134765
0:
#135324
0[
#135616
0>
#135937
0?
#138389
04
0$
#140000
0!
#140761
07
#144402
0@
#144436
19
#144440
1E
#144764
1;
#150000
1!
#150596
17
#153980
1<
#154010
0E
#154011
08
#154472
1A
#154560
1:
#154591
1>
1D
1[
#155336
0;
#155374
0>
#157689
14
1$
#158949
03
0%
#160000
0!
#160761
07
#164403
0<
#164436
18
#164440
1E
#165086
0D
#170000
1!
#170596
17
#174010
0E
#174011
08
09
#174765
0:
#175316
0B
#175324
0[
#175608
1>
#178389
04
0$
#180000
0!
#180761
07
#184436
18
19
#184440
1E
#184753
1F
#184764
1;
#184859
1?
#190000
1!
#190596
17
#193980
1<
1@
#193981
1G
#194560
1:
#194567
0H
#194577
0A
#194591
1D
1[
#195336
0;
#195625
0J
#195775
1I
#196097
1Z
#196357
1N
#196358
1T
#196446
1K
#196740
1Q
#196840
0V
#196987
0M
#197274
0S
#197589
0K
#197607
0Q
#197610
0R
#197651
0W
#197689
14
1$
#197801
15
1&
#198173
1M
#198473
0L
#198986
0M
1P
#199159
13
1%
#199235
1R
#199368
00
0)
#199797
1S
#200000
0!
#200042
11
1(
#200761
07
#203149
12
1'
#204402
0@
#204403
0<
#204405
0G
#205086
0D
#210000
1!
#210596
17
#213980
1@
#213981
1G
#214011
09
#214765
0:
#215324
0[
#215616
0>
#215937
0?
#218389
04
0$
#220000
0!
#220761
07
#224402
0@
#224405
0G
#224436
19
#224764
1;
#230000
1!
#230596
17
#233980
1<
#233981
1G
#234011
08
#234472
1A
#234560
1:
#234591
1>
1D
1[
#235336
0;
#235374
0>
#237689
14
1$
#238949
03
0%
#240000
0!
#240761
07
#244403
0<
#244405
0G
#244436
18
#245086
0D
#250000
1!
#250596
17
#253981
1G
#254011
08
09
#254765
0:
#255324
0[
#255331
1C
#255608
1>
#255844
0F
#258389
04
0$
#260000
0!
#260761
07
#264405
0G
#264436
18
19
#264764
1;
#264859
1?
#270000
1!
#270596
17
#273980
1<
1@
#274010
0E
#274560
1:
#274577
0A
#274591
1D
1[
#274610
1H
#275251
0C
#275253
1B
#275336
0;
#275648
1J
#275810
0I
#276346
0T
#276366
0N
#277689
14
1$
#277872
05
0&
#279159
13
1%
#280000
0!
#280761
07
#284402
0@
#284403
0<
#284440
1E
#285086
0D
#290000
1!
#290596
17
#293980
1@
#294010
0E
#294011
09
#294765
0:
#295324
0[
#295616
0>
#295937
0?
#298389
04
0$
#300000
0!
#300761
07
#304402
0@
#304436
19
#304440
1E
#304764
1;
#310000
1!
#310596
17
#313980
1<
#314010
0E
#314011
08
#314472
1A
#314560
1:
#314591
1>
1D
1[
#315336
0;
#315374
0>
#317689
14
1$
#318949
03
0%
#320000
0!
#320761
07
#324403
0<
#324436
18
#324440
1E
#325086
0D
#330000
1!
#330596
17
#334010
0E
#334011
08
09
#334765
0:
#335316
0B
#335324
0[
#335608
1>
#338389
04
0$
#340000
0!
#340761
07
#344436
18
19
#344440
1E
#344753
1F
#344764
1;
#344859
1?
#350000
1!
#350596
17
#353980
1<
1@
#353981
1G
#354560
1:
#354567
0H
#354577
0A
#354591
1D
1[
#355336
0;
#355625
0J
#355775
1I
#355779
1O
#356102
1L
#356358
1T
#356375
0P
#356832
0R
#357414
0S
#357689
14
1$
#357801
15
1&
#359159
13
1%
#360000
0!
#360698
02
0'
#360761
07
#364402
0@
#364403
0<
#364405
0G
#365086
0D
#370000
1!
#370596
17
#373980
1@
#373981
1G
#374011
09
#374765
0:
#375324
0[
#375616
0>
#375937
0?
#378389
04
0$
#380000
0!
#380761
07
#384402
0@
#384405
0G
#384436
19
#384764
1;
#390000
1!
#390596
17
#393980
1<
#393981
1G
#394011
08
#394472
1A
#394560
1:
#394591
1>
1D
1[
#395336
0;
#395374
0>
#397689
14
1$
#398949
03
0%
#400000
0!
#400761
07
#404403
0<
#404405
0G
#404436
18
#405086
0D
#410000
1!
#410596
17
#413981
1G
#414011
08
09
#414765
0:
#415324
0[
#415331
1C
#415608
1>
#415844
0F
#418389
04
0$
#420000
0!
#420761
07
#424405
0G
#424436
18
19
#424764
1;
#424859
1?
#430000
1!
#430596
17
#433980
1<
1@
#434010
0E
#434560
1:
#434577
0A
#434591
1D
1[
#434610
1H
#435251
0C
#435253
1B
#435336
0;
#435648
1J
#435810
0I
#435814
0O
#436346
0T
#436413
1M
#437689
14
1$
#437872
05
0&
#439159
13
1%
#440000
0!
#440761
07
#444402
0@
#444403
0<
#444440
1E
#445086
0D
#450000
1!
#450596
17
#453980
1@
#454010
0E
#454011
09
#454765
0:
#455324
0[
#455616
0>
#455937
0?
#458389
04
0$
#460000
0!
#460761
07
#464402
0@
#464436
19
#464440
1E
#464764
1;
#470000
1!
#470596
17
#473980
1<
#474010
0E
#474011
08
#474472
1A
#474560
1:
#474591
1>
1D
1[
#475336
0;
#475374
0>
#477689
14
1$
#478949
03
0%
#480000
0!
#480761
07
#484403
0<
#484436
18
#484440
1E
#485086
0D
#490000
1!
#490596
17
#494010
0E
#494011
08
09
#494765
0:
#495316
0B
#495324
0[
#495608
1>
#498389
04
0$
#500000
0!
#500761
07
#504436
18
19
#504440
1E
#504753
1F
#504764
1;
#504859
1?
#510000
1!
#510596
17
#513980
1<
1@
#513981
1G
#514560
1:
#514567
0H
#514577
0A
#514591
1D
1[
#515336
0;
#515625
0J
#515775
1I
#516357
1N
#516367
0U
#517167
1V
#517689
14
1$
#517801
15
1&
#517861
1K
#517883
1Q
#517886
1R
#517928
1W
#518402
0M
#518473
0L
#518986
1P
#519159
13
1%
#519443
0W
#520000
0!
#520391
01
0(
#520761
07
#523149
12
1'
#524402
0@
#524403
0<
#524405
0G
#525086
0D
#530000
1!
#530596
17
#533980
1@
#533981
1G
#534011
09
#534765
0:
#535324
0[
#535616
0>
#535937
0?
#538389
04
0$
#540000
0!
#540761
07
#544402
0@
#544405
0G
#544436
19
#544764
1;
#550000
1!
#550596
17
#553980
1<
#553981
1G
#554011
08
#554472
1A
#554560
1:
#554591
1>
1D
1[
#555336
0;
#555374
0>
#557689
14
1$
#558949
03
0%
#560000
0!
#560761
07
#564403
0<
#564405
0G
#564436
18
#565086
0D
#570000
1!
#570596
17
#573981
1G
#574011
08
09
#574765
0:
#575324
0[
#575331
1C
#575608
1>
#575844
0F
#578389
04
0$
#580000
0!
#580761
07
#584405
0G
#584436
18
19
#584764
1;
#584859
1?
#590000
1!
#590596
17
#593980
1<
1@
#594010
0E
#594560
1:
#594577
0A
#594591
1D
1[
#594610
1H
#595251
0C
#595253
1B
#595336
0;
#595648
1J
#595810
0I
#596363
1U
#596366
0N
#597689
14
1$
#597872
05
0&
#599159
13
1%
#600000
0!
#600761
07
#604402
0@
#604403
0<
#604440
1E
#605086
0D
#610000
1!
#610596
17
#613980
1@
#614010
0E
#614011
09
#614765
0:
#615324
0[
#615616
0>
#615937
0?
#618389
04
0$
#620000
0!
#620761
07
#624402
0@
#624436
19
#624440
1E
#624764
1;
#630000
1!
#630596
17
#633980
1<
#634010
0E
#634011
08
#634472
1A
#634560
1:
#634591
1>
1D
1[
#635336
0;
#635374
0>
#637689
14
1$
#638949
03
0%
#640000
0!
#640761
07
#644403
0<
#644436
18
#644440
1E
#645086
0D
#650000
1!
#650596
17
#654010
0E
#654011
08
09
#654765
0:
#655316
0B
#655324
0[
#655608
1>
#658389
04
0$
#660000
0!
#660761
07
#664436
18
19
#664440
1E
#664753
1F
#664764
1;
#664859
1?
#670000
1!
#670596
17
#673980
1<
1@
#673981
1G
#674560
1:
#674567
0H
#674577
0A
#674591
1D
1[
#675336
0;
#675625
0J
#675775
1I
#675779
1O
#676102
1L
#676367
0U
#676375
0P
#676859
1W
#677689
14
1$
#677801
15
1&
#679159
13
1%
#680000
0!
#680698
02
0'
#680761
07
#684402
0@
#684403
0<
#684405
0G
#685086
0D
#690000
1!
#690596
17
#693980
1@
#693981
1G
#694011
09
#694765
0:
#695324
0[
#695616
0>
#695937
0?
#698389
04
0$
#700000
0!
#700761
07
#704402
0@
#704405
0G
#704436
19
#704764
1;
#710000
1!
#710596
17
#713980
1<
#713981
1G
#714011
08
#714472
1A
#714560
1:
#714591
1>
1D
1[
#715336
0;
#715374
0>
#717689
14
1$
#718949
03
0%
#720000
0!
#720761
07
#724403
0<
#724405
0G
#724436
18
#725086
0D
#730000
1!
#730596
17
#733981
1G
#734011
08
09
#734765
0:
#735324
0[
#735331
1C
#735608
1>
#735844
0F
#738389
04
0$
#740000
0!
#740761
07
#744405
0G
#744436
18
19
#744764
1;
#744859
1?
#750000
1!
#750596
17
#753980
1<
1@
#754010
0E
#754560
1:
#754577
0A
#754591
1D
1[
#754610
1H
#755251
0C
#755253
1B
#755336
0;
#755648
1J
#755810
0I
#755814
0O
#756363
1U
#756440
1X
#757689
14
1$
#757872
05
0&
#759159
13
1%
#760000
0!
#760761
07
#764402
0@
#764403
0<
#764440
1E
#765086
0D
#770000
1!
#770596
17
#773980
1@
#774010
0E
#774011
09
#774765
0:
#775324
0[
#775616
0>
#775937
0?
#778389
04
0$
#780000
0!
#780761
07
#784402
0@
#784436
19
#784440
1E
#784764
1;
#790000
1!
#790596
17
#793980
1<
#794010
0E
#794011
08
#794472
1A
#794560
1:
#794591
1>
1D
1[
#795336
0;
#795374
0>
#797689
14
1$
#798949
03
0%
#800000
0!
#800761
07
#804403
0<
#804436
18
#804440
1E
#805086
0D
#810000
1!
#810596
17
#814010
0E
#814011
08
09
#814765
0:
#815316
0B
#815324
0[
#815608
1>
#818389
04
0$
#820000
0!
#820761
07
#824436
18
19
#824440
1E
#824753
1F
#824764
1;
#824859
1?
#830000
1!
#830596
17
#833980
1<
1@
#833981
1G
#834560
1:
#834567
0H
#834577
0A
#834591
1D
1[
#835336
0;
#835625
0J
#835779
1O
#836367
0U
#836531
1Y
#837689
14
1$
#837801
15
1&
#838377
0Z
#838742
0K
#839014
0Q
#839138
0X
#839159
13
1%
#840000
0!
#840761
07
#841646
10
1)
#844402
0@
#844403
0<
#844405
0G
#845086
0D
#850000
1!
#850596
17
#853980
1@
#853981
1G
#854011
09
#854765
0:
#855324
0[
#855616
0>
#855937
0?
#858389
04
0$
#860000
1#
1"
0!
#860596
16
1=
#860761
07
#861080
0Y
#861213
1K
#861217
1Q
#861372
1J
#861373
0O
#861391
0W
#861572
1>
#861756
08
0@
#861759
0E
#861760
0G
#861877
1?
#862091
0F
#862216
0?
#862381
1H
#862399
1A
#862739
0>
#862969
1Z
#863020
1B
#863308
0K
#863418
0J
#863564
1I
#863568
1O
#863602
0Q
#863603
0R
#865643
05
0&
#866240
00
0)
#866876
03
0%
#870000
1!
#870596
17
#880000
0"
0!
#880761
07
06
#884436
18
19
#884440
1E
#884764
1;
#890000
1!
#890596
17
#893980
1<
#894010
0E
#894011
08
#894560
1:
#894591
1>
1D
1[
#895336
0;
#897689
14
1$
#900000
0!
#900761
07
#904403
0<
#904436
18
#904440
1E
#904859
1?
#910000
1!
#910596
17
#913980
1@
#914010
0E
#914011
09
#914577
0A
#914765
0:
#914956
0>
#915239
1C
#915258
0B
#915277
0?
#915321
0D
#915324
0[
#915608
1>
#915913
1?
#918389
04
0$
#919159
13
1%
#920000
0!
#920761
07
#924402
0@
#924436
19
#924440
1E
#924764
1;
#930000
1!
#930596
17
#933980
1<
1@
#934010
0E
#934560
1:
#934591
1D
1[
#935336
0;
#935374
0>
#935695
0?
#937689
14
1$
#940000
0!
#940761
07
#944402
0@
#944403
0<
#944440
1E
#944753
1F
#950000
1!
#950596
17
#953981
1G
#954011
08
09
#954472
1A
#954567
0H
#954765
0:
#954822
1>
#955090
0C
#955321
0D
#955324
0[
#955616
0>
#955626
1J
#955792
0I
#955796
0O
#956341
1U
#956395
1M
#957801
15
1&
#958389
04
0$
#958949
03
0%
#960000
0!
#960761
07
#964405
0G
#964436
18
19
#964764
1;
#970000
1!
#970596
17
#973980
1<
#973981
1G
#974011
08
#974560
1:
#974591
1>
1D
1[
#975336
0;
#977689
14
1$
#980000
0!
#980761
07
#984403
0<
#984405
0G
#984436
18
#984859
1?
#990000
1!
#990596
17
#993980
1@
#993981
1G
#994011
09
#994577
0A
#994765
0:
#994956
0>
#995277
0?
#995321
0D
#995324
0[
#995608
1>
#995913
1?
#998389
04
0$
#999159
13
1%
#1000000
0!
#1000761
07
#1004402
0@
#1004405
0G
#1004436
19
#1004764
1;
#1010000
1!
#1010596
17
#1013980
1<
1@
#1013981
1G
#1014560
1:
#1014591
1D
1[
#1015089
1B
#1015336
0;
#1015374
0>
#1015602
0F
#1015695
0?
#1017689
14
1$
#1020000
0!
#1020761
07
#1024402
0@
#1024403
0<
#1024405
0G
#1030000
1!
#1030596
17
#1034010
0E
#1034011
08
09
#1034472
1A
#1034610
1H
#1034765
0:
#1034822
1>
#1035321
0D
#1035324
0[
#1035616
0>
#1035647
0J
#1035793
1I
#1036379
1N
#1036389
0U
#1037872
05
0&
#1038389
04
0$
#1038495
0L
#1038949
03
0%
#1039008
0M
1P
#1039257
1R
#1040000
0!
#1040761
07
#1043171
12
1'
#1044436
18
19
#1044440
1E
#1044764
1;
#1050000
1!
#1050596
17
#1053980
1<
#1054010
0E
#1054011
08
#1054560
1:
#1054591
1>
1D
1[
#1055336
0;
#1057689
14
1$
#1060000
0!
#1060761
07
#1064403
0<
#1064436
18
#1064440
1E
#1064859
1?
#1070000
1!
#1070596
17
#1073980
1@
#1074010
0E
#1074011
09
#1074577
0A
#1074765
0:
#1074956
0>
#1075239
1C
#1075258
0B
#1075277
0?
#1075321
0D
#1075324
0[
#1075608
1>
#1075913
1?
#1078389
04
0$
#1079159
13
1%
#1080000
0!
#1080761
07
#1084402
0@
#1084436
19
#1084440
1E
#1084764
1;
#1090000
1!
#1090596
17
#1093980
1<
1@
#1094010
0E
#1094560
1:
#1094591
1D
1[
#1095336
0;
#1095374
0>
#1095695
0?
#1097689
14
1$
#1100000
0!
#1100761
07
#1104402
0@
#1104403
0<
#1104440
1E
#1104753
1F
#1110000
1!
#1110596
17
#1113981
1G
#1114011
08
09
#1114472
1A
#1114567
0H
#1114765
0:
#1114822
1>
#1115090
0C
#1115321
0D
#1115324
0[
#1115616
0>
#1115626
1J
#1115792
0I
#1116341
1U
#1116344
0N
#1116823
1S
#1117801
15
1&
#1118389
04
0$
#1118949
03
0%
#1120000
0!
#1120761
07
#1124405
0G
#1124436
18
19
#1124764
1;
#1130000
1!
#1130596
17
#1133980
1<
#1133981
1G
#1134011
08
#1134560
1:
#1134591
1>
1D
1[
#1135336
0;
#1137689
14
1$
#1140000
0!
#1140761
07
#1144403
0<
#1144405
0G
#1144436
18
#1144859
1?
#1150000
1!
#1150596
17
#1153980
1@
#1153981
1G
#1154011
09
#1154577
0A
#1154765
0:
#1154956
0>
#1155277
0?
#1155321
0D
#1155324
0[
#1155608
1>
#1155913
1?
#1158389
04
0$
#1159159
13
1%
#1160000
0!
#1160761
07
#1164402
0@
#1164405
0G
#1164436
19
#1164764
1;
#1170000
1!
#1170596
17
#1173980
1<
1@
#1173981
1G
#1174560
1:
#1174591
1D
1[
#1175089
1B
#1175336
0;
#1175374
0>
#1175602
0F
#1175695
0?
#1177689
14
1$
#1180000
0!
#1180761
07
#1184402
0@
#1184403
0<
#1184405
0G
#1190000
1!
#1190596
17
#1194010
0E
#1194011
08
09
#1194472
1A
#1194610
1H
#1194765
0:
#1194822
1>
#1195321
0D
#1195324
0[
#1195616
0>
#1195647
0J
#1195793
1I
#1195797
1O
#1196120
1L
#1196380
1T
#1196393
0P
#1196850
0R
#1196862
0V
#1197432
0S
#1197628
1R
#1197872
05
0&
#1198190
1S
#1198389
04
0$
#1198949
03
0%
#1200000
0!
#1200064
11
1(
#1200716
02
0'
#1200761
07
#1204436
18
19
#1204440
1E
#1204764
1;
#1210000
1!
#1210596
17
#1213980
1<
#1214010
0E
#1214011
08
#1214560
1:
#1214591
1>
1D
1[
#1215336
0;
#1217689
14
1$
#1220000
0!
#1220761
07
#1224403
0<
#1224436
18
#1224440
1E
#1224859
1?
#1230000
1!
#1230596
17
#1233980
1@
#1234010
0E
#1234011
09
#1234577
0A
#1234765
0:
#1234956
0>
#1235239
1C
#1235258
0B
#1235277
0?
#1235321
0D
#1235324
0[
#1235608
1>
#1235913
1?
#1238389
04
0$
#1239159
13
1%
#1240000
0!
#1240761
07
#1244402
0@
#1244436
19
#1244440
1E
#1244764
1;
#1250000
1!
#1250596
17
#1253980
1<
1@
#1254010
0E
#1254560
1:
#1254591
1D
1[
#1255336
0;
#1255374
0>
#1255695
0?
#1257689
14
1$
#1260000
0!
#1260761
07
#1264402
0@
#1264403
0<
#1264440
1E
#1264753
1F
#1270000
1!
#1270596
17
#1273981
1G
#1274011
08
09
#1274472
1A
#1274567
0H
#1274765
0:
#1274822
1>
#1275090
0C
#1275321
0D
#1275324
0[
#1275616
0>
#1275626
1J
#1275792
0I
#1275796
0O
#1276324
0T
#1276395
1M
#1277801
15
1&
#1278389
04
0$
#1278949
03
0%
#1280000
0!
#1280761
07
#1284405
0G
#1284436
18
19
#1284764
1;
#1290000
1!
#1290596
17
#1293980
1<
#1293981
1G
#1294011
08
#1294560
1:
#1294591
1>
1D
1[
#1295336
0;
#1297689
14
1$
#1300000
0!
#1300761
07
#1304403
0<
#1304405
0G
#1304436
18
#1304859
1?
#1310000
1!
#1310596
17
#1313980
1@
#1313981
1G
#1314011
09
#1314577
0A
#1314765
0:
#1314956
0>
#1315277
0?
#1315321
0D
#1315324
0[
#1315608
1>
#1315913
1?
#1318389
04
0$
#1319159
13
1%
#1320000
0!
#1320761
07
#1324402
0@
#1324405
0G
#1324436
19
#1324764
1;
#1330000
1!
#1330596
17
#1333980
1<
1@
#1333981
1G
#1334560
1:
#1334591
1D
1[
#1335089
1B
#1335336
0;
#1335374
0>
#1335602
0F
#1335695
0?
#1337689
14
1$
#1340000
0!
#1340761
07
#1344402
0@
#1344403
0<
#1344405
0G
#1350000
1!
#1350596
17
#1354010
0E
#1354011
08
09
#1354472
1A
#1354610
1H
#1354765
0:
#1354822
1>
#1355321
0D
#1355324
0[
#1355616
0>
#1355647
0J
#1355793
1I
#1356379
1N
#1356380
1T
#1357872
05
0&
#1358389
04
0$
#1358495
0L
#1358949
03
0%
#1359006
1W
#1359008
0M
1P
#1359588
1Q
#1360000
0!
#1360122
0S
#1360761
07
#1363171
12
1'
#1364436
18
19
#1364440
1E
#1364764
1;
#1370000
1!
#1370596
17
#1373980
1<
#1374010
0E
#1374011
08
#1374560
1:
#1374591
1>
1D
1[
#1375336
0;
#1377689
14
1$
#1380000
0!
#1380761
07
#1384403
0<
#1384436
18
#1384440
1E
#1384859
1?
#1390000
1!
#1390596
17
#1393980
1@
#1394010
0E
#1394011
09
#1394577
0A
#1394765
0:
#1394956
0>
#1395239
1C
#1395258
0B
#1395277
0?
#1395321
0D
#1395324
0[
#1395608
1>
#1395913
1?
#1398389
04
0$
#1399159
13
1%
#1400000
0!
#1400761
07
#1404402
0@
#1404436
19
#1404440
1E
#1404764
1;
#1410000
1!
#1410596
17
#1413980
1<
1@
#1414010
0E
#1414560
1:
#1414591
1D
1[
#1415336
0;
#1415374
0>
#1415695
0?
#1417689
14
1$
#1420000
0!
#1420761
07
#1424402
0@
#1424403
0<
#1424440
1E
#1424753
1F
#1430000
1!
#1430596
17
#1433981
1G
#1434011
08
09
#1434472
1A
#1434567
0H
#1434765
0:
#1434822
1>
#1435090
0C
#1435321
0D
#1435324
0[
#1435616
0>
#1435626
1J
#1435792
0I
#1436324
0T
#1436344
0N
#1436422
1X
#1437801
15
1&
#1438389
04
0$
#1438949
03
0%
#1440000
0!
#1440761
07
#1444405
0G
#1444436
18
19
#1444764
1;
#1450000
1!
#1450596
17
#1453980
1<
#1453981
1G
#1454011
08
#1454560
1:
#1454591
1>
1D
1[
#1455336
0;
#1457689
14
1$
#1460000
0!
#1460761
07
#1464403
0<
#1464405
0G
#1464436
18
#1464859
1?
#1470000
1!
#1470596
17
#1473980
1@
#1473981
1G
#1474011
09
#1474577
0A
#1474765
0:
#1474956
0>
#1475277
0?
#1475321
0D
#1475324
0[
#1475608
1>
#1475913
1?
#1478389
04
0$
#1479159
13
1%
#1480000
0!
#1480761
07
#1484402
0@
#1484405
0G
#1484436
19
#1484764
1;
#1490000
1!
#1490596
17
#1493980
1<
1@
#1493981
1G
#1494560
1:
#1494591
1D
1[
#1495089
1B
#1495336
0;
#1495374
0>
#1495602
0F
#1495695
0?
#1497689
14
1$
#1500000
0!
#1500761
07
#1504402
0@
#1504403
0<
#1504405
0G
#1510000
1!
#1510596
17
#1514010
0E
#1514011
08
09
#1514472
1A
#1514610
1H
#1514765
0:
#1514822
1>
#1515321
0D
#1515324
0[
#1515616
0>
#1515647
0J
#1515797
1O
#1516120
1L
#1516389
0U
#1516393
0P
#1516553
1Y
#1516593
0W
#1517027
0Q
#1517044
0X
#1517189
1V
#1517872
05
0&
#1517912
0R
#1518389
04
0$
#1518399
0Z
#1518774
1K
#1518949
03
0%
#1519044
1R
#1519046
1Q
#1520000
0!
#1520413
01
0(
#1520716
02
0'
#1520761
07
#1521668
10
1)
#1524436
18
19
#1524440
1E
#1524764
1;
#1530000
1!
#1530596
17
#1533980
1<
#1534010
0E
#1534011
08
#1534560
1:
#1534591
1>
1D
1[
#1535336
0;
#1537689
14
1$
#1540000
0!
#1540761
07
#1544403
0<
#1544436
18
#1544440
1E
#1544859
1?
#1550000
1!
#1550596
17
#1553980
1@
#1554010
0E
#1554011
09
#1554577
0A
#1554765
0:
#1554956
0>
#1555239
1C
#1555258
0B
#1555277
0?
#1555321
0D
#1555324
0[
#1555608
1>
#1555913
1?
#1558389
04
0$
#1559159
13
1%
#1560000
0!
#1560761
07
#1564402
0@
#1564436
19
#1564440
1E
#1564764
1;
#1570000
1!
#1570596
17
#1573980
1<
1@
#1574010
0E
#1574560
1:
#1574591
1D
1[
#1575336
0;
#1575374
0>
#1575695
0?
#1577689
14
1$
#1580000
0!
#1580761
07
#1584402
0@
#1584403
0<
#1584440
1E
#1584753
1F
#1590000
1!
#1590596
17
#1593981
1G
#1594011
08
09
#1594472
1A
#1594567
0H
#1594765
0:
#1594822
1>
#1595090
0C
#1595321
0D
#1595324
0[
#1595616
0>
#1595626
1J
#1595796
0O
#1596341
1U
#1596512
0Y
#1597801
15
1&
#1598389
04
0$
#1598949
03
0%
#1600000
0!
#1600761
07
#1604405
0G
#1604436
18
19
#1604764
1;
#1610000
1!
#1610596
17
#1613980
1<
#1613981
1G
#1614011
08
#1614560
1:
#1614591
1>
1D
1[
#1615336
0;
#1617689
14
1$
#1620000
0!
#1620761
07
#1624403
0<
#1624405
0G
#1624436
18
#1624859
1?
#1630000
1!
#1630596
17
#1633980
1@
#1633981
1G
#1634011
09
#1634577
0A
#1634765
0:
#1634956
0>
#1635277
0?
#1635321
0D
#1635324
0[
#1635608
1>
#1635913
1?
#1638389
04
0$
#1639159
13
1%
#1640000
0!
#1640761
07
#1644402
0@
#1644405
0G
#1644436
19
#1644764
1;
#1650000
1!
#1650596
17
#1653980
1<
1@
#1653981
1G
#1654560
1:
#1654591
1D
1[
#1655089
1B
#1655336
0;
#1655374
0>
#1655602
0F
#1655695
0?
#1657689
14
1$
#1660000
0!
#1660761
07
#1664402
0@
#1664403
0<
#1664405
0G
#1670000
1!
#1670596
17
#1674010
0E
#1674011
08
09
#1674472
1A
#1674610
1H
#1674765
0:
#1674822
1>
#1675321
0D
#1675324
0[
#1675616
0>
#1675647
0J
#1675793
1I
#1675797
1O
#1676115
1Z
#1676385
0K
#1676389
0U
#1676748
0Q
#1676749
0R
#1677872
05
0&
#1678389
04
0$
#1678949
03
0%
#1679386
00
0)
#1680000
0#
0!
#1680761
07
0=
#1681373
1R
#1681376
1K
#1681379
1Q
#1681532
1J
#1681534
0O
#1681535
0I
#1681550
1W
#1681736
0B
#1681737
1>
#1682165
1X
#1682247
1U
#1684436
18
19
#1684440
1E
#1684753
1F
#1684764
1;
#1684859
1?
#1690000
1!
#1690596
17
#1693980
1<
1@
#1693981
1G
#1694560
1:
#1694567
0H
#1694577
0A
#1694591
1D
1[
#1695336
0;
#1695625
0J
#1695779
1O
#1696367
0U
