alu/simulation/qsim/course.msim.vcd
$comment
	File created using the following command:
		vcd file course.msim.vcd -direction
$end
$date
	Fri Jan 21 00:34:58 2022
$end
$version
	ModelSim Version 10.5b
$end
$timescale
	1ps
$end

$scope module alu_vhd_vec_tst $end
$var wire 1 ! a [3] $end
$var wire 1 " a [2] $end
$var wire 1 # a [1] $end
$var wire 1 $ a [0] $end
$var wire 1 % b [3] $end
$var wire 1 & b [2] $end
$var wire 1 ' b [1] $end
$var wire 1 ( b [0] $end
$var wire 1 ) clk $end
$var wire 1 * cop [1] $end
$var wire 1 + cop [0] $end
$var wire 1 , cx [3] $end
$var wire 1 - cx [2] $end
$var wire 1 . cx [1] $end
$var wire 1 / cx [0] $end
$var wire 1 0 next_state_out [1] $end
$var wire 1 1 next_state_out [0] $end
$var wire 1 2 priznak [1] $end
$var wire 1 3 priznak [0] $end
$var wire 1 4 rc [7] $end
$var wire 1 5 rc [6] $end
$var wire 1 6 rc [5] $end
$var wire 1 7 rc [4] $end
$var wire 1 8 rc [3] $end
$var wire 1 9 rc [2] $end
$var wire 1 : rc [1] $end
$var wire 1 ; rc [0] $end
$var wire 1 < s_out [1] $end
$var wire 1 = s_out [0] $end
$var wire 1 > set $end
$var wire 1 ? sko $end
$var wire 1 @ sno $end
$var wire 1 A x [4] $end
$var wire 1 B x [3] $end
$var wire 1 C x [2] $end
$var wire 1 D x [1] $end
$var wire 1 E x [0] $end
$var wire 1 F y [6] $end
$var wire 1 G y [5] $end
$var wire 1 H y [4] $end
$var wire 1 I y [3] $end
$var wire 1 J y [2] $end
$var wire 1 K y [1] $end
$var wire 1 L y [0] $end

$scope module i1 $end
$var wire 1 M gnd $end
$var wire 1 N vcc $end
$var wire 1 O unknown $end
$var wire 1 P devoe $end
$var wire 1 Q devclrn $end
$var wire 1 R devpor $end
$var wire 1 S ww_devoe $end
$var wire 1 T ww_devclrn $end
$var wire 1 U ww_devpor $end
$var wire 1 V ww_sko $end
$var wire 1 W ww_clk $end
$var wire 1 X ww_set $end
$var wire 1 Y ww_sno $end
$var wire 1 Z ww_cop [1] $end
$var wire 1 [ ww_cop [0] $end
$var wire 1 \ ww_a [3] $end
$var wire 1 ] ww_a [2] $end
$var wire 1 ^ ww_a [1] $end
$var wire 1 _ ww_a [0] $end
$var wire 1 ` ww_b [3] $end
$var wire 1 a ww_b [2] $end
$var wire 1 b ww_b [1] $end
$var wire 1 c ww_b [0] $end
$var wire 1 d ww_cx [3] $end
$var wire 1 e ww_cx [2] $end
$var wire 1 f ww_cx [1] $end
$var wire 1 g ww_cx [0] $end
$var wire 1 h ww_next_state_out [1] $end
$var wire 1 i ww_next_state_out [0] $end
$var wire 1 j ww_priznak [1] $end
$var wire 1 k ww_priznak [0] $end
$var wire 1 l ww_rc [7] $end
$var wire 1 m ww_rc [6] $end
$var wire 1 n ww_rc [5] $end
$var wire 1 o ww_rc [4] $end
$var wire 1 p ww_rc [3] $end
$var wire 1 q ww_rc [2] $end
$var wire 1 r ww_rc [1] $end
$var wire 1 s ww_rc [0] $end
$var wire 1 t ww_s_out [1] $end
$var wire 1 u ww_s_out [0] $end
$var wire 1 v ww_x [4] $end
$var wire 1 w ww_x [3] $end
$var wire 1 x ww_x [2] $end
$var wire 1 y ww_x [1] $end
$var wire 1 z ww_x [0] $end
$var wire 1 { ww_y [6] $end
$var wire 1 | ww_y [5] $end
$var wire 1 } ww_y [4] $end
$var wire 1 ~ ww_y [3] $end
$var wire 1 !! ww_y [2] $end
$var wire 1 "! ww_y [1] $end
$var wire 1 #! ww_y [0] $end
$var wire 1 $! \inst|Selector7~1clkctrl_INCLK_bus\ [3] $end
$var wire 1 %! \inst|Selector7~1clkctrl_INCLK_bus\ [2] $end
$var wire 1 &! \inst|Selector7~1clkctrl_INCLK_bus\ [1] $end
$var wire 1 '! \inst|Selector7~1clkctrl_INCLK_bus\ [0] $end
$var wire 1 (! \set~inputclkctrl_INCLK_bus\ [3] $end
$var wire 1 )! \set~inputclkctrl_INCLK_bus\ [2] $end
$var wire 1 *! \set~inputclkctrl_INCLK_bus\ [1] $end
$var wire 1 +! \set~inputclkctrl_INCLK_bus\ [0] $end
$var wire 1 ,! \clk~inputclkctrl_INCLK_bus\ [3] $end
$var wire 1 -! \clk~inputclkctrl_INCLK_bus\ [2] $end
$var wire 1 .! \clk~inputclkctrl_INCLK_bus\ [1] $end
$var wire 1 /! \clk~inputclkctrl_INCLK_bus\ [0] $end
$var wire 1 0! \sko~output_o\ $end
$var wire 1 1! \cx[3]~output_o\ $end
$var wire 1 2! \cx[2]~output_o\ $end
$var wire 1 3! \cx[1]~output_o\ $end
$var wire 1 4! \cx[0]~output_o\ $end
$var wire 1 5! \next_state_out[1]~output_o\ $end
$var wire 1 6! \next_state_out[0]~output_o\ $end
$var wire 1 7! \priznak[1]~output_o\ $end
$var wire 1 8! \priznak[0]~output_o\ $end
$var wire 1 9! \rc[7]~output_o\ $end
$var wire 1 :! \rc[6]~output_o\ $end
$var wire 1 ;! \rc[5]~output_o\ $end
$var wire 1 <! \rc[4]~output_o\ $end
$var wire 1 =! \rc[3]~output_o\ $end
$var wire 1 >! \rc[2]~output_o\ $end
$var wire 1 ?! \rc[1]~output_o\ $end
$var wire 1 @! \rc[0]~output_o\ $end
$var wire 1 A! \s_out[1]~output_o\ $end
$var wire 1 B! \s_out[0]~output_o\ $end
$var wire 1 C! \x[4]~output_o\ $end
$var wire 1 D! \x[3]~output_o\ $end
$var wire 1 E! \x[2]~output_o\ $end
$var wire 1 F! \x[1]~output_o\ $end
$var wire 1 G! \x[0]~output_o\ $end
$var wire 1 H! \y[6]~output_o\ $end
$var wire 1 I! \y[5]~output_o\ $end
$var wire 1 J! \y[4]~output_o\ $end
$var wire 1 K! \y[3]~output_o\ $end
$var wire 1 L! \y[2]~output_o\ $end
$var wire 1 M! \y[1]~output_o\ $end
$var wire 1 N! \y[0]~output_o\ $end
$var wire 1 O! \clk~input_o\ $end
$var wire 1 P! \clk~inputclkctrl_outclk\ $end
$var wire 1 Q! \cop[1]~input_o\ $end
$var wire 1 R! \inst1|i[0]~feeder_combout\ $end
$var wire 1 S! \inst1|i~0_combout\ $end
$var wire 1 T! \b[0]~input_o\ $end
$var wire 1 U! \inst1|rb~3_combout\ $end
$var wire 1 V! \b[1]~input_o\ $end
$var wire 1 W! \inst1|rb~2_combout\ $end
$var wire 1 X! \inst1|Mux2~0_combout\ $end
$var wire 1 Y! \b[3]~input_o\ $end
$var wire 1 Z! \inst1|rb~0_combout\ $end
$var wire 1 [! \b[2]~input_o\ $end
$var wire 1 \! \inst1|rb~1_combout\ $end
$var wire 1 ]! \inst1|Mux2~1_combout\ $end
$var wire 1 ^! \cop[0]~input_o\ $end
$var wire 1 _! \inst|Selector0~0_combout\ $end
$var wire 1 `! \inst1|Add6~0_combout\ $end
$var wire 1 a! \inst1|i~2_combout\ $end
$var wire 1 b! \inst1|Equal13~0_combout\ $end
$var wire 1 c! \inst|Selector0~1_combout\ $end
$var wire 1 d! \inst|next_state.s2~0_combout\ $end
$var wire 1 e! \inst|Selector8~0_combout\ $end
$var wire 1 f! \inst|Selector8~1_combout\ $end
$var wire 1 g! \inst|next_state.s3_338~combout\ $end
$var wire 1 h! \set~input_o\ $end
$var wire 1 i! \set~inputclkctrl_outclk\ $end
$var wire 1 j! \inst|state.s3~q\ $end
$var wire 1 k! \inst|Selector7~0_combout\ $end
$var wire 1 l! \inst|Selector7~1_combout\ $end
$var wire 1 m! \inst|Selector7~1clkctrl_outclk\ $end
$var wire 1 n! \inst|Selector2~0_combout\ $end
$var wire 1 o! \inst|Selector5~0_combout\ $end
$var wire 1 p! \inst|Selector11~0_combout\ $end
$var wire 1 q! \sno~input_o\ $end
$var wire 1 r! \inst|Selector11~1_combout\ $end
$var wire 1 s! \inst|next_state.s0_395~combout\ $end
$var wire 1 t! \inst|state.s0~0_combout\ $end
$var wire 1 u! \inst|state.s0~q\ $end
$var wire 1 v! \inst|Selector10~2_combout\ $end
$var wire 1 w! \inst1|Equal1~0_combout\ $end
$var wire 1 x! \inst|Selector4~0_combout\ $end
$var wire 1 y! \inst1|Equal3~0_combout\ $end
$var wire 1 z! \inst1|i~1_combout\ $end
$var wire 1 {! \inst1|Equal12~0_combout\ $end
$var wire 1 |! \inst|Selector10~0_combout\ $end
$var wire 1 }! \inst|Selector10~1_combout\ $end
$var wire 1 ~! \inst|next_state.s1_376~combout\ $end
$var wire 1 !" \inst|state.s1~q\ $end
$var wire 1 "" \inst|Selector9~0_combout\ $end
$var wire 1 #" \inst|next_state.s2_357~combout\ $end
$var wire 1 $" \inst|state.s2~q\ $end
$var wire 1 %" \inst|Selector6~0_combout\ $end
$var wire 1 &" \inst1|Equal0~0_combout\ $end
$var wire 1 '" \inst1|Equal0~1_combout\ $end
$var wire 1 (" \inst1|j~q\ $end
$var wire 1 )" \inst1|Equal10~0_combout\ $end
$var wire 1 *" \inst1|j~0_combout\ $end
$var wire 1 +" \inst1|Equal14~0_combout\ $end
$var wire 1 ," \inst1|x[4]~0_combout\ $end
$var wire 1 -" \inst|sko~combout\ $end
$var wire 1 ." \inst|next_state_out[1]~0_combout\ $end
$var wire 1 /" \inst|next_state_out[0]~1_combout\ $end
$var wire 1 0" \inst1|rc~28_combout\ $end
$var wire 1 1" \inst1|Equal4~0_combout\ $end
$var wire 1 2" \inst1|Equal1~1_combout\ $end
$var wire 1 3" \inst1|Equal2~0_combout\ $end
$var wire 1 4" \inst1|Equal2~1_combout\ $end
$var wire 1 5" \inst1|rc[6]~18_combout\ $end
$var wire 1 6" \inst1|rc[6]~17_combout\ $end
$var wire 1 7" \inst1|rc[6]~19_combout\ $end
$var wire 1 8" \a[3]~input_o\ $end
$var wire 1 9" \inst1|ra~2_combout\ $end
$var wire 1 :" \inst1|rc~26_combout\ $end
$var wire 1 ;" \a[2]~input_o\ $end
$var wire 1 <" \inst1|ra~0_combout\ $end
$var wire 1 =" \a[1]~input_o\ $end
$var wire 1 >" \inst1|ra~3_combout\ $end
$var wire 1 ?" \a[0]~input_o\ $end
$var wire 1 @" \inst1|ra~1_combout\ $end
$var wire 1 A" \inst1|priznak~6_combout\ $end
$var wire 1 B" \inst1|rc[6]~22_combout\ $end
$var wire 1 C" \inst1|rc[2]~36_combout\ $end
$var wire 1 D" \inst1|rc[2]~37_combout\ $end
$var wire 1 E" \inst1|Add2~8_combout\ $end
$var wire 1 F" \inst1|Add2~11\ $end
$var wire 1 G" \inst1|Add2~13\ $end
$var wire 1 H" \inst1|Add2~15\ $end
$var wire 1 I" \inst1|Add2~17\ $end
$var wire 1 J" \inst1|Add2~19\ $end
$var wire 1 K" \inst1|Add2~21\ $end
$var wire 1 L" \inst1|Add2~23\ $end
$var wire 1 M" \inst1|Add2~24_combout\ $end
$var wire 1 N" \inst1|Add4~0_combout\ $end
$var wire 1 O" \inst1|Add5~0_combout\ $end
$var wire 1 P" \inst1|Add0~0_combout\ $end
$var wire 1 Q" \inst1|Add1~0_combout\ $end
$var wire 1 R" \inst1|rc~52_combout\ $end
$var wire 1 S" \inst1|rc~53_combout\ $end
$var wire 1 T" \inst1|rc~54_combout\ $end
$var wire 1 U" \inst1|rc~55_combout\ $end
$var wire 1 V" \inst1|rc~59_combout\ $end
$var wire 1 W" \inst1|rc[2]~42_combout\ $end
$var wire 1 X" \inst1|Add2~9\ $end
$var wire 1 Y" \inst1|Add2~10_combout\ $end
$var wire 1 Z" \inst1|Add2~25\ $end
$var wire 1 [" \inst1|Add2~26_combout\ $end
$var wire 1 \" \inst1|Add4~1\ $end
$var wire 1 ]" \inst1|Add4~2_combout\ $end
$var wire 1 ^" \inst1|Add5~1\ $end
$var wire 1 _" \inst1|Add5~2_combout\ $end
$var wire 1 `" \inst1|Add0~1\ $end
$var wire 1 a" \inst1|Add0~2_combout\ $end
$var wire 1 b" \inst1|Add1~1\ $end
$var wire 1 c" \inst1|Add1~2_combout\ $end
$var wire 1 d" \inst1|rc~48_combout\ $end
$var wire 1 e" \inst1|rc~49_combout\ $end
$var wire 1 f" \inst1|rc~50_combout\ $end
$var wire 1 g" \inst1|rc~51_combout\ $end
$var wire 1 h" \inst1|rc~58_combout\ $end
$var wire 1 i" \inst1|Add0~3\ $end
$var wire 1 j" \inst1|Add0~4_combout\ $end
$var wire 1 k" \inst1|Add1~3\ $end
$var wire 1 l" \inst1|Add1~4_combout\ $end
$var wire 1 m" \inst1|Add2~12_combout\ $end
$var wire 1 n" \inst1|Add2~27\ $end
$var wire 1 o" \inst1|Add2~28_combout\ $end
$var wire 1 p" \inst1|Add4~3\ $end
$var wire 1 q" \inst1|Add4~4_combout\ $end
$var wire 1 r" \inst1|Add5~3\ $end
$var wire 1 s" \inst1|Add5~4_combout\ $end
$var wire 1 t" \inst1|rc~43_combout\ $end
$var wire 1 u" \inst1|Add2~22_combout\ $end
$var wire 1 v" \inst1|Add2~20_combout\ $end
$var wire 1 w" \inst1|Add2~18_combout\ $end
$var wire 1 x" \inst1|Add2~16_combout\ $end
$var wire 1 y" \inst1|Add2~14_combout\ $end
$var wire 1 z" \inst1|Add2~29\ $end
$var wire 1 {" \inst1|Add2~31\ $end
$var wire 1 |" \inst1|Add2~33\ $end
$var wire 1 }" \inst1|Add2~35\ $end
$var wire 1 ~" \inst1|Add2~37\ $end
$var wire 1 !# \inst1|Add2~39\ $end
$var wire 1 "# \inst1|Add2~40_combout\ $end
$var wire 1 ## \inst1|Add2~38_combout\ $end
$var wire 1 $# \inst1|Add2~36_combout\ $end
$var wire 1 %# \inst1|Add2~34_combout\ $end
$var wire 1 &# \inst1|Add2~32_combout\ $end
$var wire 1 '# \inst1|Add2~30_combout\ $end
$var wire 1 (# \inst1|Add4~5\ $end
$var wire 1 )# \inst1|Add4~7\ $end
$var wire 1 *# \inst1|Add4~9\ $end
$var wire 1 +# \inst1|Add4~11\ $end
$var wire 1 ,# \inst1|Add4~13\ $end
$var wire 1 -# \inst1|Add4~15\ $end
$var wire 1 .# \inst1|Add4~16_combout\ $end
$var wire 1 /# \inst1|rc~44_combout\ $end
$var wire 1 0# \inst1|rc~45_combout\ $end
$var wire 1 1# \inst1|rc~46_combout\ $end
$var wire 1 2# \inst1|rc~47_combout\ $end
$var wire 1 3# \inst1|rc~57_combout\ $end
$var wire 1 4# \inst1|Add0~5\ $end
$var wire 1 5# \inst1|Add0~6_combout\ $end
$var wire 1 6# \inst1|Add1~5\ $end
$var wire 1 7# \inst1|Add1~6_combout\ $end
$var wire 1 8# \inst1|Add4~6_combout\ $end
$var wire 1 9# \inst1|Add5~5\ $end
$var wire 1 :# \inst1|Add5~6_combout\ $end
$var wire 1 ;# \inst1|rc~38_combout\ $end
$var wire 1 <# \inst1|rc~39_combout\ $end
$var wire 1 =# \inst1|rc~40_combout\ $end
$var wire 1 ># \inst1|rc~41_combout\ $end
$var wire 1 ?# \inst1|rc~56_combout\ $end
$var wire 1 @# \inst1|Add0~7\ $end
$var wire 1 A# \inst1|Add0~9\ $end
$var wire 1 B# \inst1|Add0~11\ $end
$var wire 1 C# \inst1|Add0~13\ $end
$var wire 1 D# \inst1|Add0~15\ $end
$var wire 1 E# \inst1|Add0~16_combout\ $end
$var wire 1 F# \inst1|rc[6]~14_combout\ $end
$var wire 1 G# \inst1|Add0~10_combout\ $end
$var wire 1 H# \inst1|Add0~8_combout\ $end
$var wire 1 I# \inst1|Add1~7\ $end
$var wire 1 J# \inst1|Add1~9\ $end
$var wire 1 K# \inst1|Add1~10_combout\ $end
$var wire 1 L# \inst1|Add4~10_combout\ $end
$var wire 1 M# \inst1|rc~24_combout\ $end
$var wire 1 N# \inst1|Add4~8_combout\ $end
$var wire 1 O# \inst1|Add5~7\ $end
$var wire 1 P# \inst1|Add5~9\ $end
$var wire 1 Q# \inst1|Add5~10_combout\ $end
$var wire 1 R# \inst1|rc~25_combout\ $end
$var wire 1 S# \inst1|rc~27_combout\ $end
$var wire 1 T# \inst1|rc[6]~23_combout\ $end
$var wire 1 U# \inst1|rc~29_combout\ $end
$var wire 1 V# \inst1|Add1~8_combout\ $end
$var wire 1 W# \inst1|rc~31_combout\ $end
$var wire 1 X# \inst1|rc~32_combout\ $end
$var wire 1 Y# \inst1|Add5~8_combout\ $end
$var wire 1 Z# \inst1|rc~30_combout\ $end
$var wire 1 [# \inst1|rc~33_combout\ $end
$var wire 1 \# \inst1|rc~34_combout\ $end
$var wire 1 ]# \inst1|rc~35_combout\ $end
$var wire 1 ^# \inst1|MK~0_combout\ $end
$var wire 1 _# \inst1|MK~1_combout\ $end
$var wire 1 `# \inst1|MK~2_combout\ $end
$var wire 1 a# \inst1|priznak~4_combout\ $end
$var wire 1 b# \inst1|priznak~7_combout\ $end
$var wire 1 c# \inst1|priznak~8_combout\ $end
$var wire 1 d# \inst1|priznak~9_combout\ $end
$var wire 1 e# \inst1|Mux0~0_combout\ $end
$var wire 1 f# \inst1|Mux1~0_combout\ $end
$var wire 1 g# \inst1|priznak~0_combout\ $end
$var wire 1 h# \inst1|priznak~1_combout\ $end
$var wire 1 i# \inst1|rc~8_combout\ $end
$var wire 1 j# \inst1|Add0~14_combout\ $end
$var wire 1 k# \inst1|Add0~12_combout\ $end
$var wire 1 l# \inst1|Add1~11\ $end
$var wire 1 m# \inst1|Add1~13\ $end
$var wire 1 n# \inst1|Add1~14_combout\ $end
$var wire 1 o# \inst1|rc~9_combout\ $end
$var wire 1 p# \inst1|rc~10_combout\ $end
$var wire 1 q# \inst1|Add4~14_combout\ $end
$var wire 1 r# \inst1|Add4~12_combout\ $end
$var wire 1 s# \inst1|Add5~11\ $end
$var wire 1 t# \inst1|Add5~13\ $end
$var wire 1 u# \inst1|Add5~14_combout\ $end
$var wire 1 v# \inst1|rc~11_combout\ $end
$var wire 1 w# \inst1|rc~12_combout\ $end
$var wire 1 x# \inst1|rc~13_combout\ $end
$var wire 1 y# \inst1|rc~20_combout\ $end
$var wire 1 z# \inst1|Add1~12_combout\ $end
$var wire 1 {# \inst1|rc~15_combout\ $end
$var wire 1 |# \inst1|Add5~12_combout\ $end
$var wire 1 }# \inst1|rc~16_combout\ $end
$var wire 1 ~# \inst1|rc~21_combout\ $end
$var wire 1 !$ \inst1|priznak~2_combout\ $end
$var wire 1 "$ \inst1|priznak~3_combout\ $end
$var wire 1 #$ \inst1|priznak~5_combout\ $end
$var wire 1 $$ \inst|s_out[1]~2_combout\ $end
$var wire 1 %$ \inst|s_out[0]~3_combout\ $end
$var wire 1 &$ \inst|y\ [6] $end
$var wire 1 '$ \inst|y\ [5] $end
$var wire 1 ($ \inst|y\ [4] $end
$var wire 1 )$ \inst|y\ [3] $end
$var wire 1 *$ \inst|y\ [2] $end
$var wire 1 +$ \inst|y\ [1] $end
$var wire 1 ,$ \inst|y\ [0] $end
$var wire 1 -$ \inst1|x\ [4] $end
$var wire 1 .$ \inst1|x\ [3] $end
$var wire 1 /$ \inst1|x\ [2] $end
$var wire 1 0$ \inst1|x\ [1] $end
$var wire 1 1$ \inst1|x\ [0] $end
$var wire 1 2$ \inst1|priznak\ [1] $end
$var wire 1 3$ \inst1|priznak\ [0] $end
$var wire 1 4$ \inst1|rc\ [7] $end
$var wire 1 5$ \inst1|rc\ [6] $end
$var wire 1 6$ \inst1|rc\ [5] $end
$var wire 1 7$ \inst1|rc\ [4] $end
$var wire 1 8$ \inst1|rc\ [3] $end
$var wire 1 9$ \inst1|rc\ [2] $end
$var wire 1 :$ \inst1|rc\ [1] $end
$var wire 1 ;$ \inst1|rc\ [0] $end
$var wire 1 <$ \inst1|i\ [2] $end
$var wire 1 =$ \inst1|i\ [1] $end
$var wire 1 >$ \inst1|i\ [0] $end
$var wire 1 ?$ \inst1|ra\ [3] $end
$var wire 1 @$ \inst1|ra\ [2] $end
$var wire 1 A$ \inst1|ra\ [1] $end
$var wire 1 B$ \inst1|ra\ [0] $end
$var wire 1 C$ \inst1|rb\ [3] $end
$var wire 1 D$ \inst1|rb\ [2] $end
$var wire 1 E$ \inst1|rb\ [1] $end
$var wire 1 F$ \inst1|rb\ [0] $end
$var wire 1 G$ \ALT_INV_set~inputclkctrl_outclk\ $end
$var wire 1 H$ \inst|ALT_INV_s_out[0]~3_combout\ $end
$var wire 1 I$ \inst|ALT_INV_s_out[1]~2_combout\ $end
$var wire 1 J$ \inst|ALT_INV_next_state_out[1]~0_combout\ $end
$upscope $end
$upscope $end
$enddefinitions $end
#0
$dumpvars
0)
1>
0?
1@
0M
1N
xO
1P
1Q
1R
1S
1T
1U
0V
0W
1X
1Y
00!
01!
02!
03!
04!
05!
16!
07!
08!
09!
0:!
0;!
0<!
0=!
0>!
0?!
0@!
0A!
0B!
0C!
0D!
1E!
0F!
0G!
0H!
0I!
0J!
0K!
0L!
0M!
1N!
0O!
0P!
0Q!
0R!
0S!
0T!
0U!
0V!
0W!
0X!
0Y!
0Z!
1[!
1\!
0]!
1^!
0_!
1`!
0a!
0b!
0c!
0d!
0e!
0f!
0g!
1h!
1i!
0j!
1k!
1l!
1m!
0n!
0o!
0p!
1q!
0r!
0s!
1t!
0u!
1v!
0w!
0x!
0y!
0z!
0{!
0|!
1}!
1~!
0!"
0""
0#"
0$"
0%"
1&"
1'"
0("
0)"
0*"
0+"
0,"
0-"
1."
1/"
10"
01"
02"
03"
04"
05"
06"
07"
08"
09"
0:"
1;"
1<"
0="
0>"
1?"
1@"
0A"
1B"
0C"
0D"
1E"
1F"
0G"
1H"
0I"
1J"
0K"
1L"
1M"
0N"
1O"
0P"
1Q"
0R"
0S"
0T"
0U"
0V"
1W"
0X"
1Y"
0Z"
1["
1\"
0]"
0^"
0_"
0`"
0a"
0b"
0c"
0d"
0e"
0f"
0g"
0h"
1i"
0j"
1k"
0l"
1m"
1n"
1o"
0p"
1q"
1r"
1s"
0t"
1u"
1v"
0w"
1x"
0y"
0z"
1{"
0|"
1}"
0~"
1!#
0"#
1##
1$#
0%#
1&#
0'#
1(#
1)#
0*#
1+#
0,#
1-#
0.#
0/#
00#
01#
02#
03#
04#
15#
06#
17#
18#
09#
1:#
1;#
1<#
1=#
1>#
0?#
1@#
0A#
1B#
0C#
1D#
0E#
0F#
1G#
0H#
1I#
0J#
1K#
0L#
1M#
1N#
1O#
0P#
0Q#
1R#
0S#
1T#
0U#
0V#
0W#
0X#
1Y#
0Z#
0[#
0\#
0]#
0^#
0_#
1`#
0a#
1b#
0c#
0d#
0e#
1f#
0g#
0h#
0i#
0j#
0k#
1l#
0m#
0n#
0o#
0p#
1q#
1r#
1s#
0t#
1u#
0v#
0w#
0x#
0y#
0z#
0{#
1|#
0}#
0~#
1!$
0"$
0#$
1$$
1%$
0G$
0H$
0I$
0J$
0!
1"
0#
1$
0%
1&
0'
0(
0*
1+
0Z
1[
0\
1]
0^
1_
0`
1a
0b
0c
0d
0e
0f
0g
0h
1i
0j
0k
0l
0m
0n
0o
0p
0q
0r
0s
0t
0u
0v
0w
1x
0y
0z
0{
0|
0}
0~
0!!
0"!
1#!
0&$
0'$
0($
0)$
0*$
0+$
1,$
0-$
0.$
x/$
00$
01$
02$
03$
04$
05$
06$
07$
08$
09$
0:$
0;$
0<$
0=$
0>$
0?$
0@$
0A$
0B$
0C$
0D$
0E$
0F$
1,!
1-!
1.!
0/!
1(!
1)!
1*!
1+!
1$!
1%!
1&!
1'!
0,
0-
0.
0/
00
11
02
03
04
05
06
07
08
09
0:
0;
0<
0=
0A
0B
1C
0D
0E
0F
0G
0H
0I
0J
0K
1L
$end
#20000
1)
1W
1O!
1/!
1P!
1D$
1@$
1B$
#40000
0)
0W
0O!
0/!
0P!
#50000
0>
0X
0h!
0+!
0i!
1G$
#60000
1)
1W
1O!
1/!
1!"
1""
1P!
1#"
1u!
0v!
0}!
0%$
1H$
0~!
0,$
1w!
0'"
0."
0/"
1J$
1B!
0W"
0T#
0N!
1u
0#!
1=
06!
0L
15!
0i
1h
01
10
#80000
0)
0W
0O!
0/!
0P!
#100000
1)
1W
1O!
1/!
0!"
1$"
1|!
1%$
0""
0$$
1P!
1I$
0H$
0#"
1)$
1}!
1~!
1y!
0&"
1/"
0B!
1A!
1S!
16"
0B"
1D"
1."
1K!
0J$
0u
1t
0=#
1W"
1?#
1T#
17"
1:"
1y#
1R!
1~
0=
1<
16!
1I
0>#
1i
11
05!
0?#
0h
00
#120000
0)
0W
0O!
0/!
0P!
#140000
1)
1W
1O!
1/!
1!"
0$"
0|!
0%$
1""
1$$
1P!
0I$
1H$
1#"
0)$
0}!
1>$
0~!
0y!
1&"
0S!
1z!
1B!
0A!
1S!
0z!
06"
1B"
0D"
0."
0/"
0K!
1]!
0R!
1J$
1u
0t
1=#
0W"
0T#
07"
0:"
0y#
0]!
1R!
0~
1=
0<
0I
1>#
06!
15!
0i
1h
01
10
#160000
0)
0W
0O!
0/!
0P!
#180000
1)
1W
1O!
1/!
0!"
1$"
1|!
1%$
0""
0$$
1P!
1I$
0H$
0#"
1)$
1}!
1~!
1y!
0&"
1/"
0B!
1A!
0S!
1z!
16"
0B"
1D"
1."
1K!
0J$
0u
1t
0=#
1W"
1?#
1T#
17"
1:"
1y#
1]!
0R!
1~
0=
1<
16!
1I
0>#
1i
11
05!
0?#
0h
00
#200000
0)
0W
0O!
0/!
0P!
#220000
1)
1W
1O!
1/!
1!"
0$"
0|!
0%$
1""
1$$
1P!
0I$
1H$
1#"
0)$
0}!
0>$
10$
1=$
0~!
0y!
1&"
1_!
1S!
1B!
0A!
0S!
06"
1B"
0D"
0."
0/"
0K!
1R!
1X!
1b!
1c!
1J$
1u
0t
1F!
1=#
0W"
0T#
07"
0:"
0y#
0R!
0X!
0b!
0~
1=
0<
1+$
0]!
1y
0I
1]!
1>#
1D
06!
0&"
12"
15!
0i
17"
0B"
1h
01
1M!
10
1W"
1?#
1T#
1S#
1"!
1K
#240000
0)
0W
0O!
0/!
0P!
#260000
1)
1W
1O!
1/!
0!"
1$"
1|!
1%$
0c!
0""
0$$
1P!
1I$
0H$
0#"
0+$
1)$
1}!
18$
16$
1~!
1y!
02"
1/"
1w"
0G#
0B#
1_#
1y"
05#
0@#
0`#
0B!
1A!
07"
1S!
16"
1D"
1U#
1."
1K!
0M!
1H#
07#
0;#
1'#
1k#
0K#
0M#
1%#
0J$
0u
1t
1;!
1=!
1\#
12#
0=#
17"
1:"
1y#
1R!
1X!
1b!
0S#
1~
0"!
0=
1<
16!
1L#
0R#
1z#
1{#
08#
0)#
0<#
1V#
1W#
1n
1p
0K
1I
0]!
0>#
13#
1]#
1i
18
16
0N#
1*#
0:#
1}#
1Q#
11
05!
0?#
0L#
0+#
0Y#
0h
00
0r#
1,#
0Q#
0q#
0-#
0|#
1.#
0u#
#280000
0)
0W
0O!
0/!
0P!
#300000
1)
1W
1O!
1/!
1!"
0$"
0|!
0%$
1c!
1""
1$$
1P!
0I$
1H$
1#"
1+$
0)$
0}!
1>$
00$
1.$
19$
08$
06$
17$
0~!
0y!
12"
0x"
1I"
1=#
0H#
1A#
1X#
0w"
1G#
1B#
0U#
0y"
02#
15#
1@#
0m"
1G"
1f"
1j"
0c!
1d!
1n!
1-"
0_!
0S!
0`!
0z!
1B!
0A!
1S!
1z!
06"
0D"
0."
0/"
0K!
1M!
1]!
0R!
0X!
0b!
0n!
1*$
1f!
0""
0+$
1l"
1t"
1g"
1y"
0o"
1H#
0A#
17#
1;#
03#
0'#
0\#
0k#
1K#
1M#
0%#
1[#
0G#
0B#
0V#
0W#
1>#
1w"
0&#
1J$
1u
0t
1<!
0;!
0=!
1>!
1D!
0F!
0f"
0=#
0:"
0y#
0]!
1R!
1X!
1b!
0~
1"!
1=
0<
1N#
0*#
1%#
1?#
0X#
1k#
0K#
0M#
1\#
1L#
1+#
1R#
0z#
0{#
0]#
18#
1)#
1<#
1G#
1B#
1V#
1W#
0q"
1'#
1h"
1/#
02"
0#"
1g!
0w!
13"
0*$
1]!
1o
0n
0p
1q
1w
0y
1K
0I
10!
0]!
1~#
0>#
0g"
19
08
17
06
0D
1B
06!
1w!
1&"
03"
14"
1/"
07"
1B"
10#
08#
0)#
0s"
1X#
0k#
1K#
1=#
0N#
1:#
0}#
1S#
1r#
0,#
1M#
1Q#
1]#
0R#
1z#
1{#
0[#
1Y#
1V
15!
0M!
1L!
0h"
0?#
0i
1?
0\#
1}#
1q#
1-#
1|#
0Y#
1>#
1R#
0z#
1N#
0:#
11#
0W"
0T#
0S#
0~#
17"
0B"
0;#
1F#
1Z#
04"
1h
0"!
1!!
01
0L!
10
0K
1J
07"
1B"
0F#
1[#
1R"
00#
0M#
0{#
1W"
1T#
12#
1Y#
1S#
1?#
0Z#
0.#
1u#
1~#
0]#
0!!
16!
0J
01#
1S"
1\#
0R"
10#
1;#
0<#
1M#
0R#
0}#
0W"
0?#
0T#
0S#
0~#
1i
11
1R#
0=#
1<#
11#
0S"
1]#
1T"
02#
1U"
0T"
12#
1=#
0>#
1>#
0U"
#320000
0)
0W
0O!
0/!
0P!
#340000
1)
1W
1O!
1/!
1j!
0!"
0f!
0$$
1o!
1p!
1P!
1I$
1r!
1'$
0g!
0w!
1+"
1s!
1A!
0t!
1."
0/"
1a#
0!$
1I!
0J$
1t
1d#
1|
1<
1G
06!
05!
0i
0h
01
00
#360000
0)
0W
0O!
0/!
0P!
