labs/lab1_2/simulation/qsim/lab1_2.msim.vcd
$comment
	File created using the following command:
		vcd file lab1_2.msim.vcd -direction
$end
$date
	Thu Oct 01 00:12:52 2020
$end
$version
	ModelSim Version 10.5b
$end
$timescale
	1ps
$end

$scope module lab1_2_vhd_vec_tst $end
$var wire 1 ! f2 $end
$var wire 1 " f3 $end
$var wire 1 # X1 $end
$var wire 1 $ X2 $end
$var wire 1 % X3 $end
$var wire 1 & X4 $end

$scope module i1 $end
$var wire 1 ' gnd $end
$var wire 1 ( vcc $end
$var wire 1 ) unknown $end
$var wire 1 * devoe $end
$var wire 1 + devclrn $end
$var wire 1 , devpor $end
$var wire 1 - ww_devoe $end
$var wire 1 . ww_devclrn $end
$var wire 1 / ww_devpor $end
$var wire 1 0 ww_f2 $end
$var wire 1 1 ww_X1 $end
$var wire 1 2 ww_X2 $end
$var wire 1 3 ww_X3 $end
$var wire 1 4 ww_X4 $end
$var wire 1 5 ww_f3 $end
$var wire 1 6 \f2~output_o\ $end
$var wire 1 7 \f3~output_o\ $end
$var wire 1 8 \X3~input_o\ $end
$var wire 1 9 \X2~input_o\ $end
$var wire 1 : \X1~input_o\ $end
$var wire 1 ; \X4~input_o\ $end
$var wire 1 < \inst18|inst~0_combout\ $end
$var wire 1 = \inst3|inst~0_combout\ $end
$var wire 1 > \inst18|ALT_INV_inst~0_combout\ $end
$upscope $end
$upscope $end
$enddefinitions $end
#0
$dumpvars
0!
0"
0#
0$
0%
0&
0'
1(
x)
1*
1+
1,
1-
1.
1/
00
01
02
03
04
05
06
07
x8
x9
x:
x;
x<
x=
x>
$end
#759
0:
0;
#761
08
09
#3026
x6
x0
x!
#4265
1=
#4627
0<
1>
#4639
x7
x5
x"
#7650
16
10
1!
#8904
17
15
1"
#10000
1#
11
#10594
1:
#13823
0=
#13824
1<
0>
#16867
06
00
0!
#18527
07
05
0"
#20000
0#
1$
01
12
#20596
19
#20759
0:
#23693
0<
1>
#23694
1=
#24265
1<
0>
#26716
16
10
1!
#27308
06
00
0!
#28333
17
15
1"
#30000
1#
11
#30594
1:
#33823
0<
1>
#36846
16
10
1!
#40000
0#
0$
1%
01
02
13
#40596
18
#40759
0:
#40761
09
#44102
0=
#44104
1<
0>
#44208
1=
#47147
06
00
0!
#48806
07
05
0"
#48847
17
15
1"
#50000
1#
11
#50594
1:
#60000
0#
1$
01
12
#60596
19
#60759
0:
#63693
0<
1>
#64264
0=
#66716
16
10
1!
#68968
07
05
0"
#70000
1#
11
#70594
1:
#73824
1=
#78463
17
15
1"
#80000
0#
0$
0%
1&
01
02
03
14
#80594
1;
#80759
0:
#80761
08
09
#90000
1#
11
#90594
1:
#93823
0=
#93824
1<
0>
#96867
06
00
0!
#98527
07
05
0"
#100000
0#
1$
01
12
#100596
19
#100759
0:
#103693
0<
1>
#103694
1=
#104264
0=
#104265
1<
0>
#106716
16
10
1!
#107308
06
00
0!
#108333
17
15
1"
#108968
07
05
0"
#110000
1#
11
#110594
1:
#113823
0<
1>
#113824
1=
#116846
16
10
1!
#118463
17
15
1"
#120000
0#
0$
1%
01
02
13
#120596
18
#120759
0:
#120761
09
#124102
0=
#124104
1<
0>
#124208
1=
#124213
0<
1>
#127147
06
00
0!
#127236
16
10
1!
#128806
07
05
0"
#128847
17
15
1"
#130000
1#
11
#130594
1:
#140000
0#
1$
01
12
#140596
19
#140759
0:
#150000
1#
11
#150594
1:
#160000
0#
0$
0%
0&
01
02
03
04
#160759
0;
0:
#160761
08
09
#164089
1<
0>
#164627
0<
1>
#167132
06
00
0!
#167650
16
10
1!
