labs/lab4/simulation/qsim/lab4.msim.vcd
$comment
	File created using the following command:
		vcd file lab4.msim.vcd -direction
$end
$date
	Sat Dec 19 22:41:31 2020
$end
$version
	ModelSim Version 10.5b
$end
$timescale
	1ps
$end

$scope module lab4_vlg_vec_tst $end
$var reg 1 ! b1 $end
$var reg 1 " b2 $end
$var reg 1 # b3 $end
$var reg 1 $ C $end
$var reg 1 % Dp $end
$var reg 1 & y1 $end
$var reg 1 ' y2 $end
$var wire 1 ( q1 $end
$var wire 1 ) q2 $end
$var wire 1 * q3 $end

$scope module i1 $end
$var wire 1 + gnd $end
$var wire 1 , vcc $end
$var wire 1 - unknown $end
$var tri1 1 . devclrn $end
$var tri1 1 / devpor $end
$var tri1 1 0 devoe $end
$var wire 1 1 q1~output_o $end
$var wire 1 2 q2~output_o $end
$var wire 1 3 q3~output_o $end
$var wire 1 4 C~input_o $end
$var wire 1 5 b1~input_o $end
$var wire 1 6 y1~input_o $end
$var wire 1 7 y2~input_o $end
$var wire 1 8 inst4|inst3~2_combout $end
$var wire 1 9 b2~input_o $end
$var wire 1 : b3~input_o $end
$var wire 1 ; Dp~input_o $end
$var wire 1 < inst3|inst3~1_combout $end
$var wire 1 = inst3|inst3~2_combout $end
$var wire 1 > C~inputclkctrl_outclk $end
$var wire 1 ? inst3|inst3~3_combout $end
$var wire 1 @ inst3|inst1~1_combout $end
$var wire 1 A inst3|inst4~combout $end
$var wire 1 B inst3|inst8~1_combout $end
$var wire 1 C inst3|inst8~2_combout $end
$var wire 1 D inst3|inst8~3_combout $end
$var wire 1 E inst3|inst6~1_combout $end
$var wire 1 F inst3|inst9~combout $end
$var wire 1 G inst4|inst3~1_combout $end
$var wire 1 H inst4|inst3~3_combout $end
$var wire 1 I inst4|inst3~4_combout $end
$var wire 1 J inst4|inst1~1_combout $end
$var wire 1 K inst4|inst4~combout $end
$upscope $end
$upscope $end
$enddefinitions $end
#0
$dumpvars
0!
0"
0#
0$
0%
0&
0'
x(
x)
x*
0+
1,
x-
1.
1/
10
x1
x2
x3
04
05
06
07
x8
09
0:
0;
x<
x=
x>
x?
x@
xA
xB
xC
xD
xE
xF
xG
xH
xI
xJ
xK
$end
#158
0>
#771
0J
#788
0@
#790
0E
#3230
0<
#3404
08
#4137
0=
#5184
0?
#10000
1$
#10596
14
#10776
1>
#11099
1A
#11356
xE
#11359
xJ
#11712
0B
#12296
0C
#13079
0D
#14501
03
0*
#20000
0$
#20761
04
#20919
0>
#21532
0J
#21551
0E
#40000
1$
#40596
14
#40776
1>
#41102
1F
#41359
xJ
#41703
0G
#42285
0H
#43043
0I
#45078
02
0)
#50000
0$
#50761
04
#50919
0>
#51532
0J
#70000
1$
#70596
14
#70776
1>
#71150
1K
#76339
01
0(
#80000
0$
#80761
04
#80919
0>
#100000
1$
#100596
14
#100776
1>
#110000
0$
#110761
04
#110919
0>
#120000
1%
#120596
1;
#123577
1<
#124135
1=
#125162
1?
#130000
1$
#130596
14
#130776
1>
#131358
1@
#131956
0A
#132591
1B
#133147
1C
#135346
13
1*
#140000
0$
#140761
04
#140919
0>
#141549
0@
#142210
1D
#160000
1$
#160596
14
#160776
1>
#161356
1E
#161358
1@
#162136
0F
#162762
1G
#163318
1H
#166054
12
1)
#170000
0$
#170761
04
#170919
0>
#171549
0@
#171551
0E
#172208
1I
#190000
1$
#190596
14
#190776
1>
#191356
1E
#191358
1@
#191359
1J
#191961
0K
#197184
11
1(
#200000
0$
#200761
04
#200919
0>
#201532
0J
#201549
0@
#201551
0E
#220000
1$
#220596
14
#220776
1>
#221356
1E
#221358
1@
#221359
1J
#230000
0$
#230761
04
#230919
0>
#231532
0J
#231549
0@
#231551
0E
#240000
1&
0%
#240596
16
#240761
0;
#241161
0B
#241355
0G
#241356
0<
#241745
0C
#241937
0H
#241971
0=
#242528
0D
#242695
0I
#243018
0?
#250000
1$
#250596
14
#250776
1>
#251099
1A
#251102
1F
#251150
1K
#254501
03
0*
#255078
02
0)
#256339
01
0(
#260000
0$
#260761
04
#260919
0>
#270000
1!
#270596
15
#271054
1G
#271610
1H
#272358
1I
#280000
1$
#280596
14
#280776
1>
#281359
1J
#281961
0K
#287184
11
1(
#290000
0$
#290761
04
#290919
0>
#291532
0J
#300000
1"
0!
#300596
19
#300761
05
#301220
0G
#301802
0H
#302560
0I
#303694
1B
#304250
1C
#305031
1D
#310000
1$
#310596
14
#310776
1>
#311150
1K
#311356
1E
#312136
0F
#316054
12
1)
#316339
01
0(
#320000
0$
#320761
04
#320919
0>
#321551
0E
#330000
1!
#330596
15
#331054
1G
#331610
1H
#332358
1I
#340000
1$
#340596
14
#340776
1>
#341356
1E
#341359
1J
#341961
0K
#347184
11
1(
#350000
0$
#350761
04
#350919
0>
#351532
0J
#351551
0E
#360000
1#
0"
0!
#360596
1:
#360761
05
09
#361220
0G
#361802
0H
#362560
0I
#364052
1<
#364116
0B
#364610
1=
#364700
0C
#365483
0D
#365637
1?
#370000
1$
#370596
14
#370776
1>
#371102
1F
#371150
1K
#371358
1@
#371956
0A
#375078
02
0)
#375346
13
1*
#376339
01
0(
#380000
0$
#380761
04
#380919
0>
#381549
0@
#390000
1!
#390596
15
#391054
1G
#391610
1H
#392358
1I
#400000
1$
#400596
14
#400776
1>
#401358
1@
#401359
1J
#401961
0K
#407184
11
1(
#410000
0$
#410761
04
#410919
0>
#411532
0J
#411549
0@
#420000
1"
0!
#420596
19
#420761
05
#421220
0G
#421802
0H
#422560
0I
#423694
1B
#424250
1C
#425031
1D
#430000
1$
#430596
14
#430776
1>
#431150
1K
#431356
1E
#431358
1@
#432136
0F
#436054
12
1)
#436339
01
0(
#440000
0$
#440761
04
#440919
0>
#441549
0@
#441551
0E
#450000
1!
#450596
15
#451054
1G
#451610
1H
#452358
1I
#460000
1$
#460596
14
#460776
1>
#461356
1E
#461358
1@
#461359
1J
#461961
0K
#467184
11
1(
#470000
0$
#470761
04
#470919
0>
#471532
0J
#471549
0@
#471551
0E
#480000
1'
0&
#480596
17
#480761
06
#481523
0<
#482138
0=
#483185
0?
#483710
0G
#483715
18
#483867
0B
#484292
0H
#484451
0C
#485050
0I
#485234
0D
#490000
1$
#490596
14
#490776
1>
#491099
1A
#491102
1F
#491150
1K
#492049
1=
#492300
1C
#492372
1H
#494501
03
0*
#495078
02
0)
#496339
01
0(
#500000
0$
#500761
04
#500919
0>
#502208
1I
#502209
1?
#502210
1D
#510000
0!
#510761
05
#511522
0H
#512280
0I
#520000
1$
#520596
14
#520776
1>
#521356
1E
#521358
1@
#521956
0A
#522136
0F
#522937
0=
#523310
0C
#523984
0?
#524093
0D
#525346
13
1*
#526054
12
1)
#530000
0$
#530761
04
#530919
0>
#531549
0@
#531551
0E
#540000
0"
1!
#540596
15
#540761
09
#541345
1H
#542093
1I
#544412
1C
#545193
1D
#550000
1$
#550596
14
#550776
1>
#551099
1A
#551356
1E
#551359
1J
#551961
0K
#552049
1=
#553150
0H
#553908
0I
#554501
03
0*
#557184
11
1(
#560000
0$
#560761
04
#560919
0>
#561532
0J
#561551
0E
#562209
1?
#570000
0!
#570761
05
#571517
1H
#572265
1I
#580000
1$
#580596
14
#580776
1>
#581356
1E
#581358
1@
#581359
1J
#581956
0A
#582937
0=
#583984
0?
#585346
13
1*
#590000
0$
#590761
04
#590919
0>
#591532
0J
#591549
0@
#591551
0E
#600000
0#
1"
1!
#600596
15
19
#600761
0:
#601350
0H
#602108
0I
#603969
0C
#604224
1=
#604752
0D
#605251
1?
#610000
1$
#610596
14
#610776
1>
#611102
1F
#611150
1K
#611358
1@
#612300
1C
#612372
1H
#615078
02
0)
#616339
01
0(
#620000
0$
#620761
04
#620919
0>
#621549
0@
#622208
1I
#622210
1D
#630000
0!
#630761
05
#631522
0H
#632280
0I
#640000
1$
#640596
14
#640776
1>
#641356
1E
#641358
1@
#642136
0F
#643310
0C
#644093
0D
#646054
12
1)
#650000
0$
#650761
04
#650919
0>
#651549
0@
#651551
0E
#660000
0"
1!
#660596
15
#660761
09
#661345
1H
#662093
1I
#664412
1C
#665193
1D
#670000
1$
#670596
14
#670776
1>
#671356
1E
#671358
1@
#671359
1J
#671961
0K
#673150
0H
#673908
0I
#677184
11
1(
#680000
0$
#680761
04
#680919
0>
#681532
0J
#681549
0@
#681551
0E
#690000
0!
#690761
05
#691517
1H
#692265
1I
#700000
1$
#700596
14
#700776
1>
#701356
1E
#701358
1@
#701359
1J
#710000
0$
#710761
04
#710919
0>
#711532
0J
#711549
0@
#711551
0E
#720000
1&
#720596
16
#721322
08
#722055
0=
#722194
0C
#722196
0H
#722954
0I
#722977
0D
#723102
0?
#730000
1$
#730596
14
#730776
1>
#731099
1A
#731102
1F
#731150
1K
#734501
03
0*
#735078
02
0)
#736339
01
0(
#740000
0$
#740761
04
#740919
0>
#760000
1$
#760596
14
#760776
1>
#770000
0$
#770761
04
#770919
0>
#790000
1$
#790596
14
#790776
1>
#800000
0$
#800761
04
#800919
0>
#820000
1$
#820596
14
#820776
1>
#830000
0$
#830761
04
#830919
0>
#850000
1$
#850596
14
#850776
1>
#860000
0$
#860761
04
#860919
0>
#880000
1$
#880596
14
#880776
1>
#890000
0$
#890761
04
#890919
0>
#910000
1$
#910596
14
#910776
1>
#920000
0$
#920761
04
#920919
0>
#940000
1$
#940596
14
#940776
1>
#950000
0$
#950761
04
#950919
0>
#970000
1$
#970596
14
#970776
1>
#980000
0$
#980761
04
