automats/tests/newtstand/simulation/qsim/tstand.msim.vcd
$comment
	File created using the following command:
		vcd file tstand.msim.vcd -direction
$end
$date
	Fri Jul 10 12:42:11 2020
$end
$version
	ModelSim Version 10.5b
$end
$timescale
	1ps
$end

$scope module avtomat_myra_vhd_vec_tst $end
$var wire 1 ! CLK $end
$var wire 1 " CLRN $end
$var wire 1 # ENA $end
$var wire 1 $ tay1 $end
$var wire 1 % tay2 $end
$var wire 1 & tay3 $end
$var wire 1 ' x1 $end
$var wire 1 ( x2 $end
$var wire 1 ) y1 $end
$var wire 1 * y2 $end
$var wire 1 + y3 $end

$scope module i1 $end
$var wire 1 , gnd $end
$var wire 1 - vcc $end
$var wire 1 . unknown $end
$var wire 1 / devoe $end
$var wire 1 0 devclrn $end
$var wire 1 1 devpor $end
$var wire 1 2 ww_devoe $end
$var wire 1 3 ww_devclrn $end
$var wire 1 4 ww_devpor $end
$var wire 1 5 ww_tay1 $end
$var wire 1 6 ww_x1 $end
$var wire 1 7 ww_x2 $end
$var wire 1 8 ww_tay3 $end
$var wire 1 9 ww_CLRN $end
$var wire 1 : ww_tay2 $end
$var wire 1 ; ww_CLK $end
$var wire 1 < ww_ENA $end
$var wire 1 = ww_y1 $end
$var wire 1 > ww_y2 $end
$var wire 1 ? ww_y3 $end
$var wire 1 @ \CLRN~inputclkctrl_INCLK_bus\ [3] $end
$var wire 1 A \CLRN~inputclkctrl_INCLK_bus\ [2] $end
$var wire 1 B \CLRN~inputclkctrl_INCLK_bus\ [1] $end
$var wire 1 C \CLRN~inputclkctrl_INCLK_bus\ [0] $end
$var wire 1 D \CLK~inputclkctrl_INCLK_bus\ [3] $end
$var wire 1 E \CLK~inputclkctrl_INCLK_bus\ [2] $end
$var wire 1 F \CLK~inputclkctrl_INCLK_bus\ [1] $end
$var wire 1 G \CLK~inputclkctrl_INCLK_bus\ [0] $end
$var wire 1 H \tay1~output_o\ $end
$var wire 1 I \tay3~output_o\ $end
$var wire 1 J \tay2~output_o\ $end
$var wire 1 K \y1~output_o\ $end
$var wire 1 L \y2~output_o\ $end
$var wire 1 M \y3~output_o\ $end
$var wire 1 N \CLK~input_o\ $end
$var wire 1 O \CLK~inputclkctrl_outclk\ $end
$var wire 1 P \x2~input_o\ $end
$var wire 1 Q \x1~input_o\ $end
$var wire 1 R \inst32~0_combout\ $end
$var wire 1 S \inst40~0_combout\ $end
$var wire 1 T \inst32~1_combout\ $end
$var wire 1 U \CLRN~input_o\ $end
$var wire 1 V \CLRN~inputclkctrl_outclk\ $end
$var wire 1 W \ENA~input_o\ $end
$var wire 1 X \inst9~q\ $end
$var wire 1 Y \inst3~0_combout\ $end
$var wire 1 Z \inst3~1_combout\ $end
$var wire 1 [ \inst3~q\ $end
$var wire 1 \ \inst42~0_combout\ $end
$var wire 1 ] \inst~0_combout\ $end
$var wire 1 ^ \inst~q\ $end
$var wire 1 _ \inst39~combout\ $end
$var wire 1 ` \inst41~0_combout\ $end
$upscope $end
$upscope $end
$enddefinitions $end
#0
$dumpvars
1!
0"
0#
0$
0%
0&
0'
0(
1)
0*
0+
0,
1-
x.
1/
10
11
12
13
14
05
06
07
08
09
0:
1;
0<
1=
0>
0?
0H
0I
0J
1K
0L
0M
1N
1O
0P
0Q
0R
0S
1T
0U
0V
0W
0X
0Y
1Z
0[
1\
0]
0^
1_
0`
1D
1E
1F
1G
1@
1A
1B
0C
$end
#5000
0!
0;
0N
0G
0O
#10000
1!
1"
1#
1;
19
1<
1W
1U
1N
1C
1G
1O
1V
1X
1[
1]
1R
1Y
0Z
0\
1`
0]
1Z
0T
1J
1I
1:
18
1M
1%
1&
1?
1+
#15000
0!
0;
0N
0G
0O
#20000
1!
1;
1N
1G
1O
0X
0R
1S
0Z
1\
0_
0`
1]
0I
08
0M
0K
1L
0&
0?
0=
1>
0+
0)
1*
#25000
0!
0;
0N
0G
0O
#30000
1!
1;
1N
1G
1O
0[
1^
0\
1`
1R
0S
0Y
0]
1Z
1H
0J
15
0:
0L
1M
1$
0%
0>
1?
0*
1+
#35000
0!
0;
0N
0G
0O
#40000
1!
1;
1N
1G
1O
1[
0^
1\
0`
0R
1S
1Y
0Z
1]
0H
1J
05
1:
1L
0M
0$
1%
1>
0?
1*
0+
#45000
0!
0;
0N
0G
0O
#50000
1!
1;
1N
1G
1O
0[
1^
0\
1`
1R
0S
0Y
0]
1Z
1H
0J
15
0:
0L
1M
1$
0%
0>
1?
0*
1+
#55000
0!
0;
0N
0G
0O
#60000
1!
1;
1N
1G
1O
1[
0^
1\
0`
0R
1S
1Y
0Z
1]
0H
1J
05
1:
1L
0M
0$
1%
1>
0?
1*
0+
#65000
0!
0;
0N
0G
0O
#70000
1!
1;
1N
1G
1O
0[
1^
0\
1`
1R
0S
0Y
0]
1Z
1H
0J
15
0:
0L
1M
1$
0%
0>
1?
0*
1+
#75000
0!
0;
0N
0G
0O
#80000
1!
1;
1N
1G
1O
1[
0^
1\
0`
0R
1S
1Y
0Z
1]
0H
1J
05
1:
1L
0M
0$
1%
1>
0?
1*
0+
#85000
0!
0;
0N
0G
0O
#90000
1!
1;
1N
1G
1O
0[
1^
0\
1`
1R
0S
0Y
0]
1Z
1H
0J
15
0:
0L
1M
1$
0%
0>
1?
0*
1+
#95000
0!
0;
0N
0G
0O
#100000
1!
1;
1N
1G
1O
1[
0^
1\
0`
0R
1S
1Y
0Z
1]
0H
1J
05
1:
1L
0M
0$
1%
1>
0?
1*
0+
#105000
0!
0;
0N
0G
0O
#110000
1!
1;
1N
1G
1O
0[
1^
0\
1`
1R
0S
0Y
0]
1Z
1H
0J
15
0:
0L
1M
1$
0%
0>
1?
0*
1+
#115000
0!
0;
0N
0G
0O
#120000
1!
1;
1N
1G
1O
1[
0^
1\
0`
0R
1S
1Y
0Z
1]
0H
1J
05
1:
1L
0M
0$
1%
1>
0?
1*
0+
#125000
0!
0;
0N
0G
0O
#130000
1!
1;
1N
1G
1O
0[
1^
0\
1`
1R
0S
0Y
0]
1Z
1H
0J
15
0:
0L
1M
1$
0%
0>
1?
0*
1+
#135000
0!
0;
0N
0G
0O
#140000
1!
1;
1N
1G
1O
1[
0^
1\
0`
0R
1S
1Y
0Z
1]
0H
1J
05
1:
1L
0M
0$
1%
1>
0?
1*
0+
#145000
0!
0;
0N
0G
0O
#150000
1!
1;
1N
1G
1O
0[
1^
0\
1`
1R
0S
0Y
0]
1Z
1H
0J
15
0:
0L
1M
1$
0%
0>
1?
0*
1+
#155000
0!
0;
0N
0G
0O
#160000
1!
1;
1N
1G
1O
1[
0^
1\
0`
0R
1S
1Y
0Z
1]
0H
1J
05
1:
1L
0M
0$
1%
1>
0?
1*
0+
#165000
0!
0;
0N
0G
0O
#170000
1!
1;
1N
1G
1O
0[
1^
0\
1`
1R
0S
0Y
0]
1Z
1H
0J
15
0:
0L
1M
1$
0%
0>
1?
0*
1+
#175000
0!
0;
0N
0G
0O
#180000
1!
1;
1N
1G
1O
1[
0^
1\
0`
0R
1S
1Y
0Z
1]
0H
1J
05
1:
1L
0M
0$
1%
1>
0?
1*
0+
#185000
0!
0;
0N
0G
0O
#190000
1!
1;
1N
1G
1O
0[
1^
0\
1`
1R
0S
0Y
0]
1Z
1H
0J
15
0:
0L
1M
1$
0%
0>
1?
0*
1+
#195000
0!
0;
0N
0G
0O
#200000
1!
1;
1N
1G
1O
1[
0^
1\
0`
0R
1S
1Y
0Z
1]
0H
1J
05
1:
1L
0M
0$
1%
1>
0?
1*
0+
#205000
0!
0;
0N
0G
0O
#210000
1!
1;
1N
1G
1O
0[
1^
0\
1`
1R
0S
0Y
0]
1Z
1H
0J
15
0:
0L
1M
1$
0%
0>
1?
0*
1+
#215000
0!
0;
0N
0G
0O
#220000
1!
1;
1N
1G
1O
1[
0^
1\
0`
0R
1S
1Y
0Z
1]
0H
1J
05
1:
1L
0M
0$
1%
1>
0?
1*
0+
#225000
0!
0;
0N
0G
0O
#230000
1!
1;
1N
1G
1O
0[
1^
0\
1`
1R
0S
0Y
0]
1Z
1H
0J
15
0:
0L
1M
1$
0%
0>
1?
0*
1+
#235000
0!
0;
0N
0G
0O
#240000
1!
1;
1N
1G
1O
1[
0^
1\
0`
0R
1S
1Y
0Z
1]
0H
1J
05
1:
1L
0M
0$
1%
1>
0?
1*
0+
#245000
0!
0;
0N
0G
0O
#250000
1!
1;
1N
1G
1O
0[
1^
0\
1`
1R
0S
0Y
0]
1Z
1H
0J
15
0:
0L
1M
1$
0%
0>
1?
0*
1+
#255000
0!
0;
0N
0G
0O
#260000
1!
1;
1N
1G
1O
1[
0^
1\
0`
0R
1S
1Y
0Z
1]
0H
1J
05
1:
1L
0M
0$
1%
1>
0?
1*
0+
#265000
0!
0;
0N
0G
0O
#270000
1!
1;
1N
1G
1O
0[
1^
0\
1`
1R
0S
0Y
0]
1Z
1H
0J
15
0:
0L
1M
1$
0%
0>
1?
0*
1+
#275000
0!
0;
0N
0G
0O
#280000
1!
1;
1N
1G
1O
1[
0^
1\
0`
0R
1S
1Y
0Z
1]
0H
1J
05
1:
1L
0M
0$
1%
1>
0?
1*
0+
#285000
0!
0;
0N
0G
0O
#290000
1!
1;
1N
1G
1O
0[
1^
0\
1`
1R
0S
0Y
0]
1Z
1H
0J
15
0:
0L
1M
1$
0%
0>
1?
0*
1+
#295000
0!
0;
0N
0G
0O
#300000
1!
1;
1N
1G
1O
1[
0^
1\
0`
0R
1S
1Y
0Z
1]
0H
1J
05
1:
1L
0M
0$
1%
1>
0?
1*
0+
#305000
0!
0;
0N
0G
0O
#310000
1!
1;
1N
1G
1O
0[
1^
0\
1`
1R
0S
0Y
0]
1Z
1H
0J
15
0:
0L
1M
1$
0%
0>
1?
0*
1+
#315000
0!
0;
0N
0G
0O
#320000
1!
1;
1N
1G
1O
1[
0^
1\
0`
0R
1S
1Y
0Z
1]
0H
1J
05
1:
1L
0M
0$
1%
1>
0?
1*
0+
#325000
0!
0;
0N
0G
0O
#330000
1!
1;
1N
1G
1O
0[
1^
0\
1`
1R
0S
0Y
0]
1Z
1H
0J
15
0:
0L
1M
1$
0%
0>
1?
0*
1+
#335000
0!
0;
0N
0G
0O
#340000
1!
1;
1N
1G
1O
1[
0^
1\
0`
0R
1S
1Y
0Z
1]
0H
1J
05
1:
1L
0M
0$
1%
1>
0?
1*
0+
#345000
0!
0;
0N
0G
0O
#350000
1!
1;
1N
1G
1O
0[
1^
0\
1`
1R
0S
0Y
0]
1Z
1H
0J
15
0:
0L
1M
1$
0%
0>
1?
0*
1+
#355000
0!
0;
0N
0G
0O
#360000
1!
1;
1N
1G
1O
1[
0^
1\
0`
0R
1S
1Y
0Z
1]
0H
1J
05
1:
1L
0M
0$
1%
1>
0?
1*
0+
#365000
0!
0;
0N
0G
0O
#370000
1!
1;
1N
1G
1O
0[
1^
0\
1`
1R
0S
0Y
0]
1Z
1H
0J
15
0:
0L
1M
1$
0%
0>
1?
0*
1+
#375000
0!
0;
0N
0G
0O
#380000
1!
1;
1N
1G
1O
1[
0^
1\
0`
0R
1S
1Y
0Z
1]
0H
1J
05
1:
1L
0M
0$
1%
1>
0?
1*
0+
#385000
0!
0;
0N
0G
0O
#390000
1!
1;
1N
1G
1O
0[
1^
0\
1`
1R
0S
0Y
0]
1Z
1H
0J
15
0:
0L
1M
1$
0%
0>
1?
0*
1+
#395000
0!
0;
0N
0G
0O
#400000
1!
1;
1N
1G
1O
1[
0^
1\
0`
0R
1S
1Y
0Z
1]
0H
1J
05
1:
1L
0M
0$
1%
1>
0?
1*
0+
#405000
0!
0;
0N
0G
0O
#410000
1!
1;
1N
1G
1O
0[
1^
0\
1`
1R
0S
0Y
0]
1Z
1H
0J
15
0:
0L
1M
1$
0%
0>
1?
0*
1+
#415000
0!
0;
0N
0G
0O
#420000
1!
1;
1N
1G
1O
1[
0^
1\
0`
0R
1S
1Y
0Z
1]
0H
1J
05
1:
1L
0M
0$
1%
1>
0?
1*
0+
#425000
0!
0;
0N
0G
0O
#430000
1!
1;
1N
1G
1O
0[
1^
0\
1`
1R
0S
0Y
0]
1Z
1H
0J
15
0:
0L
1M
1$
0%
0>
1?
0*
1+
#435000
0!
0;
0N
0G
0O
#440000
1!
1;
1N
1G
1O
1[
0^
1\
0`
0R
1S
1Y
0Z
1]
0H
1J
05
1:
1L
0M
0$
1%
1>
0?
1*
0+
#445000
0!
0;
0N
0G
0O
#450000
1!
1;
1N
1G
1O
0[
1^
0\
1`
1R
0S
0Y
0]
1Z
1H
0J
15
0:
0L
1M
1$
0%
0>
1?
0*
1+
#455000
0!
0;
0N
0G
0O
#460000
1!
1;
1N
1G
1O
1[
0^
1\
0`
0R
1S
1Y
0Z
1]
0H
1J
05
1:
1L
0M
0$
1%
1>
0?
1*
0+
#465000
0!
0;
0N
0G
0O
#470000
1!
1;
1N
1G
1O
0[
1^
0\
1`
1R
0S
0Y
0]
1Z
1H
0J
15
0:
0L
1M
1$
0%
0>
1?
0*
1+
#475000
0!
0;
0N
0G
0O
#480000
1!
1;
1N
1G
1O
1[
0^
1\
0`
0R
1S
1Y
0Z
1]
0H
1J
05
1:
1L
0M
0$
1%
1>
0?
1*
0+
#485000
0!
0;
0N
0G
0O
#490000
1!
1;
1N
1G
1O
0[
1^
0\
1`
1R
0S
0Y
0]
1Z
1H
0J
15
0:
0L
1M
1$
0%
0>
1?
0*
1+
#495000
0!
0;
0N
0G
0O
#500000
1!
1;
1N
1G
1O
1[
0^
1\
0`
0R
1S
1Y
0Z
1]
0H
1J
05
1:
1L
0M
0$
1%
1>
0?
1*
0+
#505000
0!
0;
0N
0G
0O
#510000
1!
1;
1N
1G
1O
0[
1^
0\
1`
1R
0S
0Y
0]
1Z
1H
0J
15
0:
0L
1M
1$
0%
0>
1?
0*
1+
#515000
0!
0;
0N
0G
0O
#520000
1!
1;
1N
1G
1O
1[
0^
1\
0`
0R
1S
1Y
0Z
1]
0H
1J
05
1:
1L
0M
0$
1%
1>
0?
1*
0+
#525000
0!
0;
0N
0G
0O
#530000
1!
1;
1N
1G
1O
0[
1^
0\
1`
1R
0S
0Y
0]
1Z
1H
0J
15
0:
0L
1M
1$
0%
0>
1?
0*
1+
#535000
0!
0;
0N
0G
0O
#540000
1!
1;
1N
1G
1O
1[
0^
1\
0`
0R
1S
1Y
0Z
1]
0H
1J
05
1:
1L
0M
0$
1%
1>
0?
1*
0+
#545000
0!
0;
0N
0G
0O
#550000
1!
1;
1N
1G
1O
0[
1^
0\
1`
1R
0S
0Y
0]
1Z
1H
0J
15
0:
0L
1M
1$
0%
0>
1?
0*
1+
#555000
0!
0;
0N
0G
0O
#560000
1!
1;
1N
1G
1O
1[
0^
1\
0`
0R
1S
1Y
0Z
1]
0H
1J
05
1:
1L
0M
0$
1%
1>
0?
1*
0+
#565000
0!
0;
0N
0G
0O
#570000
1!
1;
1N
1G
1O
0[
1^
0\
1`
1R
0S
0Y
0]
1Z
1H
0J
15
0:
0L
1M
1$
0%
0>
1?
0*
1+
#575000
0!
0;
0N
0G
0O
#580000
1!
1;
1N
1G
1O
1[
0^
1\
0`
0R
1S
1Y
0Z
1]
0H
1J
05
1:
1L
0M
0$
1%
1>
0?
1*
0+
#585000
0!
0;
0N
0G
0O
#590000
1!
1;
1N
1G
1O
0[
1^
0\
1`
1R
0S
0Y
0]
1Z
1H
0J
15
0:
0L
1M
1$
0%
0>
1?
0*
1+
#595000
0!
0;
0N
0G
0O
#600000
1!
1;
1N
1G
1O
1[
0^
1\
0`
0R
1S
1Y
0Z
1]
0H
1J
05
1:
1L
0M
0$
1%
1>
0?
1*
0+
#605000
0!
0;
0N
0G
0O
#610000
1!
1;
1N
1G
1O
0[
1^
0\
1`
1R
0S
0Y
0]
1Z
1H
0J
15
0:
0L
1M
1$
0%
0>
1?
0*
1+
#615000
0!
0;
0N
0G
0O
#620000
1!
1;
1N
1G
1O
1[
0^
1\
0`
0R
1S
1Y
0Z
1]
0H
1J
05
1:
1L
0M
0$
1%
1>
0?
1*
0+
#625000
0!
0;
0N
0G
0O
#630000
1!
1;
1N
1G
1O
0[
1^
0\
1`
1R
0S
0Y
0]
1Z
1H
0J
15
0:
0L
1M
1$
0%
0>
1?
0*
1+
#635000
0!
0;
0N
0G
0O
#640000
1!
1;
1N
1G
1O
1[
0^
1\
0`
0R
1S
1Y
0Z
1]
0H
1J
05
1:
1L
0M
0$
1%
1>
0?
1*
0+
#645000
0!
0;
0N
0G
0O
#650000
1!
1;
1N
1G
1O
0[
1^
0\
1`
1R
0S
0Y
0]
1Z
1H
0J
15
0:
0L
1M
1$
0%
0>
1?
0*
1+
#655000
0!
0;
0N
0G
0O
#660000
1!
1;
1N
1G
1O
1[
0^
1\
0`
0R
1S
1Y
0Z
1]
0H
1J
05
1:
1L
0M
0$
1%
1>
0?
1*
0+
#665000
0!
0;
0N
0G
0O
#670000
1!
1;
1N
1G
1O
0[
1^
0\
1`
1R
0S
0Y
0]
1Z
1H
0J
15
0:
0L
1M
1$
0%
0>
1?
0*
1+
#675000
0!
0;
0N
0G
0O
#680000
1!
1;
1N
1G
1O
1[
0^
1\
0`
0R
1S
1Y
0Z
1]
0H
1J
05
1:
1L
0M
0$
1%
1>
0?
1*
0+
#685000
0!
0;
0N
0G
0O
#690000
1!
1;
1N
1G
1O
0[
1^
0\
1`
1R
0S
0Y
0]
1Z
1H
0J
15
0:
0L
1M
1$
0%
0>
1?
0*
1+
#695000
0!
0;
0N
0G
0O
#700000
1!
1;
1N
1G
1O
1[
0^
1\
0`
0R
1S
1Y
0Z
1]
0H
1J
05
1:
1L
0M
0$
1%
1>
0?
1*
0+
#705000
0!
0;
0N
0G
0O
#710000
1!
1;
1N
1G
1O
0[
1^
0\
1`
1R
0S
0Y
0]
1Z
1H
0J
15
0:
0L
1M
1$
0%
0>
1?
0*
1+
#715000
0!
0;
0N
0G
0O
#720000
1!
1;
1N
1G
1O
1[
0^
1\
0`
0R
1S
1Y
0Z
1]
0H
1J
05
1:
1L
0M
0$
1%
1>
0?
1*
0+
#725000
0!
0;
0N
0G
0O
#730000
1!
1;
1N
1G
1O
0[
1^
0\
1`
1R
0S
0Y
0]
1Z
1H
0J
15
0:
0L
1M
1$
0%
0>
1?
0*
1+
#735000
0!
0;
0N
0G
0O
#740000
1!
1;
1N
1G
1O
1[
0^
1\
0`
0R
1S
1Y
0Z
1]
0H
1J
05
1:
1L
0M
0$
1%
1>
0?
1*
0+
#745000
0!
0;
0N
0G
0O
#750000
1!
1;
1N
1G
1O
0[
1^
0\
1`
1R
0S
0Y
0]
1Z
1H
0J
15
0:
0L
1M
1$
0%
0>
1?
0*
1+
#755000
0!
0;
0N
0G
0O
#760000
1!
1;
1N
1G
1O
1[
0^
1\
0`
0R
1S
1Y
0Z
1]
0H
1J
05
1:
1L
0M
0$
1%
1>
0?
1*
0+
#765000
0!
0;
0N
0G
0O
#770000
1!
1;
1N
1G
1O
0[
1^
0\
1`
1R
0S
0Y
0]
1Z
1H
0J
15
0:
0L
1M
1$
0%
0>
1?
0*
1+
#775000
0!
0;
0N
0G
0O
#780000
1!
1;
1N
1G
1O
1[
0^
1\
0`
0R
1S
1Y
0Z
1]
0H
1J
05
1:
1L
0M
0$
1%
1>
0?
1*
0+
#785000
0!
0;
0N
0G
0O
#790000
1!
1;
1N
1G
1O
0[
1^
0\
1`
1R
0S
0Y
0]
1Z
1H
0J
15
0:
0L
1M
1$
0%
0>
1?
0*
1+
#795000
0!
0;
0N
0G
0O
#800000
1!
1;
1N
1G
1O
1[
0^
1\
0`
0R
1S
1Y
0Z
1]
0H
1J
05
1:
1L
0M
0$
1%
1>
0?
1*
0+
#805000
0!
0;
0N
0G
0O
#810000
1!
1;
1N
1G
1O
0[
1^
0\
1`
1R
0S
0Y
0]
1Z
1H
0J
15
0:
0L
1M
1$
0%
0>
1?
0*
1+
#815000
0!
0;
0N
0G
0O
#820000
1!
1;
1N
1G
1O
1[
0^
1\
0`
0R
1S
1Y
0Z
1]
0H
1J
05
1:
1L
0M
0$
1%
1>
0?
1*
0+
#825000
0!
0;
0N
0G
0O
#830000
1!
1;
1N
1G
1O
0[
1^
0\
1`
1R
0S
0Y
0]
1Z
1H
0J
15
0:
0L
1M
1$
0%
0>
1?
0*
1+
#835000
0!
0;
0N
0G
0O
#840000
1!
1;
1N
1G
1O
1[
0^
1\
0`
0R
1S
1Y
0Z
1]
0H
1J
05
1:
1L
0M
0$
1%
1>
0?
1*
0+
#845000
0!
0;
0N
0G
0O
#850000
1!
1;
1N
1G
1O
0[
1^
0\
1`
1R
0S
0Y
0]
1Z
1H
0J
15
0:
0L
1M
1$
0%
0>
1?
0*
1+
#855000
0!
0;
0N
0G
0O
#860000
1!
1;
1N
1G
1O
1[
0^
1\
0`
0R
1S
1Y
0Z
1]
0H
1J
05
1:
1L
0M
0$
1%
1>
0?
1*
0+
#865000
0!
0;
0N
0G
0O
#870000
1!
1;
1N
1G
1O
0[
1^
0\
1`
1R
0S
0Y
0]
1Z
1H
0J
15
0:
0L
1M
1$
0%
0>
1?
0*
1+
#875000
0!
0;
0N
0G
0O
#880000
1!
1;
1N
1G
1O
1[
0^
1\
0`
0R
1S
1Y
0Z
1]
0H
1J
05
1:
1L
0M
0$
1%
1>
0?
1*
0+
#885000
0!
0;
0N
0G
0O
#890000
1!
1;
1N
1G
1O
0[
1^
0\
1`
1R
0S
0Y
0]
1Z
1H
0J
15
0:
0L
1M
1$
0%
0>
1?
0*
1+
#895000
0!
0;
0N
0G
0O
#900000
1!
1;
1N
1G
1O
1[
0^
1\
0`
0R
1S
1Y
0Z
1]
0H
1J
05
1:
1L
0M
0$
1%
1>
0?
1*
0+
#905000
0!
0;
0N
0G
0O
#910000
1!
1;
1N
1G
1O
0[
1^
0\
1`
1R
0S
0Y
0]
1Z
1H
0J
15
0:
0L
1M
1$
0%
0>
1?
0*
1+
#915000
0!
0;
0N
0G
0O
#920000
1!
1;
1N
1G
1O
1[
0^
1\
0`
0R
1S
1Y
0Z
1]
0H
1J
05
1:
1L
0M
0$
1%
1>
0?
1*
0+
#925000
0!
0;
0N
0G
0O
#930000
1!
1;
1N
1G
1O
0[
1^
0\
1`
1R
0S
0Y
0]
1Z
1H
0J
15
0:
0L
1M
1$
0%
0>
1?
0*
1+
#935000
0!
0;
0N
0G
0O
#940000
1!
1;
1N
1G
1O
1[
0^
1\
0`
0R
1S
1Y
0Z
1]
0H
1J
05
1:
1L
0M
0$
1%
1>
0?
1*
0+
#945000
0!
0;
0N
0G
0O
#950000
1!
1;
1N
1G
1O
0[
1^
0\
1`
1R
0S
0Y
0]
1Z
1H
0J
15
0:
0L
1M
1$
0%
0>
1?
0*
1+
#955000
0!
0;
0N
0G
0O
#960000
1!
1;
1N
1G
1O
1[
0^
1\
0`
0R
1S
1Y
0Z
1]
0H
1J
05
1:
1L
0M
0$
1%
1>
0?
1*
0+
#965000
0!
0;
0N
0G
0O
#970000
1!
1;
1N
1G
1O
0[
1^
0\
1`
1R
0S
0Y
0]
1Z
1H
0J
15
0:
0L
1M
1$
0%
0>
1?
0*
1+
#975000
0!
0;
0N
0G
0O
#980000
1!
1;
1N
1G
1O
1[
0^
1\
0`
0R
1S
1Y
0Z
1]
0H
1J
05
1:
1L
0M
0$
1%
1>
0?
1*
0+
#985000
0!
0;
0N
0G
0O
#990000
1!
1;
1N
1G
1O
0[
1^
0\
1`
1R
0S
0Y
0]
1Z
1H
0J
15
0:
0L
1M
1$
0%
0>
1?
0*
1+
#995000
0!
0;
0N
0G
0O
